<!SGML HTML PUBLIC "+//IDN satoshii.org//SD HTML for Geocities 2.0//EN" "http://www.satoshii.org/dtd/geo/geo-html20.sd">
<!DOCTYPE Pre-HTML PUBLIC "+//IDN satoshii.org//DTD HTML for Geocities 2.0//JA" "http://www.satoshii.org/dtd/geo/geo-html20.dtd">
<html xml:lang="ja" lang="ja" dir="ltr">
<head>
<meta http-equiv="Content-Type" content="text/html; charset=EUC-JP" />
<meta http-equiv="Content-Style-Type" content="text/css" />
<meta name="author" content="えむしぐま" />
<meta name="copyright" xml:lang="en" lang="en" content="&#169; 2003-2004 Em-Sigma, Silent Vacant Space." />
<link rev="made" href="mailto:&#101;&#109;&#95;&#115;&#105;&#103;&#109;&#97;&#64;&#121;&#97;&#104;&#111;&#111;&#46;&#99;&#111;&#46;&#106;&#112;" />
<link rel="stylesheet" href="../style_sheets/green_lines.css" title="みどりのせん" />
<link rel="next" href="2004-11.html" title="2004年11月" />
<link rel="prev" href="2004-09.html" title="2004年9月" />
<link rel="contents index" href="./" title="ささやきのきれはし" />
<title>ささやきのきれはし（2004年10月）</title>
</head>
<body><!-- geoguide start --><div align=center><script language="JavaScript">var jps=(null);var jpt=1193152576</script><script language="JavaScript" src="http://bc.geocities.yahoo.co.jp/js/gg.js"></script></div><!-- geoguide end -->
<h1>ささやきのきれはし（2004年10月）</h1>
<div class="section">
	<h2>2004年10月2日</h2>
	<div class="section" id="NOTES-2004-10-02-1">
		<h3>改称</h3>
		<p>何の前触れもなく突然改称。</p>
	</div>
	<div class="section" id="NOTES-2004-10-02-2">
		<h3>過去のソフトの<abbr xml:lang="en" lang="en" title="MPEG Audio Layer-3">MP3</abbr>ファイルを再公開</h3>
		<ul xml:lang="en" lang="en">
			<li><a href="http://www.rareware.com/extra/downloads/download_n64.html" hreflang="en">Classic Rare <abbr title="Nintendo 64">N64</abbr> <abbr title="MPEG Audio Layer-3">MP3</abbr> Files</a></li>
		</ul>
		<p><a href="http://www.rareware.com/" hreflang="en">レア社公式サイト</a>にて、かつて、買収される以前、同所に公開されていた、<span xml:lang="en" lang="en">NINTENDO 64</span>時代のソフトの音楽の<abbr xml:lang="en" lang="en" title="MPEG Audio Layer-3">MP3</abbr>ファイルの一部が再公開されました。</p>
		<p>再公開されたのは、「バンジョーとカズーイの大冒険2<span xml:lang="en" lang="en">(Banjo-Tooie)</span>」、「スターツインズ<span xml:lang="en" lang="en">(Jet Force Genimi)</span>」、「<span xml:lang="en" lang="en">Conker&#39;s Bad Fur Day</span>」の3作品の音楽の<abbr xml:lang="en" lang="en" title="MPEG Audio Layer-3">MP3</abbr>ファイルです。</p>
		<dl>
			<dt>情報元</dt>
			<dd><a href="http://homepage2.nifty.com/breegull/index2.html" xml:lang="en" lang="en">ATLANTIS</a></dd>
		</dl>
	</div>
	<div class="section" id="NOTES-2004-10-02-3">
		<h3>「<span xml:lang="en" lang="en">Bottles&#39; Revenge</span>」はソフト内に残っていた</h3>
		<ul xml:lang="en" lang="en">
			<li><a href="http://www.rarewitchproject.com/news.php?id=202" hreflang="en">Bottles&#39; Revenge Unlocked</a></li>
			<li><a href="http://www.rarewitchproject.com/news.php?id=203" hreflang="en">Bottles&#39; Revenge Video Released!</a></li>
			<li><a href="http://www.rarewitchproject.com/news.php?id=204" hreflang="en">Bottles&#39; Revenge codes ahoy.</a></li>
		</ul>
		<blockquote title="バンジョーとカズーイの大冒険2（英語版）" xml:lang="en" lang="en">
			<p>Ha, ha, haaaa. Finally I am free!</p>
		</blockquote>
		<p><a href="http://www.rarewitchproject.com/" hreflang="en" xml:lang="en" lang="en">Rare Witch Project</a>が、改造機器によって、<abbr title="バンジョーとカズーイの大冒険2">バンカズ2</abbr>のソフトの中に、「<span xml:lang="en" lang="en">Bottles&#39; Revenge</span>」が<em>仕込まれている</em>のを発見し、そして、「<span xml:lang="en" lang="en">Bottles&#39; Revenge</span>」をプレイする為の改造コードを公開しました。</p>
		<p>「<span xml:lang="en" lang="en">Bottles&#39; Revenge</span>」というのは、<abbr title="バンジョーとカズーイの大冒険2">バンカズ2</abbr>の開発版にのみ存在し、製品版では無くなってしまった幻のミニゲームで、その存在自体は、大分前から知られていました。ところが、それが、表面的な無くなっただけで、製品版の何処かに残っているのか、それとも完全に削除されてしまったのかは、これまでは全く分かっていませんでした。</p>
		<p>……というか、私は改造機器を持っていないので、この成り行きをただ見ているしかないんですけどね。少し残念ではありますが。</p>
	</div>
	<div class="section" id="NOTES-2004-10-02-4">
		<h3>久し振りに</h3>
		<p>という訳で、久し振りに<abbr title="バンジョーとカズーイの大冒険">バンカズ</abbr>関係の話題について触れてみたのでした。</p>
	</div>
</div>
<div class="section">
	<h2>2004年10月4日</h2>
	<div class="section" id="NOTES-2004-10-04-1">
		<h3>ついに統合 その2</h3>
		<p>とうとう明日ですね。というか、明日とは言っても、もうあと約30分後ぐらいだったりするのですが。</p>
	</div>
</div>
<div class="section">
	<h2>2004年10月5日</h2>
	<div class="section" id="NOTES-2004-10-05-1">
		<h3>ついに統合 その3</h3>
		<p>という訳で、30分くらい経ったのですが。やはりそんなにすぐという訳ではないようで……。</p>
	</div>
</div>
<div class="section">
	<h2>2004年10月6日</h2>
	<div class="section" id="NOTES-2004-10-06-1">
		<h3>ついに統合 その4</h3>
		<ul>
			<li><a href="http://www.geocities.jp/em_sigma/notebook/latest.html">http://www.geocities.jp/em_sigma/notebook/latest.html</a></li>
			<li><a href="http://www.geocities.co.jp/Playtown-Bishop/5998/notebook/latest.html">http://www.geocities.co.jp/Playtown-Bishop/5998/notebook/latest.html</a></li>
		</ul>
		<p>という訳で、移行手続きを済ませて来ました。</p>
	</div>
</div>
<div class="section">
	<h2>2004年10月7日</h2>
	<div class="section" id="NOTES-2004-10-07-1">
		<h3>広告形式変更に伴う弊害</h3>
		<ul>
			<li><a href="http://validator.w3.org/check/referer" hreflang="en">この文書を<span xml:lang="en" lang="en"><abbr title="World Wide Web Consortium">W3C</abbr> Markup Validation Service</span>で検証</a></li>
		</ul>
		<blockquote xml:lang="en" lang="en" cite="http://validator.w3.org/check/referer" title="Validation Results">
			<p>This page is <strong>not</strong> Valid +//IDN satoshii.org//DTD HTML for Geocities 1.1//JA!</p>
		</blockquote>
		<p>今回の統合に伴う広告形式の変更により、残念ながら、<a href="http://www.geocities.co.jp/Hollywood-Studio/8691/" xml:lang="en" lang="en" title="Geocities で valid な HTML を - マークの付けかた"><abbr title="HyperText Markup Language">HTML</abbr> for Geocities 1.1</a>では、ジオシティーズに置いてある<abbr xml:lang="en" lang="en" title="HyperText Markup Language">HTML</abbr>文書を妥当にさせる事が出来なくなってしまいました……。</p>
		<p>ところで、<a href="http://www.satoshii.org/markup/" title="マークの付けかた">石川さん</a>は<span xml:lang="en" lang="en"><abbr title="HyperText Markup Language">HTML</abbr> for Geocities</span>を、この新しい広告形式に対応させる御予定はございますか……?</p>
	</div>
	<div class="section" id="NOTES-2004-10-07-2">
		<h3>好い加減</h3>
		<p>記事を書きっぱなしでそのままにするのは、好い加減やめにしなければ……。そろそろ一旦整理します。</p>
	</div>
</div>
<div class="section">
	<h2>2004年10月9日</h2>
	<div class="section" id="NOTES-2004-10-09-1">
		<h3 xml:lang="en" lang="en"><abbr title="HyperText Markup Language">HTML</abbr> for Geocities 2.0</h3>
		<p><a href="http://www.satoshii.org/markup/" title="マークの付けかた"><span xml:lang="en" lang="en">satoshii</span>さん（石川哲志さん）</a>が、<span xml:lang="en" lang="en"><abbr title="HyperText Markup Language">HTML</abbr> for Geocities</span>が新しい広告に対応された事を、直々に、<a href="http://www.21styles.com/web/emsigma/">掲示板</a>まで報告して下さいました。どうもありがとうございます。</p>
		<dl>
			<dt>関連</dt>
			<dd>
				<ul>
					<li><a href="http://www.satoshii.org/markup/notes/2004/10#date08-2">2004-10-08: 短縮参照と B 列 - マーク付けノート</a></li>
					<li>（2004年10月10日追記）<a href="http://www.satoshii.org/bubble/2004/10#date09">2004-10-09: - <span xml:lang="en" lang="en">bubble hour</span></a></li>
				</ul>
			</dd>
		</dl>
	</div>
</div>
<div class="section">
	<h2>2004年10月10日</h2>
	<div class="section" id="NOTES-2004-10-10-1">
		<h3>「公式リンクバナー」始めました</h3>
		<p>一応、当サイトも「任天堂サイト」の端くれ（のつもり）という事で、<a href="http://touch-ds.jp/">Touch-DS.jp</a>の「公式リンクバナー」とやらを貼ってみる事にしました。</p>
		<p>本当は<span xml:lang="en" lang="en">FLASH</span>版の方を貼りたかったのですが、残念ながら、スクリプトの内容に妥当でない記述が含まれていたので<abbr xml:lang="en" lang="en">GIF</abbr>版の方で。</p>
		<dl>
			<dt>関連</dt>
			<dd>
				<ul>
					<li><a href="http://www.nintendo.co.jp/ds/">ニンテンドーＤＳ - 任天堂ホームページ</a></li>
				</ul>
			</dd>
		</dl>
	</div>
</div>
<div class="section">
	<h2>2004年10月24日</h2>

	<div class="section" id="NOTES-2004-10-24-1">
		<h3>まわる……</h3>
		<ul>
			<li><a href="http://www.google.com/search?q=%E3%81%BE%E3%82%8F%E3%82%8B"><span xml:lang="en" lang="en">Google</span> 検索: まわる</a></li>
		</ul>
		<p><a href="http://www.nintendo.co.jp/n08/rzwj/">「まわるメイドインワリオ」の公式サイト</a>が1番上に。</p>

	</div>
	<div class="section" id="NOTES-2004-10-24-2">
		<h3>さわる……</h3>
		<ul>
			<li><a href="http://www.google.com/search?q=%E3%81%95%E3%82%8F%E3%82%8B"><span xml:lang="en" lang="en">Google</span> 検索: さわる</a></li>
		</ul>
		<p><a href="http://www.nintendo.co.jp/ds/software/madeinwario/">任天堂ホームページ内の「さわるメイドインワリオ」の紹介ページ</a>が1番上に。</p>
	</div>
</div>
<div class="section">
	<h2>2004年10月29日</h2>
	<div class="section" id="NOTES-2004-10-29-1">
		<h3>ジオシティーズで<span xml:lang="en" lang="en">valid</span>な<abbr xml:lang="en" lang="en" title="Extensible HyperText Markup Language">XHTML</abbr>を</h3>
		<dl>
			<dt>注</dt>
			<dd>
				<p>テスト用の<abbr xml:lang="en" lang="en" title="Extensible Markup Language">XML</abbr>文書は、一部の<abbr xml:lang="en" lang="en" title="User Agent">UA</abbr>（<abbr xml:lang="en" lang="en" title="Internet Explorer 6 (Windows)">WinIE6</abbr>など）では上手く処理されません。</p>
			</dd>
		</dl>
		<p><a href="http://help.yahoo.co.jp/help/jp/geo/transfer/transfer-11.html">ジオシティーズに置けるファイルの種類</a>を見て、今更になって<abbr xml:lang="en" lang="en" title="Extensible Markup Language">XML</abbr>文書を置く事が出来る事に気がつきました。というか、それなら<abbr xml:lang="en" lang="en" title="Extensible HyperText Markup Language">XHTML</abbr>文書も置く事が出来るじゃないか、と考えて、早速文書を作ってみました。</p>
		<ul>
			<li><a href="2004-10-29-1_test.xml">テスト</a></li>
		</ul>
		<p>しかし、早速<a href="http://validator.w3.org/check?uri=http%3A%2F%2Fwww.geocities.jp%2Fem_sigma%2Fnotebook%2F2004-10-29-1_test.xml" title="W3C Markup Validation Service: Validation Results" xml:lang="en" lang="en">検証</a>してみたところ、「文字コードに無い文字が含まれている」と怒られてしまいました……。</p>
		<p><abbr xml:lang="en" lang="en" title="Extensible Markup Language">XML</abbr>宣言に文字コードを明記してあるのに何故? ……と、考えていたら、注釈が添えてあるのを見つけました。</p>
		<blockquote xml:lang="en" lang="en" cite="http://validator.w3.org/check?uri=http%3A%2F%2Fwww.geocities.jp%2Fem_sigma%2Fnotebook%2F2004-10-29-1_test.xml" title="W3C Markup Validation Service: Validation Results">
			<p>The <abbr title="HyperText Transfer Protocol">HTTP</abbr> Content-Type header returned by your web server (unknown) did not contain a &quot;charset&quot; parameter, but the Content-Type was one of the <abbr title="Extensible Markup Language">XML</abbr> text/* sub-types (text/xml). The relevant specification (<a href="http://www.ietf.org/rfc/rfc3023.txt"><abbr title="Request for Comments">RFC</abbr> 3023</a>) specifies a strong default of &quot;us-ascii&quot; for such documents so we will use this value regardless of any encoding you may have indicated elsewhere. If you would like to use a different encoding, you should arrange to have your server return this new encoding information.</p>
		</blockquote>
		<dl>
			<dt>参考</dt>
			<dd>
				<ul>
					<li><a xml:lang="en" lang="en" href="http://www.satoshii.org/spec/xhtml-media-types/latest#text-xml"><abbr title="Extensible HyperText Markup Language">XHTML</abbr> Media Types (ja): 3.4. text/xml</a></li>
					<li><a href="http://yupotan.sppd.ne.jp/web/xml-mime.html"><abbr xml:lang="en" lang="en" title="Extensible Markup Language">XML</abbr> 文書での MIME 型の位置附け @ ぽかぽか<span xml:lang="en" lang="en">Web</span>研究室</a></li>
				</ul>
			</dd>
		</dl>
		<p>メディア型がtext/xmlの場合、サーバ側で文字コードを指定されていないと、<abbr xml:lang="en" lang="en" title="Extensible Markup Language">XML</abbr>宣言にどのように記述されていたとしても、文字コードは強制的にus-asciiとなってしまうそうです。</p>
		<p>ちなみに文字コードがus-asciiである文書を試してみると、普通に<span xml:lang="en" lang="en">Validator</span>を通りました。</p>
		<ul>
			<li><a xml:lang="en" lang="en" href="2004-10-29-1_test_2.xml" hreflang="en">Test 2</a></li>
		</ul>
		<p>つまり、<em>ジオシティーズでは、日本語を含む<abbr xml:lang="en" lang="en" title="Extensible Markup Language">XML</abbr>文書を普通に置く事が出来ない</em>（注）、という事ですか……（汗</p>
		<dl>
			<dt>注</dt>
			<dd>
				<p><a href="2004-10-29-1_test_3.xml">数値文字参照を利用する</a>、というやり方もあるのですが、多くの文書を作成する場合、現実的ではありません。</p>
			</dd>
		</dl>
		<p>もし、日本語を含む<abbr xml:lang="en" lang="en" title="Extensible Markup Language">XML</abbr>文書を普通に置く事が出来たら、<abbr xml:lang="en" lang="en" title="Extensible HyperText Markup Language">XHTML</abbr>対応<abbr xml:lang="en" lang="en" title="User Agent">UA</abbr>向けに<abbr xml:lang="en" lang="en" title="Extensible HyperText Markup Language">XHTML</abbr>版の文書も作成するんですけどね……残念。</p>
	</div>
</div>
<div class="section" id="FOOTER">
	<h2 xml:lang="en" lang="en">Footer</h2>
	<div class="section" id="NAVIGATION">
		<h3>ナビゲーション</h3>
		<ol>
			<li><a href="../">しずけさのあきち</a></li>
			<li><a rel="contents index" href="./">ささやきのきれはし</a></li>
		</ol>
		<dl>
			<dt>次</dt>
			<dd><a rel="next" href="2004-11.html">2004年11月</a></dd>
			<dt>前</dt>
			<dd><a rel="prev" href="2004-09.html">2004年9月</a></dd>
		</dl>
	</div>
	<div class="section" id="ADDRESS">
		<h3>連絡先</h3>
		<div class="address-group">
			<address>えむしぐま &lt;<a rev="made" href="mailto:&#101;&#109;&#95;&#115;&#105;&#103;&#109;&#97;&#64;&#121;&#97;&#104;&#111;&#111;&#46;&#99;&#111;&#46;&#106;&#112;">&#101;&#109;&#95;&#115;&#105;&#103;&#109;&#97;&#64;&#121;&#97;&#104;&#111;&#111;&#46;&#99;&#111;&#46;&#106;&#112;</a>&gt;</address>
		</div>
	</div>
</div>
</body>
</html><!-- text below generated by server. PLEASE REMOVE --></object></layer></div></span></style></noscript></table></script></applet><script language="JavaScript" src="http://bc.geocities.yahoo.co.jp/js/geov2.js"></script><script language="javascript">geovisit();</script><noscript><img src="http://visit.geocities.jp/visit.gif?jp1193152576" alt="setstats" border="0" width="1" height="1"></noscript><IMG SRC="http://bc.geocities.yahoo.co.jp/serv?s=382116072&t=1193152576" ALT=1 WIDTH=1 HEIGHT=1>