<?xml version="1.0" encoding="UTF-8"?>
<xs:schema 
    xmlns:xs="http://www.w3.org/2001/XMLSchema" 
    xmlns:xh11d="http://www.w3.org/1999/xhtml/datatypes/"
    elementFormDefault="qualified" 
>
  <xs:annotation>
    <xs:documentation>
      This is the XML Schema Hypertext Attributes module for XHTML

      $Id: Overview.html,v 1.2 2007/04/10 21:08:54 jigsaw Exp $
    </xs:documentation>
    <xs:documentation source="xhtml-rdfa-copyright-1.xsd"/>
  </xs:annotation>

  <xs:annotation>
    <xs:documentation>
      XHTML Hypertext Attributes
    </xs:documentation>
  </xs:annotation>

  <xs:attribute name="href" type="xs:anyURI"/>
  <xs:attribute name="hreflang" type="xh11d:LanguageCodes"/>
  <xs:attribute name="hrefmedia" type="xh11d:MediaDesc"/>
  <xs:attribute name="hreftype" type="xh11d:ContentTypes"/>

  <xs:attributeGroup name="XHTML.hyperAttributes.attlist">
    <xs:attribute ref="href"/>
    <xs:attribute ref="hreflang"/>
    <xs:attribute ref="hrefmedia"/>
    <xs:attribute ref="hreftype"/>
  </xs:attributeGroup>

</xs:schema>