<!-- An experimental NRL schema for SVG + RDF
     $Id: svg-rdf.nrl,v 1.2 2003/12/08 09:35:37 mimasa Exp $
-->
<rules startMode="root"
       xmlns="http://www.thaiopensource.com/validate/nrl">
  <mode name="root">
    <namespace ns="http://www.w3.org/2000/svg">
      <validate schema="../rng/svg.rng" useMode="any">
        <context path="metadata" useMode="rdf"/>
      </validate>
    </namespace>
  </mode>
  <mode name="rdf">
    <namespace ns="http://www.w3.org/1999/02/22-rdf-syntax-ns#">
      <validate schema="http://www.w3.org/TR/rdf-syntax-grammar/rdfxml.rng"
        useMode="any"/>
    </namespace>
  </mode>
  <mode name="any">
    <anyNamespace>
      <allow/>
    </anyNamespace>
  </mode>
</rules>
