<!-- ...................................................................... -->
<!-- XHTML Datatypes Module  .............................................. -->
<!-- file: xhtml-datatypes-1.mod

     This is XHTML, a reformulation of HTML as a modular XML application.
     Copyright 1998-2005 W3C (MIT, ERCIM, Keio), All Rights Reserved.
     Revision: $Id: xhtml-datatypes-1.mod,v 4.1 2001/04/06 19:23:32 altheim Exp $ SMI

     This DTD module is identified by the PUBLIC and SYSTEM identifiers:

       PUBLIC "-//W3C//ENTITIES XHTML Datatypes 1.0//EN"
       SYSTEM "http://www.w3.org/TR/2008/PR-xhtml-modularization-20080611/DTD/xhtml-datatypes-1.mod"

     Revisions:
     (none)
     ....................................................................... -->

<!-- Datatypes

     defines containers for the following datatypes, many of
     these imported from other specifications and standards.
-->

<!-- Length defined for cellpadding/cellspacing -->

<!-- nn for pixels or nn% for percentage length -->
<!ENTITY % Length.datatype "CDATA" >

<!-- space-separated list of link types -->
<!ENTITY % LinkTypes.datatype "NMTOKENS" >

<!-- single or comma-separated list of media descriptors -->
<!ENTITY % MediaDesc.datatype "CDATA" >

<!-- pixel, percentage, or relative -->
<!ENTITY % MultiLength.datatype "CDATA" >

<!-- one or more digits (NUMBER) -->
<!ENTITY % Number.datatype "CDATA" >

<!-- integer representing length in pixels -->
<!ENTITY % Pixels.datatype "CDATA" >

<!-- script expression -->
<!ENTITY % Script.datatype "CDATA" >

<!-- textual content -->
<!ENTITY % Text.datatype "CDATA" >

<!-- Placeholder Compact URI-related types -->
<!ENTITY % CURIE.datatype "CDATA" >
<!ENTITY % CURIEs.datatype "CDATA" >
<!ENTITY % SafeCURIE.datatype "CDATA" >
<!ENTITY % SafeCURIEs.datatype "CDATA" >
<!ENTITY % URIorSafeCURIE.datatype "CDATA" >
<!ENTITY % URIorSafeCURIEs.datatype "CDATA" >

<!-- Imported Datatypes ................................ -->

<!-- a single character from [ISO10646] -->
<!ENTITY % Character.datatype "CDATA" >

<!-- a character encoding, as per [RFC2045] -->
<!ENTITY % Charset.datatype "CDATA" >

<!-- a space separated list of character encodings, as per [RFC2045] -->
<!ENTITY % Charsets.datatype "CDATA" >

<!-- Color specification using color name or sRGB (#RRGGBB) values -->
<!ENTITY % Color.datatype "CDATA" >

<!-- media type, as per [RFC2045] -->
<!ENTITY % ContentType.datatype "CDATA" >

<!-- comma-separated list of media types, as per [RFC2045] -->
<!ENTITY % ContentTypes.datatype "CDATA" >

<!-- date and time information. ISO date format -->
<!ENTITY % Datetime.datatype "CDATA" >

<!-- formal public identifier, as per [ISO8879] -->
<!ENTITY % FPI.datatype "CDATA" >

<!-- a language code, as per [RFC3066] or its successor -->
<!ENTITY % LanguageCode.datatype "CDATA" >

<!-- a comma separated list of language code ranges -->
<!ENTITY % LanguageCodes.datatype "CDATA" >

<!-- a qualified name , as per [XMLNS] or its successor -->
<!ENTITY % QName.datatype "CDATA" >
<!ENTITY % QNames.datatype "CDATA" >

<!-- a Uniform Resource Identifier, see [URI] -->
<!ENTITY % URI.datatype "CDATA" >

<!-- a space-separated list of Uniform Resource Identifiers, see [URI] -->
<!ENTITY % URIs.datatype "CDATA" >

<!-- end of xhtml-datatypes-1.mod -->

