<html><head><meta http-equiv="content-type" content="text/html; charset=UTF-8"><title>mozilla_tidy_source/tidy_extension/xpi/sgml-lib/REC-xhtml-basic-20001219/xhtml-symbol.ent - Google Code Search</title><style><!--
body {background-color:white;color:black;font-family:Arial, sans-serif;margin:8px;margin-top:3px}
.j{white-space:-moz-pre-wrap;	white-space:-pre-wrap;	white-space:-o-pre-wrap;	word-wrap:break-word;	margin-top:4px;margin-bottom:4px;border:1px solid silver;background-color:#f5f5f5;padding:0.5em;width:85%;color:#222;}
#title {border-top:1px solid #36c;background-color:#e5ecf9;margin:0;padding:0;padding-top:1px;padding-bottom:1px;padding-left:3px;margin-top:5px}
.expl {font-size:small;margin-left:2em;margin-right:2em}
.f {font-size:small;margin-bottom:1.5em}
.hl{font-weight:bold;color:#000}
.h{margin-top:1em;margin-bottom:0px}
.k {background-color:#36c}
.a,.a a{font-size:small;color:green}
a:active{color:#f00}a:link{color:#00c}a:visited{color:#551a8b}a.s,.s a{font-size:small;color:#77c}.a,.a a{font-size:small;color:green}.i, .i:link {color:#a90a08;font-size:small}
.n .i {font-size:10pt;font-weight:bold}
.n a {font-size:10pt;color:#000}
.b a {font-size:12pt;color:#00c;font-weight:bold}
code {color: #007000; font-family:"bogus font here",monospace; font-size: 100%;}
code.fn {color: #007000; font-family:"bogus font here",monospace; font-size: 100%;}
div.n {margin-top:1ex}
img{border:0}
.chl {background:#ffa}
.cchl {background:#aff}
.cclhl {background:#e8f4f7;display:block}
.cc {color:#060}
.input_table tr td {vertical-align:top;}--></style>
<script type="text/javascript">
<!--
function sf(){}
// --></script></head><body bgcolor=#ffffff onload="sf()"><table cellspacing=0 cellpadding=0 border=0 width=100%><tr><td align=left valign=top><a href="/codesearch"><img src="http://www.google.com/intl/en/images/codesearch_logo_sm.gif" width=150 height=55 alt="" border=0 vspace=12></a></td><td width=10></td><td align=left><font size=-1>This is Google's cached copy of <code class=fn>mozilla_tidy_source/tidy_extension/xpi/sgml-lib/REC-xhtml-basic-20001219/xhtml-symbol.ent</code> from<br><span class="a"><a href="codesearch/url?hl=en&ct=rpc&url=http://users.skynet.be/mgueury/mozilla/tidy_08x_source.zip&usg=AFQjCNFecLonw5eEXUaOOFUc28sq6tFk9w">http://users.skynet.be/mgueury/mozilla/tidy_08x_source.zip</a></span> <br><br><i>Google is neither affiliated with the authors of this page nor responsible for its content.</i></font></td></tr><tr height=10><td colspan=3></td></tr><tr height=1 bgcolor=#000000><td bgcolor=#000000 colspan=3></td></tr></table><br><table cellspacing=0 cellpadding=0 border=0 width=100%><tr><td align=left valign=top colspan=4><pre><a href="/codesearch?hl=en&amp;q=show:eU0EuvDRNYs:rwEtmQFIluY&amp;sa=N&amp;ct=rdp&amp;cs_p=http://users.skynet.be">http://users.skynet.be</a>/<a href="/codesearch?hl=en&amp;q=show:ozOXaw3a1qs:9alDXuevGD0&amp;sa=N&amp;ct=rdp&amp;cs_p=http://users.skynet.be&amp;cs_f=mgueury">mgueury</a>/<a href="/codesearch?hl=en&amp;q=show:uVx3IdDidwk:10M3ZSfbaYE&amp;sa=N&amp;ct=rdp&amp;cs_p=http://users.skynet.be&amp;cs_f=mgueury/mozilla">mozilla</a>/<a href="/codesearch?hl=en&amp;q=show:SM_R3GbDAfQ:QZXoFApwGAQ&amp;sa=N&amp;ct=rdp&amp;cs_p=http://users.skynet.be/mgueury/mozilla/tidy_08x_source.zip">tidy_08x_source.zip</a>/<a href="/codesearch?hl=en&amp;q=show:cAjNKJVA3LA:9nQINOx9IOg&amp;sa=N&amp;ct=rdp&amp;cs_p=http://users.skynet.be/mgueury/mozilla/tidy_08x_source.zip&amp;cs_f=mozilla_tidy_source">mozilla_tidy_source</a>/<a href="/codesearch?hl=en&amp;q=show:g09kpcc7uto:B4HgLtyn-7M&amp;sa=N&amp;ct=rdp&amp;cs_p=http://users.skynet.be/mgueury/mozilla/tidy_08x_source.zip&amp;cs_f=mozilla_tidy_source/tidy_extension">tidy_extension</a>/<a href="/codesearch?hl=en&amp;q=show:r65OzAw_92c:vxcNSgIQcGA&amp;sa=N&amp;ct=rdp&amp;cs_p=http://users.skynet.be/mgueury/mozilla/tidy_08x_source.zip&amp;cs_f=mozilla_tidy_source/tidy_extension/xpi">xpi</a>/<a href="/codesearch?hl=en&amp;q=show:48MxNM6690U:GGuOTYL7VNc&amp;sa=N&amp;ct=rdp&amp;cs_p=http://users.skynet.be/mgueury/mozilla/tidy_08x_source.zip&amp;cs_f=mozilla_tidy_source/tidy_extension/xpi/sgml-lib">sgml-lib</a>/<a href="/codesearch?hl=en&amp;q=show:Tr7_LGRdAts:3tK5YBO_TXk&amp;sa=N&amp;ct=rdp&amp;cs_p=http://users.skynet.be/mgueury/mozilla/tidy_08x_source.zip&amp;cs_f=mozilla_tidy_source/tidy_extension/xpi/sgml-lib/REC-xhtml-basic-20001219">REC-xhtml-basic-20001219</a>/</pre></td></tr><tr><td>&nbsp;&nbsp;&nbsp;&nbsp;</td><td align=left valign=top><pre><a href="/codesearch?hl=en&amp;q=show:G6fs28yd2rk:Tr7_LGRdAts:xsPpppRk0rI&amp;sa=N&amp;ct=rd&amp;cs_p=http://users.skynet.be/mgueury/mozilla/tidy_08x_source.zip&amp;cs_f=mozilla_tidy_source/tidy_extension/xpi/sgml-lib/REC-xhtml-basic-20001219/xhtml-arch-1.mod&amp;start=1">xhtml-arch-1.mod</a>
<a href="/codesearch?hl=en&amp;q=show:kRoGUQsxx0g:Tr7_LGRdAts:lcruX-64MNA&amp;sa=N&amp;ct=rd&amp;cs_p=http://users.skynet.be/mgueury/mozilla/tidy_08x_source.zip&amp;cs_f=mozilla_tidy_source/tidy_extension/xpi/sgml-lib/REC-xhtml-basic-20001219/xhtml-attribs-1.mod&amp;start=1">xhtml-attribs-1.mod</a>
<a href="/codesearch?hl=en&amp;q=show:vRQigIUer2U:Tr7_LGRdAts:dTTcYjfie00&amp;sa=N&amp;ct=rd&amp;cs_p=http://users.skynet.be/mgueury/mozilla/tidy_08x_source.zip&amp;cs_f=mozilla_tidy_source/tidy_extension/xpi/sgml-lib/REC-xhtml-basic-20001219/xhtml-base-1.mod&amp;start=1">xhtml-base-1.mod</a>
<a href="/codesearch?hl=en&amp;q=show:uejwmIt0Has:Tr7_LGRdAts:s64DivngjZU&amp;sa=N&amp;ct=rd&amp;cs_p=http://users.skynet.be/mgueury/mozilla/tidy_08x_source.zip&amp;cs_f=mozilla_tidy_source/tidy_extension/xpi/sgml-lib/REC-xhtml-basic-20001219/xhtml-basic-form-1.mod&amp;start=1">xhtml-basic-form-1.mod</a>
<a href="/codesearch?hl=en&amp;q=show:1fkgyUvEkWY:Tr7_LGRdAts:KS2ElF0djac&amp;sa=N&amp;ct=rd&amp;cs_p=http://users.skynet.be/mgueury/mozilla/tidy_08x_source.zip&amp;cs_f=mozilla_tidy_source/tidy_extension/xpi/sgml-lib/REC-xhtml-basic-20001219/xhtml-basic-table-1.mod&amp;start=1">xhtml-basic-table-1.mod</a>
<a href="/codesearch?hl=en&amp;q=show:STVctLzzhgw:Tr7_LGRdAts:0rNHG0t8_ak&amp;sa=N&amp;ct=rd&amp;cs_p=http://users.skynet.be/mgueury/mozilla/tidy_08x_source.zip&amp;cs_f=mozilla_tidy_source/tidy_extension/xpi/sgml-lib/REC-xhtml-basic-20001219/xhtml-basic10-f.dtd&amp;start=1">xhtml-basic10-f.dtd</a>
<a href="/codesearch?hl=en&amp;q=show:LR4LVEo0gx0:Tr7_LGRdAts:JxRyr0QMxtc&amp;sa=N&amp;ct=rd&amp;cs_p=http://users.skynet.be/mgueury/mozilla/tidy_08x_source.zip&amp;cs_f=mozilla_tidy_source/tidy_extension/xpi/sgml-lib/REC-xhtml-basic-20001219/xhtml-basic10-model-1.mod&amp;start=1">xhtml-basic10-model-1.mod</a>
<a href="/codesearch?hl=en&amp;q=show:nc3BnrJoaqA:Tr7_LGRdAts:TnViLluCGJQ&amp;sa=N&amp;ct=rd&amp;cs_p=http://users.skynet.be/mgueury/mozilla/tidy_08x_source.zip&amp;cs_f=mozilla_tidy_source/tidy_extension/xpi/sgml-lib/REC-xhtml-basic-20001219/xhtml-basic10.cat&amp;start=1">xhtml-basic10.cat</a>
<a href="/codesearch?hl=en&amp;q=show:F6KFv2XmmH8:Tr7_LGRdAts:Wh1-gQKdOlk&amp;sa=N&amp;ct=rd&amp;cs_p=http://users.skynet.be/mgueury/mozilla/tidy_08x_source.zip&amp;cs_f=mozilla_tidy_source/tidy_extension/xpi/sgml-lib/REC-xhtml-basic-20001219/xhtml-basic10.dtd&amp;start=1">xhtml-basic10.dtd</a>
<a href="/codesearch?hl=en&amp;q=show:Dv3EbRnWD1A:Tr7_LGRdAts:eGUeJDX0bxM&amp;sa=N&amp;ct=rd&amp;cs_p=http://users.skynet.be/mgueury/mozilla/tidy_08x_source.zip&amp;cs_f=mozilla_tidy_source/tidy_extension/xpi/sgml-lib/REC-xhtml-basic-20001219/xhtml-blkphras-1.mod&amp;start=1">xhtml-blkphras-1.mod</a>
<a href="/codesearch?hl=en&amp;q=show:7mAxsaX_S1g:Tr7_LGRdAts:yzcR0AVJsxo&amp;sa=N&amp;ct=rd&amp;cs_p=http://users.skynet.be/mgueury/mozilla/tidy_08x_source.zip&amp;cs_f=mozilla_tidy_source/tidy_extension/xpi/sgml-lib/REC-xhtml-basic-20001219/xhtml-blkstruct-1.mod&amp;start=1">xhtml-blkstruct-1.mod</a>
<a href="/codesearch?hl=en&amp;q=show:B-oF0kL39-U:Tr7_LGRdAts:LEucoNRmWps&amp;sa=N&amp;ct=rd&amp;cs_p=http://users.skynet.be/mgueury/mozilla/tidy_08x_source.zip&amp;cs_f=mozilla_tidy_source/tidy_extension/xpi/sgml-lib/REC-xhtml-basic-20001219/xhtml-charent-1.mod&amp;start=1">xhtml-charent-1.mod</a>
<a href="/codesearch?hl=en&amp;q=show:5sREcGHGNnw:Tr7_LGRdAts:mvovpJWohug&amp;sa=N&amp;ct=rd&amp;cs_p=http://users.skynet.be/mgueury/mozilla/tidy_08x_source.zip&amp;cs_f=mozilla_tidy_source/tidy_extension/xpi/sgml-lib/REC-xhtml-basic-20001219/xhtml-datatypes-1.mod&amp;start=1">xhtml-datatypes-1.mod</a>
<a href="/codesearch?hl=en&amp;q=show:CcwEeSI9Tg8:Tr7_LGRdAts:l_7lNuRDX3w&amp;sa=N&amp;ct=rd&amp;cs_p=http://users.skynet.be/mgueury/mozilla/tidy_08x_source.zip&amp;cs_f=mozilla_tidy_source/tidy_extension/xpi/sgml-lib/REC-xhtml-basic-20001219/xhtml-framework-1.mod&amp;start=1">xhtml-framework-1.mod</a>
<a href="/codesearch?hl=en&amp;q=show:EVlZW-y8Cww:Tr7_LGRdAts:Stz6RUsH-WM&amp;sa=N&amp;ct=rd&amp;cs_p=http://users.skynet.be/mgueury/mozilla/tidy_08x_source.zip&amp;cs_f=mozilla_tidy_source/tidy_extension/xpi/sgml-lib/REC-xhtml-basic-20001219/xhtml-hypertext-1.mod&amp;start=1">xhtml-hypertext-1.mod</a>
<a href="/codesearch?hl=en&amp;q=show:YCPY9MtrJxE:Tr7_LGRdAts:5vQnWyTH-58&amp;sa=N&amp;ct=rd&amp;cs_p=http://users.skynet.be/mgueury/mozilla/tidy_08x_source.zip&amp;cs_f=mozilla_tidy_source/tidy_extension/xpi/sgml-lib/REC-xhtml-basic-20001219/xhtml-image-1.mod&amp;start=1">xhtml-image-1.mod</a>
<a href="/codesearch?hl=en&amp;q=show:vrSbmLpBeNk:Tr7_LGRdAts:c0kqOoLkEBw&amp;sa=N&amp;ct=rd&amp;cs_p=http://users.skynet.be/mgueury/mozilla/tidy_08x_source.zip&amp;cs_f=mozilla_tidy_source/tidy_extension/xpi/sgml-lib/REC-xhtml-basic-20001219/xhtml-inlphras-1.mod&amp;start=1">xhtml-inlphras-1.mod</a>
<a href="/codesearch?hl=en&amp;q=show:nUapWj-lhx8:Tr7_LGRdAts:4oDEldBCZSg&amp;sa=N&amp;ct=rd&amp;cs_p=http://users.skynet.be/mgueury/mozilla/tidy_08x_source.zip&amp;cs_f=mozilla_tidy_source/tidy_extension/xpi/sgml-lib/REC-xhtml-basic-20001219/xhtml-inlstruct-1.mod&amp;start=1">xhtml-inlstruct-1.mod</a>
<a href="/codesearch?hl=en&amp;q=show:ZK0aQQ-N3x4:Tr7_LGRdAts:R8eZI--XAVQ&amp;sa=N&amp;ct=rd&amp;cs_p=http://users.skynet.be/mgueury/mozilla/tidy_08x_source.zip&amp;cs_f=mozilla_tidy_source/tidy_extension/xpi/sgml-lib/REC-xhtml-basic-20001219/xhtml-lat1.ent&amp;start=1">xhtml-lat1.ent</a>
<a href="/codesearch?hl=en&amp;q=show:XHjWPgpbzF8:Tr7_LGRdAts:l49SVkDGAOU&amp;sa=N&amp;ct=rd&amp;cs_p=http://users.skynet.be/mgueury/mozilla/tidy_08x_source.zip&amp;cs_f=mozilla_tidy_source/tidy_extension/xpi/sgml-lib/REC-xhtml-basic-20001219/xhtml-link-1.mod&amp;start=1">xhtml-link-1.mod</a>
<a href="/codesearch?hl=en&amp;q=show:bXaQlrD4pCE:Tr7_LGRdAts:VEGPZoyijx4&amp;sa=N&amp;ct=rd&amp;cs_p=http://users.skynet.be/mgueury/mozilla/tidy_08x_source.zip&amp;cs_f=mozilla_tidy_source/tidy_extension/xpi/sgml-lib/REC-xhtml-basic-20001219/xhtml-list-1.mod&amp;start=1">xhtml-list-1.mod</a>
<a href="/codesearch?hl=en&amp;q=show:9DEDZKpJc80:Tr7_LGRdAts:aq9jzz9TEUw&amp;sa=N&amp;ct=rd&amp;cs_p=http://users.skynet.be/mgueury/mozilla/tidy_08x_source.zip&amp;cs_f=mozilla_tidy_source/tidy_extension/xpi/sgml-lib/REC-xhtml-basic-20001219/xhtml-meta-1.mod&amp;start=1">xhtml-meta-1.mod</a>
<a href="/codesearch?hl=en&amp;q=show:ZbCQMcyG1Ck:Tr7_LGRdAts:daifoYKp1j0&amp;sa=N&amp;ct=rd&amp;cs_p=http://users.skynet.be/mgueury/mozilla/tidy_08x_source.zip&amp;cs_f=mozilla_tidy_source/tidy_extension/xpi/sgml-lib/REC-xhtml-basic-20001219/xhtml-notations-1.mod&amp;start=1">xhtml-notations-1.mod</a>
<a href="/codesearch?hl=en&amp;q=show:WRQhNwJRf-4:Tr7_LGRdAts:XcfrN3S345I&amp;sa=N&amp;ct=rd&amp;cs_p=http://users.skynet.be/mgueury/mozilla/tidy_08x_source.zip&amp;cs_f=mozilla_tidy_source/tidy_extension/xpi/sgml-lib/REC-xhtml-basic-20001219/xhtml-object-1.mod&amp;start=1">xhtml-object-1.mod</a>
<a href="/codesearch?hl=en&amp;q=show:78CmIqcvndQ:Tr7_LGRdAts:D0pFcrWrzSs&amp;sa=N&amp;ct=rd&amp;cs_p=http://users.skynet.be/mgueury/mozilla/tidy_08x_source.zip&amp;cs_f=mozilla_tidy_source/tidy_extension/xpi/sgml-lib/REC-xhtml-basic-20001219/xhtml-param-1.mod&amp;start=1">xhtml-param-1.mod</a>
<a href="/codesearch?hl=en&amp;q=show:czO8DoqlpXs:Tr7_LGRdAts:wcIyDtUCXHw&amp;sa=N&amp;ct=rd&amp;cs_p=http://users.skynet.be/mgueury/mozilla/tidy_08x_source.zip&amp;cs_f=mozilla_tidy_source/tidy_extension/xpi/sgml-lib/REC-xhtml-basic-20001219/xhtml-qname-1.mod&amp;start=1">xhtml-qname-1.mod</a>
<a href="/codesearch?hl=en&amp;q=show:pkLWHQzXsS0:Tr7_LGRdAts:BUqxDR-vgpg&amp;sa=N&amp;ct=rd&amp;cs_p=http://users.skynet.be/mgueury/mozilla/tidy_08x_source.zip&amp;cs_f=mozilla_tidy_source/tidy_extension/xpi/sgml-lib/REC-xhtml-basic-20001219/xhtml-special.ent&amp;start=1">xhtml-special.ent</a>
<a href="/codesearch?hl=en&amp;q=show:GML1woJrJOo:Tr7_LGRdAts:1Sk2c5RSGEo&amp;sa=N&amp;ct=rd&amp;cs_p=http://users.skynet.be/mgueury/mozilla/tidy_08x_source.zip&amp;cs_f=mozilla_tidy_source/tidy_extension/xpi/sgml-lib/REC-xhtml-basic-20001219/xhtml-struct-1.mod&amp;start=1">xhtml-struct-1.mod</a>
<b>xhtml-symbol.ent</b>
<a href="/codesearch?hl=en&amp;q=show:ivbceWBC3BQ:Tr7_LGRdAts:NMcsdFT7hYQ&amp;sa=N&amp;ct=rd&amp;cs_p=http://users.skynet.be/mgueury/mozilla/tidy_08x_source.zip&amp;cs_f=mozilla_tidy_source/tidy_extension/xpi/sgml-lib/REC-xhtml-basic-20001219/xhtml-text-1.mod&amp;start=1">xhtml-text-1.mod</a>
</pre></td><td>&nbsp;&nbsp;&nbsp;&nbsp;</td><td align=left valign=top width=100%><pre><span id=l1>&lt;!-- ...................................................................... --&gt;
</span><span id=l2>&lt;!-- ISO Math, Greek and Symbolic Character Entity Set for XHTML .......... --&gt;
</span><span id=l3>&lt;!-- file: xhtml-lat1.ent
</span><span id=l4>
</span><span id=l5>     Typical invocation:
</span><span id=l6>
</span><span id=l7>       &lt;!ENTITY % xhtml-symbol
</span><span id=l8>           PUBLIC &quot;-//W3C//ENTITIES Symbols for XHTML//EN&quot;
</span><span id=l9>                  &quot;http://www.w3.org/TR/xhtml1/DTD/xhtml-symbol.ent&quot; &gt;
</span><span id=l10>       %xhtml-symbol;
</span><span id=l11>
</span><span id=l12>     This DTD module is identified by the PUBLIC and SYSTEM identifiers:
</span><span id=l13>
</span><span id=l14>       PUBLIC &quot;-//W3C//ENTITIES Symbols for XHTML//EN&quot;
</span><span id=l15>       SYSTEM &quot;http://www.w3.org/TR/xhtml1/DTD/xhtml-symbol.ent&quot;
</span><span id=l16>
</span><span id=l17>     Revision:  xhtml-symbol.ent,v 1.1 2001/05/10 08:41:58 gerald Exp SMI
</span><span id=l18>
</span><span id=l19>     Portions (C) International Organization for Standardization 1986:
</span><span id=l20>     Permission to copy in any form is granted for use with conforming
</span><span id=l21>     SGML systems and applications as defined in ISO 8879, provided
</span><span id=l22>     this notice is included in all copies.
</span><span id=l23>--&gt;
</span><span id=l24>
</span><span id=l25>&lt;!-- Relevant ISO entity set is given unless names are newly introduced.
</span><span id=l26>     New names (i.e., not in ISO 8879 list) do not clash with any
</span><span id=l27>     existing ISO 8879 entity names. ISO 10646 character numbers
</span><span id=l28>     are given for each character, in hex. CDATA values are decimal
</span><span id=l29>     conversions of the ISO 10646 values and refer to the document
</span><span id=l30>     character set. Names are Unicode 2.0 names.
</span><span id=l31>--&gt;
</span><span id=l32>
</span><span id=l33>&lt;!-- Latin Extended-B --&gt;
</span><span id=l34>&lt;!ENTITY fnof     &quot;&amp;#402;&quot; &gt;&lt;!-- latin small f with hook = function
</span><span id=l35>                              = florin, U+0192 ISOtech --&gt;
</span><span id=l36>
</span><span id=l37>&lt;!-- Greek --&gt;
</span><span id=l38>&lt;!ENTITY Alpha    &quot;&amp;#913;&quot; &gt;&lt;!-- greek capital letter alpha, U+0391 --&gt;
</span><span id=l39>&lt;!ENTITY Beta     &quot;&amp;#914;&quot; &gt;&lt;!-- greek capital letter beta, U+0392 --&gt;
</span><span id=l40>&lt;!ENTITY Gamma    &quot;&amp;#915;&quot; &gt;&lt;!-- greek capital letter gamma, U+0393 ISOgrk3 --&gt;
</span><span id=l41>&lt;!ENTITY Delta    &quot;&amp;#916;&quot; &gt;&lt;!-- greek capital letter delta, U+0394 ISOgrk3 --&gt;
</span><span id=l42>&lt;!ENTITY Epsilon  &quot;&amp;#917;&quot; &gt;&lt;!-- greek capital letter epsilon, U+0395 --&gt;
</span><span id=l43>&lt;!ENTITY Zeta     &quot;&amp;#918;&quot; &gt;&lt;!-- greek capital letter zeta, U+0396 --&gt;
</span><span id=l44>&lt;!ENTITY Eta      &quot;&amp;#919;&quot; &gt;&lt;!-- greek capital letter eta, U+0397 --&gt;
</span><span id=l45>&lt;!ENTITY Theta    &quot;&amp;#920;&quot; &gt;&lt;!-- greek capital letter theta, U+0398 ISOgrk3 --&gt;
</span><span id=l46>&lt;!ENTITY Iota     &quot;&amp;#921;&quot; &gt;&lt;!-- greek capital letter iota, U+0399 --&gt;
</span><span id=l47>&lt;!ENTITY Kappa    &quot;&amp;#922;&quot; &gt;&lt;!-- greek capital letter kappa, U+039A --&gt;
</span><span id=l48>&lt;!ENTITY Lambda   &quot;&amp;#923;&quot; &gt;&lt;!-- greek capital letter lambda, U+039B ISOgrk3 --&gt;
</span><span id=l49>&lt;!ENTITY Mu       &quot;&amp;#924;&quot; &gt;&lt;!-- greek capital letter mu, U+039C --&gt;
</span><span id=l50>&lt;!ENTITY Nu       &quot;&amp;#925;&quot; &gt;&lt;!-- greek capital letter nu, U+039D --&gt;
</span><span id=l51>&lt;!ENTITY Xi       &quot;&amp;#926;&quot; &gt;&lt;!-- greek capital letter xi, U+039E ISOgrk3 --&gt;
</span><span id=l52>&lt;!ENTITY Omicron  &quot;&amp;#927;&quot; &gt;&lt;!-- greek capital letter omicron, U+039F --&gt;
</span><span id=l53>&lt;!ENTITY Pi       &quot;&amp;#928;&quot; &gt;&lt;!-- greek capital letter pi, U+03A0 ISOgrk3 --&gt;
</span><span id=l54>&lt;!ENTITY Rho      &quot;&amp;#929;&quot; &gt;&lt;!-- greek capital letter rho, U+03A1 --&gt;
</span><span id=l55>&lt;!-- there is no Sigmaf, and no U+03A2 character either --&gt;
</span><span id=l56>&lt;!ENTITY Sigma    &quot;&amp;#931;&quot; &gt;&lt;!-- greek capital letter sigma, U+03A3 ISOgrk3 --&gt;
</span><span id=l57>&lt;!ENTITY Tau      &quot;&amp;#932;&quot; &gt;&lt;!-- greek capital letter tau, U+03A4 --&gt;
</span><span id=l58>&lt;!ENTITY Upsilon  &quot;&amp;#933;&quot; &gt;&lt;!-- greek capital letter upsilon,
</span><span id=l59>                              U+03A5 ISOgrk3 --&gt;
</span><span id=l60>&lt;!ENTITY Phi      &quot;&amp;#934;&quot; &gt;&lt;!-- greek capital letter phi, U+03A6 ISOgrk3 --&gt;
</span><span id=l61>&lt;!ENTITY Chi      &quot;&amp;#935;&quot; &gt;&lt;!-- greek capital letter chi, U+03A7 --&gt;
</span><span id=l62>&lt;!ENTITY Psi      &quot;&amp;#936;&quot; &gt;&lt;!-- greek capital letter psi, U+03A8 ISOgrk3 --&gt;
</span><span id=l63>&lt;!ENTITY Omega    &quot;&amp;#937;&quot; &gt;&lt;!-- greek capital letter omega, U+03A9 ISOgrk3 --&gt;
</span><span id=l64>&lt;!ENTITY alpha    &quot;&amp;#945;&quot; &gt;&lt;!-- greek small letter alpha, U+03B1 ISOgrk3 --&gt;
</span><span id=l65>&lt;!ENTITY beta     &quot;&amp;#946;&quot; &gt;&lt;!-- greek small letter beta, U+03B2 ISOgrk3 --&gt;
</span><span id=l66>&lt;!ENTITY gamma    &quot;&amp;#947;&quot; &gt;&lt;!-- greek small letter gamma, U+03B3 ISOgrk3 --&gt;
</span><span id=l67>&lt;!ENTITY delta    &quot;&amp;#948;&quot; &gt;&lt;!-- greek small letter delta, U+03B4 ISOgrk3 --&gt;
</span><span id=l68>&lt;!ENTITY epsilon  &quot;&amp;#949;&quot; &gt;&lt;!-- greek small letter epsilon, U+03B5 ISOgrk3 --&gt;
</span><span id=l69>&lt;!ENTITY zeta     &quot;&amp;#950;&quot; &gt;&lt;!-- greek small letter zeta, U+03B6 ISOgrk3 --&gt;
</span><span id=l70>&lt;!ENTITY eta      &quot;&amp;#951;&quot; &gt;&lt;!-- greek small letter eta, U+03B7 ISOgrk3 --&gt;
</span><span id=l71>&lt;!ENTITY theta    &quot;&amp;#952;&quot; &gt;&lt;!-- greek small letter theta, U+03B8 ISOgrk3 --&gt;
</span><span id=l72>&lt;!ENTITY iota     &quot;&amp;#953;&quot; &gt;&lt;!-- greek small letter iota, U+03B9 ISOgrk3 --&gt;
</span><span id=l73>&lt;!ENTITY kappa    &quot;&amp;#954;&quot; &gt;&lt;!-- greek small letter kappa, U+03BA ISOgrk3 --&gt;
</span><span id=l74>&lt;!ENTITY lambda   &quot;&amp;#955;&quot; &gt;&lt;!-- greek small letter lambda, U+03BB ISOgrk3 --&gt;
</span><span id=l75>&lt;!ENTITY mu       &quot;&amp;#956;&quot; &gt;&lt;!-- greek small letter mu, U+03BC ISOgrk3 --&gt;
</span><span id=l76>&lt;!ENTITY nu       &quot;&amp;#957;&quot; &gt;&lt;!-- greek small letter nu, U+03BD ISOgrk3 --&gt;
</span><span id=l77>&lt;!ENTITY xi       &quot;&amp;#958;&quot; &gt;&lt;!-- greek small letter xi, U+03BE ISOgrk3 --&gt;
</span><span id=l78>&lt;!ENTITY omicron  &quot;&amp;#959;&quot; &gt;&lt;!-- greek small letter omicron, U+03BF NEW --&gt;
</span><span id=l79>&lt;!ENTITY pi       &quot;&amp;#960;&quot; &gt;&lt;!-- greek small letter pi, U+03C0 ISOgrk3 --&gt;
</span><span id=l80>&lt;!ENTITY rho      &quot;&amp;#961;&quot; &gt;&lt;!-- greek small letter rho, U+03C1 ISOgrk3 --&gt;
</span><span id=l81>&lt;!ENTITY sigmaf   &quot;&amp;#962;&quot; &gt;&lt;!-- greek small letter final sigma,
</span><span id=l82>                              U+03C2 ISOgrk3 --&gt;
</span><span id=l83>&lt;!ENTITY sigma    &quot;&amp;#963;&quot; &gt;&lt;!-- greek small letter sigma, U+03C3 ISOgrk3 --&gt;
</span><span id=l84>&lt;!ENTITY tau      &quot;&amp;#964;&quot; &gt;&lt;!-- greek small letter tau, U+03C4 ISOgrk3 --&gt;
</span><span id=l85>&lt;!ENTITY upsilon  &quot;&amp;#965;&quot; &gt;&lt;!-- greek small letter upsilon,
</span><span id=l86>                              U+03C5 ISOgrk3 --&gt;
</span><span id=l87>&lt;!ENTITY phi      &quot;&amp;#966;&quot; &gt;&lt;!-- greek small letter phi, U+03C6 ISOgrk3 --&gt;
</span><span id=l88>&lt;!ENTITY chi      &quot;&amp;#967;&quot; &gt;&lt;!-- greek small letter chi, U+03C7 ISOgrk3 --&gt;
</span><span id=l89>&lt;!ENTITY psi      &quot;&amp;#968;&quot; &gt;&lt;!-- greek small letter psi, U+03C8 ISOgrk3 --&gt;
</span><span id=l90>&lt;!ENTITY omega    &quot;&amp;#969;&quot; &gt;&lt;!-- greek small letter omega, U+03C9 ISOgrk3 --&gt;
</span><span id=l91>&lt;!ENTITY thetasym &quot;&amp;#977;&quot; &gt;&lt;!-- greek small letter theta symbol,
</span><span id=l92>                              U+03D1 NEW --&gt;
</span><span id=l93>&lt;!ENTITY upsih    &quot;&amp;#978;&quot; &gt;&lt;!-- greek upsilon with hook symbol,
</span><span id=l94>                              U+03D2 NEW --&gt;
</span><span id=l95>&lt;!ENTITY piv      &quot;&amp;#982;&quot; &gt;&lt;!-- greek pi symbol, U+03D6 ISOgrk3 --&gt;
</span><span id=l96>
</span><span id=l97>&lt;!-- General Punctuation --&gt;
</span><span id=l98>&lt;!ENTITY bull     &quot;&amp;#8226;&quot; &gt;&lt;!-- bullet = black small circle,
</span><span id=l99>                               U+2022 ISOpub  --&gt;
</span><span id=l100>&lt;!-- bullet is NOT the same as bullet operator, U+2219 --&gt;
</span><span id=l101>&lt;!ENTITY hellip   &quot;&amp;#8230;&quot; &gt;&lt;!-- horizontal ellipsis = three dot leader,
</span><span id=l102>                               U+2026 ISOpub  --&gt;
</span><span id=l103>&lt;!ENTITY prime    &quot;&amp;#8242;&quot; &gt;&lt;!-- prime = minutes = feet, U+2032 ISOtech --&gt;
</span><span id=l104>&lt;!ENTITY Prime    &quot;&amp;#8243;&quot; &gt;&lt;!-- double prime = seconds = inches,
</span><span id=l105>                               U+2033 ISOtech --&gt;
</span><span id=l106>&lt;!ENTITY oline    &quot;&amp;#8254;&quot; &gt;&lt;!-- overline = spacing overscore,
</span><span id=l107>                               U+203E NEW --&gt;
</span><span id=l108>&lt;!ENTITY frasl    &quot;&amp;#8260;&quot; &gt;&lt;!-- fraction slash, U+2044 NEW --&gt;
</span><span id=l109>
</span><span id=l110>&lt;!-- Letterlike Symbols --&gt;
</span><span id=l111>&lt;!ENTITY weierp   &quot;&amp;#8472;&quot; &gt;&lt;!-- script capital P = power set
</span><span id=l112>                               = Weierstrass p, U+2118 ISOamso --&gt;
</span><span id=l113>&lt;!ENTITY image    &quot;&amp;#8465;&quot; &gt;&lt;!-- blackletter capital I = imaginary part,
</span><span id=l114>                               U+2111 ISOamso --&gt;
</span><span id=l115>&lt;!ENTITY real     &quot;&amp;#8476;&quot; &gt;&lt;!-- blackletter capital R = real part symbol,
</span><span id=l116>                               U+211C ISOamso --&gt;
</span><span id=l117>&lt;!ENTITY trade    &quot;&amp;#8482;&quot; &gt;&lt;!-- trade mark sign, U+2122 ISOnum --&gt;
</span><span id=l118>&lt;!ENTITY alefsym  &quot;&amp;#8501;&quot; &gt;&lt;!-- alef symbol = first transfinite cardinal,
</span><span id=l119>                               U+2135 NEW --&gt;
</span><span id=l120>&lt;!-- alef symbol is NOT the same as hebrew letter alef,
</span><span id=l121>     U+05D0 although the same glyph could be used to depict both characters --&gt;
</span><span id=l122>
</span><span id=l123>&lt;!-- Arrows --&gt;
</span><span id=l124>&lt;!ENTITY larr     &quot;&amp;#8592;&quot; &gt;&lt;!-- leftwards arrow, U+2190 ISOnum --&gt;
</span><span id=l125>&lt;!ENTITY uarr     &quot;&amp;#8593;&quot; &gt;&lt;!-- upwards arrow, U+2191 ISOnum--&gt;
</span><span id=l126>&lt;!ENTITY rarr     &quot;&amp;#8594;&quot; &gt;&lt;!-- rightwards arrow, U+2192 ISOnum --&gt;
</span><span id=l127>&lt;!ENTITY darr     &quot;&amp;#8595;&quot; &gt;&lt;!-- downwards arrow, U+2193 ISOnum --&gt;
</span><span id=l128>&lt;!ENTITY harr     &quot;&amp;#8596;&quot; &gt;&lt;!-- left right arrow, U+2194 ISOamsa --&gt;
</span><span id=l129>&lt;!ENTITY crarr    &quot;&amp;#8629;&quot; &gt;&lt;!-- downwards arrow with corner leftwards
</span><span id=l130>                               = carriage return, U+21B5 NEW --&gt;
</span><span id=l131>&lt;!ENTITY lArr     &quot;&amp;#8656;&quot; &gt;&lt;!-- leftwards double arrow, U+21D0 ISOtech --&gt;
</span><span id=l132>&lt;!-- Unicode does not say that lArr is the same as the &#39;is implied by&#39; arrow
</span><span id=l133>    but also does not have any other character for that function. So ? lArr can
</span><span id=l134>    be used for &#39;is implied by&#39; as ISOtech suggests --&gt;
</span><span id=l135>&lt;!ENTITY uArr     &quot;&amp;#8657;&quot; &gt;&lt;!-- upwards double arrow, U+21D1 ISOamsa --&gt;
</span><span id=l136>&lt;!ENTITY rArr     &quot;&amp;#8658;&quot; &gt;&lt;!-- rightwards double arrow,
</span><span id=l137>                               U+21D2 ISOtech --&gt;
</span><span id=l138>&lt;!-- Unicode does not say this is the &#39;implies&#39; character but does not have
</span><span id=l139>     another character with this function so ?
</span><span id=l140>     rArr can be used for &#39;implies&#39; as ISOtech suggests --&gt;
</span><span id=l141>&lt;!ENTITY dArr     &quot;&amp;#8659;&quot; &gt;&lt;!-- downwards double arrow, U+21D3 ISOamsa --&gt;
</span><span id=l142>&lt;!ENTITY hArr     &quot;&amp;#8660;&quot; &gt;&lt;!-- left right double arrow,
</span><span id=l143>                               U+21D4 ISOamsa --&gt;
</span><span id=l144>
</span><span id=l145>&lt;!-- Mathematical Operators --&gt;
</span><span id=l146>&lt;!ENTITY forall   &quot;&amp;#8704;&quot; &gt;&lt;!-- for all, U+2200 ISOtech --&gt;
</span><span id=l147>&lt;!ENTITY part     &quot;&amp;#8706;&quot; &gt;&lt;!-- partial differential, U+2202 ISOtech  --&gt;
</span><span id=l148>&lt;!ENTITY exist    &quot;&amp;#8707;&quot; &gt;&lt;!-- there exists, U+2203 ISOtech --&gt;
</span><span id=l149>&lt;!ENTITY empty    &quot;&amp;#8709;&quot; &gt;&lt;!-- empty set = null set = diameter,
</span><span id=l150>                               U+2205 ISOamso --&gt;
</span><span id=l151>&lt;!ENTITY nabla    &quot;&amp;#8711;&quot; &gt;&lt;!-- nabla = backward difference,
</span><span id=l152>                               U+2207 ISOtech --&gt;
</span><span id=l153>&lt;!ENTITY isin     &quot;&amp;#8712;&quot; &gt;&lt;!-- element of, U+2208 ISOtech --&gt;
</span><span id=l154>&lt;!ENTITY notin    &quot;&amp;#8713;&quot; &gt;&lt;!-- not an element of, U+2209 ISOtech --&gt;
</span><span id=l155>&lt;!ENTITY ni       &quot;&amp;#8715;&quot; &gt;&lt;!-- contains as member, U+220B ISOtech --&gt;
</span><span id=l156>&lt;!-- should there be a more memorable name than &#39;ni&#39;? --&gt;
</span><span id=l157>&lt;!ENTITY prod     &quot;&amp;#8719;&quot; &gt;&lt;!-- n-ary product = product sign,
</span><span id=l158>                               U+220F ISOamsb --&gt;
</span><span id=l159>&lt;!-- prod is NOT the same character as U+03A0 &#39;greek capital letter pi&#39; though
</span><span id=l160>     the same glyph might be used for both --&gt;
</span><span id=l161>&lt;!ENTITY sum      &quot;&amp;#8721;&quot; &gt;&lt;!-- n-ary sumation, U+2211 ISOamsb --&gt;
</span><span id=l162>&lt;!-- sum is NOT the same character as U+03A3 &#39;greek capital letter sigma&#39;
</span><span id=l163>     though the same glyph might be used for both --&gt;
</span><span id=l164>&lt;!ENTITY minus    &quot;&amp;#8722;&quot; &gt;&lt;!-- minus sign, U+2212 ISOtech --&gt;
</span><span id=l165>&lt;!ENTITY lowast   &quot;&amp;#8727;&quot; &gt;&lt;!-- asterisk operator, U+2217 ISOtech --&gt;
</span><span id=l166>&lt;!ENTITY radic    &quot;&amp;#8730;&quot; &gt;&lt;!-- square root = radical sign,
</span><span id=l167>                               U+221A ISOtech --&gt;
</span><span id=l168>&lt;!ENTITY prop     &quot;&amp;#8733;&quot; &gt;&lt;!-- proportional to, U+221D ISOtech --&gt;
</span><span id=l169>&lt;!ENTITY infin    &quot;&amp;#8734;&quot; &gt;&lt;!-- infinity, U+221E ISOtech --&gt;
</span><span id=l170>&lt;!ENTITY ang      &quot;&amp;#8736;&quot; &gt;&lt;!-- angle, U+2220 ISOamso --&gt;
</span><span id=l171>&lt;!ENTITY and      &quot;&amp;#8743;&quot; &gt;&lt;!-- logical and = wedge, U+2227 ISOtech --&gt;
</span><span id=l172>&lt;!ENTITY or       &quot;&amp;#8744;&quot; &gt;&lt;!-- logical or = vee, U+2228 ISOtech --&gt;
</span><span id=l173>&lt;!ENTITY cap      &quot;&amp;#8745;&quot; &gt;&lt;!-- intersection = cap, U+2229 ISOtech --&gt;
</span><span id=l174>&lt;!ENTITY cup      &quot;&amp;#8746;&quot; &gt;&lt;!-- union = cup, U+222A ISOtech --&gt;
</span><span id=l175>&lt;!ENTITY int      &quot;&amp;#8747;&quot; &gt;&lt;!-- integral, U+222B ISOtech --&gt;
</span><span id=l176>&lt;!ENTITY there4   &quot;&amp;#8756;&quot; &gt;&lt;!-- therefore, U+2234 ISOtech --&gt;
</span><span id=l177>&lt;!ENTITY sim      &quot;&amp;#8764;&quot; &gt;&lt;!-- tilde operator = varies with = similar to,
</span><span id=l178>                               U+223C ISOtech --&gt;
</span><span id=l179>&lt;!-- tilde operator is NOT the same character as the tilde, U+007E,
</span><span id=l180>     although the same glyph might be used to represent both  --&gt;
</span><span id=l181>&lt;!ENTITY cong     &quot;&amp;#8773;&quot; &gt;&lt;!-- approximately equal to, U+2245 ISOtech --&gt;
</span><span id=l182>&lt;!ENTITY asymp    &quot;&amp;#8776;&quot; &gt;&lt;!-- almost equal to = asymptotic to,
</span><span id=l183>                               U+2248 ISOamsr --&gt;
</span><span id=l184>&lt;!ENTITY ne       &quot;&amp;#8800;&quot; &gt;&lt;!-- not equal to, U+2260 ISOtech --&gt;
</span><span id=l185>&lt;!ENTITY equiv    &quot;&amp;#8801;&quot; &gt;&lt;!-- identical to, U+2261 ISOtech --&gt;
</span><span id=l186>&lt;!ENTITY le       &quot;&amp;#8804;&quot; &gt;&lt;!-- less-than or equal to, U+2264 ISOtech --&gt;
</span><span id=l187>&lt;!ENTITY ge       &quot;&amp;#8805;&quot; &gt;&lt;!-- greater-than or equal to,
</span><span id=l188>                               U+2265 ISOtech --&gt;
</span><span id=l189>&lt;!ENTITY sub      &quot;&amp;#8834;&quot; &gt;&lt;!-- subset of, U+2282 ISOtech --&gt;
</span><span id=l190>&lt;!ENTITY sup      &quot;&amp;#8835;&quot; &gt;&lt;!-- superset of, U+2283 ISOtech --&gt;
</span><span id=l191>&lt;!-- note that nsup, &#39;not a superset of, U+2283&#39; is not covered by the Symbol
</span><span id=l192>     font encoding and is not included. Should it be, for symmetry?
</span><span id=l193>     It is in ISOamsn  --&gt;
</span><span id=l194>&lt;!ENTITY nsub     &quot;&amp;#8836;&quot; &gt;&lt;!-- not a subset of, U+2284 ISOamsn --&gt;
</span><span id=l195>&lt;!ENTITY sube     &quot;&amp;#8838;&quot; &gt;&lt;!-- subset of or equal to, U+2286 ISOtech --&gt;
</span><span id=l196>&lt;!ENTITY supe     &quot;&amp;#8839;&quot; &gt;&lt;!-- superset of or equal to,
</span><span id=l197>                               U+2287 ISOtech --&gt;
</span><span id=l198>&lt;!ENTITY oplus    &quot;&amp;#8853;&quot; &gt;&lt;!-- circled plus = direct sum,
</span><span id=l199>                               U+2295 ISOamsb --&gt;
</span><span id=l200>&lt;!ENTITY otimes   &quot;&amp;#8855;&quot; &gt;&lt;!-- circled times = vector product,
</span><span id=l201>                               U+2297 ISOamsb --&gt;
</span><span id=l202>&lt;!ENTITY perp     &quot;&amp;#8869;&quot; &gt;&lt;!-- up tack = orthogonal to = perpendicular,
</span><span id=l203>                               U+22A5 ISOtech --&gt;
</span><span id=l204>&lt;!ENTITY sdot     &quot;&amp;#8901;&quot; &gt;&lt;!-- dot operator, U+22C5 ISOamsb --&gt;
</span><span id=l205>&lt;!-- dot operator is NOT the same character as U+00B7 middle dot --&gt;
</span><span id=l206>
</span><span id=l207>&lt;!-- Miscellaneous Technical --&gt;
</span><span id=l208>&lt;!ENTITY lceil    &quot;&amp;#8968;&quot; &gt;&lt;!-- left ceiling = apl upstile,
</span><span id=l209>                               U+2308 ISOamsc  --&gt;
</span><span id=l210>&lt;!ENTITY rceil    &quot;&amp;#8969;&quot; &gt;&lt;!-- right ceiling, U+2309 ISOamsc  --&gt;
</span><span id=l211>&lt;!ENTITY lfloor   &quot;&amp;#8970;&quot; &gt;&lt;!-- left floor = apl downstile,
</span><span id=l212>                               U+230A ISOamsc  --&gt;
</span><span id=l213>&lt;!ENTITY rfloor   &quot;&amp;#8971;&quot; &gt;&lt;!-- right floor, U+230B ISOamsc  --&gt;
</span><span id=l214>&lt;!ENTITY lang     &quot;&amp;#9001;&quot; &gt;&lt;!-- left-pointing angle bracket = bra,
</span><span id=l215>                               U+2329 ISOtech --&gt;
</span><span id=l216>&lt;!-- lang is NOT the same character as U+003C &#39;less than&#39;
</span><span id=l217>     or U+2039 &#39;single left-pointing angle quotation mark&#39; --&gt;
</span><span id=l218>&lt;!ENTITY rang     &quot;&amp;#9002;&quot; &gt;&lt;!-- right-pointing angle bracket = ket,
</span><span id=l219>                               U+232A ISOtech --&gt;
</span><span id=l220>&lt;!-- rang is NOT the same character as U+003E &#39;greater than&#39;
</span><span id=l221>     or U+203A &#39;single right-pointing angle quotation mark&#39; --&gt;
</span><span id=l222>
</span><span id=l223>&lt;!-- Geometric Shapes --&gt;
</span><span id=l224>&lt;!ENTITY loz      &quot;&amp;#9674;&quot; &gt;&lt;!-- lozenge, U+25CA ISOpub --&gt;
</span><span id=l225>
</span><span id=l226>&lt;!-- Miscellaneous Symbols --&gt;
</span><span id=l227>&lt;!ENTITY spades   &quot;&amp;#9824;&quot; &gt;&lt;!-- black spade suit, U+2660 ISOpub --&gt;
</span><span id=l228>&lt;!-- black here seems to mean filled as opposed to hollow --&gt;
</span><span id=l229>&lt;!ENTITY clubs    &quot;&amp;#9827;&quot; &gt;&lt;!-- black club suit = shamrock,
</span><span id=l230>                               U+2663 ISOpub --&gt;
</span><span id=l231>&lt;!ENTITY hearts   &quot;&amp;#9829;&quot; &gt;&lt;!-- black heart suit = valentine,
</span><span id=l232>                               U+2665 ISOpub --&gt;
</span><span id=l233>&lt;!ENTITY diams    &quot;&amp;#9830;&quot; &gt;&lt;!-- black diamond suit, U+2666 ISOpub --&gt;
</span><span id=l234>
</span><span id=l235>&lt;!-- end of xhtml-symbol.ent --&gt;
</span></pre></td></tr></table><table cellspacing=0 cellpadding=0 border=0 width=100%><tr height=1 bgcolor=#000000><td bgcolor=#000000 colspan=3></td></tr><tr height=10><td></td></tr><tr><td><font size=-1><code class=fn>mozilla_tidy_source/tidy_extension/xpi/sgml-lib/REC-xhtml-basic-20001219/xhtml-symbol.ent</code> from<br><span class="a"><a href="codesearch/url?hl=en&ct=rpc&url=http://users.skynet.be/mgueury/mozilla/tidy_08x_source.zip&usg=AFQjCNFecLonw5eEXUaOOFUc28sq6tFk9w">http://users.skynet.be/mgueury/mozilla/tidy_08x_source.zip</a></span> - <span class="a">Unknown License</span><br><br></font></tr></tr></table></body></html>