<html><head><meta http-equiv="content-type" content="text/html; charset=UTF-8"><title>css-validator/html/tags/dtds/html32.dtd.COOL - Google Code Search</title><style><!--
body {background-color:white;color:black;font-family:Arial, sans-serif;margin:8px;margin-top:3px}
.j{white-space:-moz-pre-wrap;	white-space:-pre-wrap;	white-space:-o-pre-wrap;	word-wrap:break-word;	margin-top:4px;margin-bottom:4px;border:1px solid silver;background-color:#f5f5f5;padding:0.5em;width:85%;color:#222}
#title {border-top:1px solid #36c;background-color:#e5ecf9;margin:0;padding:0;padding-top:1px;padding-bottom:1px;padding-left:3px;margin-top:5px}
.expl {font-size:small;margin-left:2em;margin-right:2em}
.f {font-size:small;margin-bottom:1.5em}
.hl{font-weight:bold;color:#000}
.h{margin-top:1em;margin-bottom:0px}
.k {background-color:#36c}
.a,.a a{font-size:small;color:green}
a:active{color:#f00}a:link{color:#00c}a:visited{color:#551a8b}a.s,.s a{font-size:small;color:#77c}.a,.a a{font-size:small;color:green}.i, .i:link {color:#a90a08;font-size:small}
.n .i {font-size:10pt;font-weight:bold}
.n a {font-size:10pt;color:#000}
.b a {font-size:12pt;color:#00c;font-weight:bold}
code {color: #007000; font-family:"bogus font here",monospace; font-size: 100%;}
code.fn {color: #007000; font-family:"bogus font here",monospace; font-size: 100%;}
div.n {margin-top:1ex}
img{border:0}
.chl {background:#ffa}
.cchl {background:#aff}
.cc {color:#060}
.input_table tr td {vertical-align:top;}--></style>
<script type="text/javascript">
<!--
function sf(){}
// --></script></head><body bgcolor=#ffffff onload="sf()"><table cellspacing=0 cellpadding=0 border=0 width=100%><tr><td align=left valign=top><a href="/codesearch"><img src="http://www.google.com/intl/en/images/codesearch_logo_sm.gif" width=150 height=55 alt="Go To Google Code Search Home" border=0 vspace=12></a></td><td width=10></td><td align=left><font size=-1>This is Google's cached copy of <code class=fn>css-validator/html/tags/dtds/html32.dtd.COOL</code> from<br><span class="a"><a href="codesearch/url?hl=en&url=http://dist.bsdlab.org/w3c-css-validator-20041005.tar.gz&usg=AFQjCNEqwSYiWNNGk1CKTrmvkS7D1e_9Ow">http://dist.bsdlab.org/w3c-css-validator-20041005.tar.gz</a></span> <br><br><i>Google is neither affiliated with the authors of this page nor responsible for its content.</i></font></td></tr><tr height=10><td colspan=3></td></tr><tr height=1 bgcolor=#000000><td bgcolor=#000000 colspan=3></td></tr></table><br><table cellspacing=0 cellpadding=0 border=0 width=100%><tr><td align=left valign=top colspan=4><pre><a href="/codesearch?hl=en&amp;q=show:z9IPKD2OLFE:YuJVuzd7bnE&amp;sa=N&amp;ct=rdp&amp;cs_p=http://dist.bsdlab.org/w3c-css-validator-20041005.tar.gz">http://dist.bsdlab.org/w3c-css-validator-20041005.tar.gz</a>/<a href="/codesearch?hl=en&amp;q=show:-ZJIQWaFCik:I3JUwb0hFDo&amp;sa=N&amp;ct=rdp&amp;cs_p=http://dist.bsdlab.org/w3c-css-validator-20041005.tar.gz&amp;cs_f=css-validator">css-validator</a>/<a href="/codesearch?hl=en&amp;q=show:ezmxcO4dWvs:e-1P_B9s9IA&amp;sa=N&amp;ct=rdp&amp;cs_p=http://dist.bsdlab.org/w3c-css-validator-20041005.tar.gz&amp;cs_f=css-validator/html">html</a>/<a href="/codesearch?hl=en&amp;q=show:s15TbOHQaVI:BCO03lm6F5g&amp;sa=N&amp;ct=rdp&amp;cs_p=http://dist.bsdlab.org/w3c-css-validator-20041005.tar.gz&amp;cs_f=css-validator/html/tags">tags</a>/<a href="/codesearch?hl=en&amp;q=show:JufSVWDxXYU:QnaA4IyAOg8&amp;sa=N&amp;ct=rdp&amp;cs_p=http://dist.bsdlab.org/w3c-css-validator-20041005.tar.gz&amp;cs_f=css-validator/html/tags/dtds">dtds</a>/</pre></td></tr><tr><td>&nbsp;&nbsp;&nbsp;&nbsp;</td><td align=left valign=top><pre><a href="/codesearch?hl=en&amp;q=show:Tvkeg6YYEtE:JufSVWDxXYU:k2OzmpVm9i8&amp;sa=N&amp;ct=rd&amp;cs_p=http://dist.bsdlab.org/w3c-css-validator-20041005.tar.gz&amp;cs_f=css-validator/html/tags/dtds/HTML4.decl&amp;start=1">HTML4.decl</a>
<a href="/codesearch?hl=en&amp;q=show:Bfc6tFEUjSU:JufSVWDxXYU:C0pz06QqPGY&amp;sa=N&amp;ct=rd&amp;cs_p=http://dist.bsdlab.org/w3c-css-validator-20041005.tar.gz&amp;cs_f=css-validator/html/tags/dtds/HTMLlat1.ent&amp;start=1">HTMLlat1.ent</a>
<a href="/codesearch?hl=en&amp;q=show:M5spgZiHwjM:JufSVWDxXYU:5jOXQHbAGvQ&amp;sa=N&amp;ct=rd&amp;cs_p=http://dist.bsdlab.org/w3c-css-validator-20041005.tar.gz&amp;cs_f=css-validator/html/tags/dtds/HTMLmisc.ent&amp;start=1">HTMLmisc.ent</a>
<a href="/codesearch?hl=en&amp;q=show:oynVIcdFvlk:JufSVWDxXYU:KdFD4Oe0AMo&amp;sa=N&amp;ct=rd&amp;cs_p=http://dist.bsdlab.org/w3c-css-validator-20041005.tar.gz&amp;cs_f=css-validator/html/tags/dtds/HTMLsym.ent&amp;start=1">HTMLsym.ent</a>
<a href="/codesearch?hl=en&amp;q=show:Bfc6tFEUjSU:JufSVWDxXYU:D4JqIv6lXq0&amp;sa=N&amp;ct=rd&amp;cs_p=http://dist.bsdlab.org/w3c-css-validator-20041005.tar.gz&amp;cs_f=css-validator/html/tags/dtds/ISOlat1.ent&amp;start=1">ISOlat1.ent</a>
<a href="/codesearch?hl=en&amp;q=show:PpTeI0QrxTE:JufSVWDxXYU:F8DYIwCEess&amp;sa=N&amp;ct=rd&amp;cs_p=http://dist.bsdlab.org/w3c-css-validator-20041005.tar.gz&amp;cs_f=css-validator/html/tags/dtds/ISOlat1.sgml&amp;start=1">ISOlat1.sgml</a>
<a href="/codesearch?hl=en&amp;q=show:cP-DvLwpPDQ:JufSVWDxXYU:HIwOEXFcdf8&amp;sa=N&amp;ct=rd&amp;cs_p=http://dist.bsdlab.org/w3c-css-validator-20041005.tar.gz&amp;cs_f=css-validator/html/tags/dtds/cougar.dtd&amp;start=1">cougar.dtd</a>
<a href="/codesearch?hl=en&amp;q=show:q4rHDNxb9Mk:JufSVWDxXYU:JQa_5QwEAIo&amp;sa=N&amp;ct=rd&amp;cs_p=http://dist.bsdlab.org/w3c-css-validator-20041005.tar.gz&amp;cs_f=css-validator/html/tags/dtds/html2-0.dtd&amp;start=1">html2-0.dtd</a>
<a href="/codesearch?hl=en&amp;q=show:IrGn8w9iVAA:JufSVWDxXYU:xMnxjbtRtDo&amp;sa=N&amp;ct=rd&amp;cs_p=http://dist.bsdlab.org/w3c-css-validator-20041005.tar.gz&amp;cs_f=css-validator/html/tags/dtds/html2-0s.dtd&amp;start=1">html2-0s.dtd</a>
<a href="/codesearch?hl=en&amp;q=show:SQBG00tehVM:JufSVWDxXYU:qCoOspMbadc&amp;sa=N&amp;ct=rd&amp;cs_p=http://dist.bsdlab.org/w3c-css-validator-20041005.tar.gz&amp;cs_f=css-validator/html/tags/dtds/html2-1.dtd&amp;start=1">html2-1.dtd</a>
<a href="/codesearch?hl=en&amp;q=show:SGHRZdqaakE:JufSVWDxXYU:MDB8-sJf8Zc&amp;sa=N&amp;ct=rd&amp;cs_p=http://dist.bsdlab.org/w3c-css-validator-20041005.tar.gz&amp;cs_f=css-validator/html/tags/dtds/html2-1s.dtd&amp;start=1">html2-1s.dtd</a>
<a href="/codesearch?hl=en&amp;q=show:x0lg08kzF3U:JufSVWDxXYU:n3qNzGOa7Nk&amp;sa=N&amp;ct=rd&amp;cs_p=http://dist.bsdlab.org/w3c-css-validator-20041005.tar.gz&amp;cs_f=css-validator/html/tags/dtds/html2-net.dtd&amp;start=1">html2-net.dtd</a>
<a href="/codesearch?hl=en&amp;q=show:O7kgVtZUnrQ:JufSVWDxXYU:T2RwbjiVmRg&amp;sa=N&amp;ct=rd&amp;cs_p=http://dist.bsdlab.org/w3c-css-validator-20041005.tar.gz&amp;cs_f=css-validator/html/tags/dtds/html2-s.dtd&amp;start=1">html2-s.dtd</a>
<a href="/codesearch?hl=en&amp;q=show:6Fj8EIf7pC4:JufSVWDxXYU:yiOf3BmSLG8&amp;sa=N&amp;ct=rd&amp;cs_p=http://dist.bsdlab.org/w3c-css-validator-20041005.tar.gz&amp;cs_f=css-validator/html/tags/dtds/html2.dtd&amp;start=1">html2.dtd</a>
<a href="/codesearch?hl=en&amp;q=show:85AJUjwaSbA:JufSVWDxXYU:n6m4Uzl9Rxw&amp;sa=N&amp;ct=rd&amp;cs_p=http://dist.bsdlab.org/w3c-css-validator-20041005.tar.gz&amp;cs_f=css-validator/html/tags/dtds/html2.sgml&amp;start=1">html2.sgml</a>
<a href="/codesearch?hl=en&amp;q=show:iSnF-311XL8:JufSVWDxXYU:7hdQmSvswwc&amp;sa=N&amp;ct=rd&amp;cs_p=http://dist.bsdlab.org/w3c-css-validator-20041005.tar.gz&amp;cs_f=css-validator/html/tags/dtds/html3.dtd&amp;start=1">html3.dtd</a>
<a href="/codesearch?hl=en&amp;q=show:0sYd7dI6wzY:JufSVWDxXYU:sPJPnm9Nvp4&amp;sa=N&amp;ct=rd&amp;cs_p=http://dist.bsdlab.org/w3c-css-validator-20041005.tar.gz&amp;cs_f=css-validator/html/tags/dtds/html32.dtd&amp;start=1">html32.dtd</a>
<b>html32.dtd.COOL</b>
<a href="/codesearch?hl=en&amp;q=show:0sYd7dI6wzY:JufSVWDxXYU:v40FI0zZy18&amp;sa=N&amp;ct=rd&amp;cs_p=http://dist.bsdlab.org/w3c-css-validator-20041005.tar.gz&amp;cs_f=css-validator/html/tags/dtds/html32.dtd.ORIG&amp;start=1">html32.dtd.ORIG</a>
<a href="/codesearch?hl=en&amp;q=show:nboprUpRjhY:JufSVWDxXYU:hN1cADd-avI&amp;sa=N&amp;ct=rd&amp;cs_p=http://dist.bsdlab.org/w3c-css-validator-20041005.tar.gz&amp;cs_f=css-validator/html/tags/dtds/html4.dtd&amp;start=1">html4.dtd</a>
<a href="/codesearch?hl=en&amp;q=show:_Ad4uk81Ig0:JufSVWDxXYU:u6kYNDRQrYk&amp;sa=N&amp;ct=rd&amp;cs_p=http://dist.bsdlab.org/w3c-css-validator-20041005.tar.gz&amp;cs_f=css-validator/html/tags/dtds/july96-HTML.dtd&amp;start=1">july96-HTML.dtd</a>
<a href="/codesearch?hl=en&amp;q=show:_Ad4uk81Ig0:JufSVWDxXYU:Ibej_oQgPB8&amp;sa=N&amp;ct=rd&amp;cs_p=http://dist.bsdlab.org/w3c-css-validator-20041005.tar.gz&amp;cs_f=css-validator/html/tags/dtds/july96.dtd&amp;start=1">july96.dtd</a>
<a href="/codesearch?hl=en&amp;q=show:OlMJ5YatAgU:JufSVWDxXYU:pdyUt5tuo4k&amp;sa=N&amp;ct=rd&amp;cs_p=http://dist.bsdlab.org/w3c-css-validator-20041005.tar.gz&amp;cs_f=css-validator/html/tags/dtds/lat1html.ent&amp;start=1">lat1html.ent</a>
<a href="/codesearch?hl=en&amp;q=show:djNZtxA0FfY:JufSVWDxXYU:CPBa1pEsNzw&amp;sa=N&amp;ct=rd&amp;cs_p=http://dist.bsdlab.org/w3c-css-validator-20041005.tar.gz&amp;cs_f=css-validator/html/tags/dtds/public.map&amp;start=1">public.map</a>
</pre></td><td>&nbsp;&nbsp;&nbsp;&nbsp;</td><td align=left valign=top width=100%><pre>

&lt;!--
        W3C Document Type Definition for the HyperText Markup Language
        version 3.2 as ratified by a vote of W3C member companies.
        For more information on W3C look at  URL http://www.w3.org/

        Date: Tuesday January 14th 1997

        Author: Dave Raggett &lt;dsr@w3.org&gt;

        HTML 3.2 aims to capture recommended practice as of early &#39;96
        and as such to be used as a replacement for HTML 2.0 (RFC 1866).
        Widely deployed rendering attributes are included where they
        have been shown to be interoperable. SCRIPT and STYLE are
        included to smooth the introduction of client-side scripts
        and style sheets. Browsers must avoid showing the contents
        of these element Otherwise support for them is not required.
        ID, CLASS and STYLE attributes are not included in this version
        of HTML.
--&gt;

&lt;!ENTITY % HTML.Version
        &quot;-//W3C//DTD HTML 3.2 Final//EN&quot;

        -- Typical usage:

            &lt;!DOCTYPE HTML PUBLIC &quot;-//W3C//DTD HTML 3.2 Final//EN&quot;&gt;
            &lt;html&gt;
            ...
            &lt;/html&gt;
        --
        &gt;

&lt;!--================== Deprecated Features Switch =========================--&gt;

&lt;!ENTITY % HTML.Deprecated &quot;INCLUDE&quot;&gt;

&lt;!--================== Imported Names =====================================--&gt;

&lt;!ENTITY % Content-Type &quot;CDATA&quot;
        -- meaning a MIME content type, as per RFC1521
        --&gt;

&lt;!ENTITY % HTTP-Method &quot;GET | POST&quot;
        -- as per HTTP specification
        --&gt;

&lt;!ENTITY % URL &quot;CDATA&quot;
        -- The term URL means a CDATA attribute
           whose value is a Uniform Resource Locator,
           See RFC1808 (June 95) and RFC1738 (Dec 94).
        --&gt;

&lt;!-- Parameter Entities --&gt;

&lt;!ENTITY % head.misc &quot;SCRIPT|STYLE|META|LINK&quot; -- repeatable head elements --&gt;

&lt;!ENTITY % heading &quot;H1|H2|H3|H4|H5|H6&quot;&gt;

&lt;!ENTITY % list &quot;UL | OL |  DIR | MENU&quot;&gt;

&lt;![ %HTML.Deprecated [
    &lt;!ENTITY % preformatted &quot;PRE | XMP | LISTING&quot;&gt;
]]&gt;

&lt;!ENTITY % preformatted &quot;PRE&quot;&gt;

&lt;!--================ Character mnemonic entities ==========================--&gt;

&lt;!ENTITY % ISOlat1 PUBLIC
       &quot;ISO 8879-1986//ENTITIES Added Latin 1//EN//HTML&quot;&gt;
%ISOlat1;

&lt;!--================ Entities for special symbols =========================--&gt;
&lt;!-- &amp;trade and &amp;cbsp are not widely deployed and so not included here --&gt;

&lt;!ENTITY amp    CDATA &quot;&amp;#38;&quot;   -- ampersand          --&gt;
&lt;!ENTITY gt     CDATA &quot;&amp;#62;&quot;   -- greater than       --&gt;
&lt;!ENTITY lt     CDATA &quot;&amp;#60;&quot;   -- less than          --&gt;

&lt;!--=================== Text Markup =======================================--&gt;

&lt;!ENTITY % font &quot;TT | I | B  | U | STRIKE | BIG | SMALL | SUB | SUP&quot;&gt;

&lt;!ENTITY % phrase &quot;EM | STRONG | DFN | CODE | SAMP | KBD | VAR | CITE&quot;&gt;

&lt;!ENTITY % special &quot;A | IMG | APPLET | FONT | BASEFONT | BR | SCRIPT | MAP | META&quot;&gt;

&lt;!ENTITY % form &quot;INPUT | SELECT | TEXTAREA&quot;&gt;

&lt;!ENTITY % text &quot;#PCDATA | %font | %phrase | %special | %form&quot;&gt;

&lt;!ELEMENT (%font|%phrase) - - (%text)*&gt;

&lt;!-- there are also 16 widely known color names although
  the resulting colors are implementation dependent:

   aqua, black, blue, fuchsia, gray, green, lime, maroon,
   navy, olive, purple, red, silver, teal, white, and yellow

 These colors were originally picked as being the standard
 16 colors supported with the Windows VGA palette.
 --&gt;

&lt;!ELEMENT FONT - - (%text)*     -- local change to font --&gt;
&lt;!ATTLIST FONT
    size    CDATA   #IMPLIED    -- [+]nn e.g. size=&quot;+1&quot;, size=4 --
    color   CDATA   #IMPLIED    -- #RRGGBB in hex, e.g. red: color=&quot;#FF0000&quot; --
    &gt;

&lt;!ELEMENT BASEFONT - O EMPTY    -- base font size (1 to 7)--&gt;
&lt;!ATTLIST BASEFONT
    size    CDATA   #IMPLIED    -- e.g. size=3 --
    &gt;

&lt;!ELEMENT BR    - O EMPTY    -- forced line break --&gt;
&lt;!ATTLIST BR
        clear (left|all|right|none) none -- control of text flow --
        &gt;

&lt;!--================== HTML content models ================================--&gt;
&lt;!--
    HTML has three basic content models:

        %text       character level elements and text strings
        %flow       block-like elements e.g. paragraphs and lists
        %body.content   as %flow plus headers H1-H6 and ADDRESS
--&gt;

&lt;!ENTITY % block
     &quot;P | %list | %preformatted | DL | DIV | CENTER |
      BLOCKQUOTE | FORM | ISINDEX | HR | TABLE&quot;&gt;

&lt;!-- %flow is used for DD and LI --&gt;

&lt;!ENTITY % flow &quot;(%text | %block)*&quot;&gt;

&lt;!--=================== Document Body =====================================--&gt;

&lt;!ENTITY % body.content &quot;(%heading | %text | %block | ADDRESS)*&quot;&gt;

&lt;!ENTITY % color &quot;CDATA&quot; -- a color specification: #HHHHHH @@ details? --&gt;

&lt;!ENTITY % body-color-attrs &quot;
        bgcolor %color #IMPLIED
        text %color #IMPLIED
        link %color #IMPLIED
        vlink %color #IMPLIED
        alink %color #IMPLIED
        &quot;&gt;

&lt;!ELEMENT BODY O O  %body.content&gt;
&lt;!ATTLIST BODY
        background %URL #IMPLIED  -- texture tile for document background --
        %body-color-attrs;  -- bgcolor, text, link, vlink, alink --
        &gt;

&lt;!ENTITY % address.content &quot;((%text;) | P)*&quot;&gt;

&lt;!ELEMENT ADDRESS - - %address.content&gt;

&lt;!ELEMENT DIV - - %body.content&gt;
&lt;!ATTLIST DIV
        align   (left|center|right) #IMPLIED -- alignment of following text --
        &gt;

&lt;!-- CENTER is a shorthand for DIV with ALIGN=CENTER --&gt;
&lt;!ELEMENT center - - %body.content&gt;

&lt;!--================== The Anchor Element =================================--&gt;

&lt;!ELEMENT A - - (%body.content)* -(A)&gt;
&lt;!ATTLIST A
        name    CDATA   #IMPLIED    -- named link end --
        href    %URL    #IMPLIED    -- URL for linked resource --
        rel     CDATA   #IMPLIED    -- forward link types --
        rev     CDATA   #IMPLIED    -- reverse link types --
        title   CDATA   #IMPLIED    -- advisory title string --
        &gt;

&lt;!--================== Client-side image maps ============================--&gt;

&lt;!-- These can be placed in the same document or grouped in a
     separate document although this isn&#39;t yet widely supported --&gt;

&lt;!ENTITY % SHAPE &quot;(rect|circle|poly)&quot;&gt;
&lt;!ENTITY % COORDS &quot;CDATA&quot; -- comma separated list of numbers --&gt;

&lt;!ELEMENT MAP - - (AREA)*&gt;
&lt;!ATTLIST MAP
    name    CDATA   #IMPLIED
    &gt;

&lt;!ELEMENT AREA - O EMPTY&gt;
&lt;!ATTLIST AREA
    shape   %SHAPE  rect
    coords  %COORDS #IMPLIED  -- defines coordinates for shape --
    href    %URL    #IMPLIED  -- this region acts as hypertext link --
    nohref (nohref) #IMPLIED  -- this region has no action --
    alt     CDATA   #REQUIRED -- needed for non-graphical user agents --
    &gt;

&lt;!--================== The LINK Element ==================================--&gt;

&lt;!ENTITY % Types &quot;CDATA&quot;
        -- See Internet Draft: draft-ietf-html-relrev-00.txt
           LINK has been part of HTML since the early days
           although few browsers as yet take advantage of it.

           Relationship values can be used in principle:

                a) for document specific toolbars/menus when used
                   with the LINK element in the document head:
                b) to link to a separate style sheet
                c) to make a link to a script
                d) by stylesheets to control how collections of
                   html nodes are rendered into printed documents
                e) to make a link to a printable version of this document
                   e.g. a postscript or pdf version
--&gt;

&lt;!ELEMENT LINK - O EMPTY&gt;
&lt;!ATTLIST LINK
        href    %URL    #IMPLIED    -- URL for linked resource --
        rel     %Types  #IMPLIED    -- forward link types --
        rev     %Types  #IMPLIED    -- reverse link types --
        title   CDATA   #IMPLIED    -- advisory title string --
        &gt;

&lt;!--=================== Images ============================================--&gt;

&lt;!ENTITY % Length &quot;CDATA&quot;   -- nn for pixels or nn% for percentage length --&gt;
&lt;!ENTITY % Pixels &quot;NUMBER&quot;  -- integer representing length in pixels --&gt;

&lt;!-- Suggested widths are used for negotiating image size
     with the module responsible for painting the image.
     align=left or right cause image to float to margin
     and for subsequent text to wrap around image --&gt;

&lt;!ENTITY % IAlign &quot;(top|middle|bottom|left|right)&quot;&gt;

&lt;!ELEMENT IMG    - O EMPTY --  Embedded image --&gt;
&lt;!ATTLIST IMG
        src     %URL     #REQUIRED  -- URL of image to embed --
        alt     CDATA    #IMPLIED   -- for display in place of image --
        align   %IAlign  #IMPLIED   -- vertical or horizontal alignment --
        height  %Pixels  #IMPLIED   -- suggested height in pixels --
        width   %Pixels  #IMPLIED   -- suggested width in pixels --
        border  %Pixels  #IMPLIED   -- suggested link border width --
        hspace  %Pixels  #IMPLIED   -- suggested horizontal gutter --
        vspace  %Pixels  #IMPLIED   -- suggested vertical gutter --
        usemap  %URL     #IMPLIED   -- use client-side image map --
        ismap   (ismap)  #IMPLIED   -- use server image map --
        &gt;

&lt;!-- USEMAP points to a MAP element which may be in this document
  or an external document, although the latter is not widely supported --&gt;

&lt;!--=================== Java APPLET tag ===================================--&gt;
&lt;!--
  This tag is supported by all Java enabled browsers. Applet resources
  (including their classes) are normally loaded relative to the document
  URL (or &lt;BASE&gt; element if it is defined). The CODEBASE attribute is used
  to change this default behavior. If the CODEBASE attribute is defined then
  it specifies a different location to find applet resources. The value
  can be an absolute URL or a relative URL. The absolute URL is used as is
  without modification and is not effected by the documents &lt;BASE&gt; element.
  When the codebase attribute is relative, then it is relative to the
  document URL (or &lt;BASE&gt; tag if defined).
--&gt;
&lt;!ELEMENT APPLET - - (PARAM | %text)*&gt;
&lt;!ATTLIST APPLET
        codebase %URL     #IMPLIED   -- code base --
        code     CDATA    #REQUIRED  -- class file --
        alt      CDATA    #IMPLIED   -- for display in place of applet --
        name     CDATA    #IMPLIED   -- applet name --
        width    %Pixels  #REQUIRED  -- suggested width in pixels --
        height   %Pixels  #REQUIRED  -- suggested height in pixels --
        align    %IAlign  #IMPLIED   -- vertical or horizontal alignment --
        hspace   %Pixels  #IMPLIED   -- suggested horizontal gutter --
        vspace   %Pixels  #IMPLIED   -- suggested vertical gutter --
        &gt;

&lt;!ELEMENT PARAM - O EMPTY&gt;
&lt;!ATTLIST PARAM
        name    NMTOKEN   #REQUIRED  -- The name of the parameter --
        value   CDATA     #IMPLIED   -- The value of the parameter --
        &gt;

&lt;!--
Here is an example:

    &lt;applet codebase=&quot;applets/NervousText&quot;
        code=NervousText.class
        width=300
        height=50&gt;
    &lt;param name=text value=&quot;Java is Cool!&quot;&gt;
    &lt;img src=sorry.gif alt=&quot;This looks better with Java support&quot;&gt;
    &lt;/applet&gt;
--&gt;

&lt;!--=================== Horizontal Rule ===================================--&gt;

&lt;!ELEMENT HR    - O EMPTY&gt;
&lt;!ATTLIST HR
        align (left|right|center) #IMPLIED
        noshade (noshade) #IMPLIED
        size  %Pixels #IMPLIED
        width %Length #IMPLIED
        &gt;
&lt;!--=================== Paragraphs=========================================--&gt;

&lt;!ELEMENT P     - O (%text)*&gt;
&lt;!ATTLIST P
        align  (left|center|right) #IMPLIED
        &gt;

&lt;!--=================== Headings ==========================================--&gt;

&lt;!--
  There are six levels of headers from H1 (the most important)
  to H6 (the least important).
--&gt;

&lt;!ELEMENT ( %heading )  - -  (%text;)*&gt;
&lt;!ATTLIST ( %heading )
        align  (left|center|right) #IMPLIED
        &gt;

&lt;!--=================== Preformatted Text =================================--&gt;

&lt;!-- excludes images and changes in font size --&gt;

&lt;!ENTITY % pre.exclusion &quot;IMG|BIG|SMALL|SUB|SUP|FONT&quot;&gt;

&lt;!ELEMENT PRE - - (%body.content)* -(%pre.exclusion)&gt;
&lt;!ATTLIST PRE
        width NUMBER #implied -- is this widely supported? --
        &gt;

&lt;![ %HTML.Deprecated [

&lt;!ENTITY % literal &quot;CDATA&quot;
        -- historical, non-conforming parsing mode where
           the only markup signal is the end tag
           in full
        --&gt;

&lt;!ELEMENT (XMP|LISTING) - -  %literal&gt;
&lt;!ELEMENT PLAINTEXT - O %literal&gt;

]]&gt;

&lt;!--=================== Block-like Quotes =================================--&gt;

&lt;!ELEMENT BLOCKQUOTE - - %body.content&gt;

&lt;!--=================== Lists =============================================--&gt;

&lt;!--
    HTML 3.2 allows you to control the sequence number for ordered lists.
    You can set the sequence number with the START and VALUE attributes.
    The TYPE attribute may be used to specify the rendering of ordered
    and unordered lists.
--&gt;

&lt;!-- definition lists - DT for term, DD for its definition --&gt;

&lt;!ELEMENT DL    - -  (DT|DD)+&gt;
&lt;!ATTLIST DL
        compact (compact) #IMPLIED -- more compact style --
        &gt;

&lt;!ELEMENT DT - O  (%text)*&gt;
&lt;!ELEMENT DD - O  %flow;&gt;

&lt;!-- Ordered lists OL, and unordered lists UL --&gt;
&lt;!ELEMENT (OL|UL) - -  (LI|%body.content)+&gt;

&lt;!--
       Numbering style
    1   arablic numbers     1, 2, 3, ...
    a   lower alpha         a, b, c, ...
    A   upper alpha         A, B, C, ...
    i   lower roman         i, ii, iii, ...
    I   upper roman         I, II, III, ...

    The style is applied to the sequence number which by default
    is reset to 1 for the first list item in an ordered list.

    This can&#39;t be expressed directly in SGML due to case folding.
--&gt;

&lt;!ENTITY % OLStyle &quot;CDATA&quot; -- constrained to: [1|a|A|i|I] --&gt;

&lt;!ATTLIST OL -- ordered lists --
        type      %OLStyle   #IMPLIED   -- numbering style --
        start     NUMBER     #IMPLIED   -- starting sequence number --
        compact  (compact)   #IMPLIED   -- reduced interitem spacing --
        &gt;

&lt;!-- bullet styles --&gt;

&lt;!ENTITY % ULStyle &quot;disc|square|circle&quot;&gt;

&lt;!ATTLIST UL -- unordered lists --
        type    (%ULStyle)   #IMPLIED   -- bullet style --
        compact (compact)    #IMPLIED   -- reduced interitem spacing --
        &gt;

&lt;!ELEMENT (DIR|MENU) - -  (LI)+ -(%block)&gt;
&lt;!ATTLIST DIR
        compact (compact) #IMPLIED
        &gt;
&lt;!ATTLIST MENU
        compact (compact) #IMPLIED
        &gt;

&lt;!-- &lt;DIR&gt;              Directory list                  --&gt;
&lt;!-- &lt;DIR COMPACT&gt;      Compact list style              --&gt;
&lt;!-- &lt;MENU&gt;             Menu list                       --&gt;
&lt;!-- &lt;MENU COMPACT&gt;     Compact list style              --&gt;

&lt;!-- The type attribute can be used to change the bullet style
     in unordered lists and the numbering style in ordered lists --&gt;

&lt;!ENTITY % LIStyle &quot;CDATA&quot; -- constrained to: &quot;(%ULStyle|%OLStyle)&quot; --&gt;

&lt;!ELEMENT LI - O %flow -- list item --&gt;
&lt;!ATTLIST LI
        type    %LIStyle     #IMPLIED   -- list item style --
        value    NUMBER      #IMPLIED   -- reset sequence number --
        &gt;

&lt;!--================ Forms ===============================================--&gt;

&lt;!ELEMENT FORM - - %body.content -(FORM)&gt;
&lt;!ATTLIST FORM
        action %URL #IMPLIED  -- server-side form handler --
        method (%HTTP-Method) GET -- see HTTP specification --
        enctype %Content-Type; &quot;application/x-www-form-urlencoded&quot;
        &gt;

&lt;!ENTITY % InputType
        &quot;(TEXT | PASSWORD | CHECKBOX | RADIO | SUBMIT
            | RESET | FILE | HIDDEN | IMAGE)&quot;&gt;

&lt;!ELEMENT INPUT - O EMPTY&gt;
&lt;!ATTLIST INPUT
        type %InputType TEXT     -- what kind of widget is needed --
        name  CDATA #IMPLIED     -- required for all but submit and reset --
        value CDATA #IMPLIED     -- required for radio and checkboxes --
        checked (checked) #IMPLIED -- for radio buttons and check boxes --
        size CDATA  #IMPLIED     -- specific to each type of field --
        maxlength NUMBER #IMPLIED
        src   %URL  #IMPLIED     -- for fields with background images --
        align  (top|middle|bottom|left|right) top -- image alignment --
        &gt;

&lt;!ELEMENT SELECT - - (OPTION+)&gt;
&lt;!ATTLIST SELECT
        name CDATA #REQUIRED
        size NUMBER #IMPLIED
        multiple (multiple) #IMPLIED
        &gt;

&lt;!ELEMENT OPTION - O (#PCDATA)*&gt;
&lt;!ATTLIST OPTION
        selected (selected) #IMPLIED
        value  CDATA  #IMPLIED -- defaults to element content --
        &gt;

&lt;!-- Multi-line text input field. --&gt;

&lt;!ELEMENT TEXTAREA - - (#PCDATA)*&gt;
&lt;!ATTLIST TEXTAREA
        name CDATA #REQUIRED
        rows NUMBER #REQUIRED
        cols NUMBER #REQUIRED
        &gt;

&lt;!--======================= Tables ========================================--&gt;

&lt;!-- Widely deployed subset of the full table standard, see RFC 1942
     e.g. at http://www.ics.uci.edu/pub/ietf/html/rfc1942.txt --&gt;

&lt;!-- horizontal placement of table relative to window --&gt;
&lt;!ENTITY % Where &quot;(left|center|right)&quot;&gt;

&lt;!-- horizontal alignment attributes for cell contents --&gt;
&lt;!ENTITY % cell.halign
        &quot;align  (left|center|right) #IMPLIED&quot;
        &gt;

&lt;!-- vertical alignment attributes for cell contents --&gt;
&lt;!ENTITY % cell.valign
        &quot;valign  (top|middle|bottom)  #IMPLIED&quot;
        &gt;

&lt;!ELEMENT table - - (caption?, tr+)&gt;
&lt;!ELEMENT tr - O (th|td)*&gt;
&lt;!ELEMENT (th|td) - O %body.content&gt;

&lt;!ATTLIST table                       -- table element --
        align     %Where;   #IMPLIED  -- table position relative to window --
        width     %Length   #IMPLIED  -- table width relative to window --
        border    %Pixels   #IMPLIED  -- controls frame width around table --
        cellspacing %Pixels #IMPLIED  -- spacing between cells --
        cellpadding %Pixels #IMPLIED  -- spacing within cells --
        &gt;

&lt;!ELEMENT CAPTION - - (%text;)* -- table or figure caption --&gt;
&lt;!ATTLIST CAPTION
        align (top|bottom) #IMPLIED
        &gt;

&lt;!ATTLIST tr                       -- table row --
        %cell.halign;              -- horizontal alignment in cells --
        %cell.valign;              -- vertical alignment in cells --
        &gt;

&lt;!ATTLIST (th|td)                  -- header or data cell --
        nowrap (nowrap)  #IMPLIED  -- suppress word wrap --
        rowspan NUMBER   1         -- number of rows spanned by cell --
        colspan NUMBER   1         -- number of cols spanned by cell --
        %cell.halign;              -- horizontal alignment in cell --
        %cell.valign;              -- vertical alignment in cell --
        width   %Pixels  #IMPLIED  -- suggested width for cell --
        height  %Pixels  #IMPLIED  -- suggested height for cell --
        &gt;

&lt;!--================ Document Head ========================================--&gt;

&lt;!-- %head.misc defined earlier on as &quot;SCRIPT|STYLE|META|LINK&quot; --&gt;

&lt;!ENTITY % head.content &quot;TITLE &amp; ISINDEX? &amp; BASE?&quot;&gt;

&lt;!ELEMENT HEAD O O  (%head.content) +(%head.misc)&gt;

&lt;!ELEMENT TITLE - -  (#PCDATA)* -(%head.misc)
          -- The TITLE element is not considered part of the flow of text.
             It should be displayed, for example as the page header or
             window title.
          --&gt;

&lt;!ELEMENT ISINDEX - O EMPTY&gt;
&lt;!ATTLIST ISINDEX
        prompt CDATA #IMPLIED -- prompt message --&gt;

&lt;!--
    The BASE element gives an absolute URL for dereferencing relative
    URLs, e.g.

         &lt;BASE href=&quot;http://foo.com/index.html&quot;&gt;
         ...
         &lt;IMG SRC=&quot;images/bar.gif&quot;&gt;

    The image is deferenced to

         http://foo.com/images/bar.gif

   In the absence of a BASE element the document URL should be used.
   Note that this is not necessarily the same as the URL used to
   request the document, as the base URL may be overridden by an HTTP
   header accompanying the document.
--&gt;

&lt;!ELEMENT BASE - O EMPTY&gt;
&lt;!ATTLIST BASE
        href %URL  #REQUIRED
        &gt;

&lt;!ELEMENT META - O EMPTY -- Generic Metainformation --&gt;
&lt;!ATTLIST META
        http-equiv  NAME    #IMPLIED  -- HTTP response header name  --
        name        NAME    #IMPLIED  -- metainformation name       --
        content     CDATA   #REQUIRED -- associated information     --
        &gt;

&lt;!-- SCRIPT/STYLE are place holders for transition to next version of HTML --&gt;

&lt;!ELEMENT STYLE  - - (#PCDATA)*  -(%head.misc) -- style info --&gt;
&lt;!ELEMENT SCRIPT - - (#PCDATA)*  -(%head.misc) -- script statements --&gt;

&lt;!--================ Document Structure ===================================--&gt;

&lt;!ENTITY % version.attr &quot;VERSION CDATA #FIXED &#39;%HTML.Version;&#39;&quot;&gt;

&lt;![ %HTML.Deprecated [
    &lt;!ENTITY % html.content &quot;HEAD, BODY, PLAINTEXT?&quot;&gt;
]]&gt;

&lt;!ENTITY % html.content &quot;HEAD, BODY&quot;&gt;

&lt;!ELEMENT HTML O O  (%html.content)&gt;
&lt;!ATTLIST HTML
        %version.attr;
        &gt;
</pre></td></tr></table><table cellspacing=0 cellpadding=0 border=0 width=100%><tr height=1 bgcolor=#000000><td bgcolor=#000000 colspan=3></td></tr><tr height=10><td></td></tr><tr><td><font size=-1><code class=fn>css-validator/html/tags/dtds/html32.dtd.COOL</code> from<br><span class="a"><a href="codesearch/url?hl=en&url=http://dist.bsdlab.org/w3c-css-validator-20041005.tar.gz&usg=AFQjCNEqwSYiWNNGk1CKTrmvkS7D1e_9Ow">http://dist.bsdlab.org/w3c-css-validator-20041005.tar.gz</a></span> - <span class="a">Unknown License</span><br><br></font></tr></tr></table></body></html>