<html><head><meta http-equiv="content-type" content="text/html; charset=UTF-8"><title>dtd/html401-strict.dtd - Google Code Search</title><style><!--
body {background-color:white;color:black;font-family:Arial, sans-serif;margin:8px;margin-top:3px}
.j{white-space:-moz-pre-wrap;	white-space:-pre-wrap;	white-space:-o-pre-wrap;	word-wrap:break-word;	margin-top:4px;margin-bottom:4px;border:1px solid silver;background-color:#f5f5f5;padding:0.5em;width:85%;color:#222;}
#title {border-top:1px solid #36c;background-color:#e5ecf9;margin:0;padding:0;padding-top:1px;padding-bottom:1px;padding-left:3px;margin-top:5px}
.expl {font-size:small;margin-left:2em;margin-right:2em}
.f {font-size:small;margin-bottom:1.5em}
.hl{font-weight:bold;color:#000}
.h{margin-top:1em;margin-bottom:0px}
.k {background-color:#36c}
.a,.a a{font-size:small;color:green}
a:active{color:#f00}a:link{color:#00c}a:visited{color:#551a8b}a.s,.s a{font-size:small;color:#77c}.a,.a a{font-size:small;color:green}.i, .i:link {color:#a90a08;font-size:small}
.n .i {font-size:10pt;font-weight:bold}
.n a {font-size:10pt;color:#000}
.b a {font-size:12pt;color:#00c;font-weight:bold}
code {color: #007000; font-family:"bogus font here",monospace; font-size: 100%;}
code.fn {color: #007000; font-family:"bogus font here",monospace; font-size: 100%;}
div.n {margin-top:1ex}
img{border:0}
.chl {background:#ffa}
.cchl {background:#aff}
.cclhl {background:#e8f4f7;display:block}
.cc {color:#060}
.input_table tr td {vertical-align:top;}--></style>
<script type="text/javascript">
<!--
function sf(){}
// --></script></head><body bgcolor=#ffffff onload="sf()"><table cellspacing=0 cellpadding=0 border=0 width=100%><tr><td align=left valign=top><a href="/codesearch"><img src="http://www.google.com/intl/en/images/codesearch_logo_sm.gif" width=150 height=55 alt="" border=0 vspace=12></a></td><td width=10></td><td align=left><font size=-1>This is Google's cached copy of <code class=fn>dtd/html401-strict.dtd</code> from<br><span class="a"><a href="codesearch/url?hl=en&ct=rpc&url=http://svn.fckeditor.net/FCKdtd2js/trunk&usg=AFQjCNHOChAbcczS9zMRKwfD8vHQR7vw_A">http://svn.fckeditor.net/FCKdtd2js/trunk</a></span> <br><br><i>Google is neither affiliated with the authors of this page nor responsible for its content.</i></font></td></tr><tr height=10><td colspan=3></td></tr><tr height=1 bgcolor=#000000><td bgcolor=#000000 colspan=3></td></tr></table><br><table cellspacing=0 cellpadding=0 border=0 width=100%><tr><td align=left valign=top colspan=4><pre><a href="/codesearch?hl=en&amp;q=show:5sYMnnS9oxk:qfifOBGFUT8&amp;sa=N&amp;ct=rdp&amp;cs_p=http://svn.fckeditor.net/FCKdtd2js/trunk">http://svn.fckeditor.net/FCKdtd2js/trunk</a>/<a href="/codesearch?hl=en&amp;q=show:NfOpzv1GEjg:ZKkNfSY-Efc&amp;sa=N&amp;ct=rdp&amp;cs_p=http://svn.fckeditor.net/FCKdtd2js/trunk&amp;cs_f=dtd">dtd</a>/</pre></td></tr><tr><td>&nbsp;&nbsp;&nbsp;&nbsp;</td><td align=left valign=top><pre><b>html401-strict.dtd</b>
<a href="/codesearch?hl=en&amp;q=show:ui-lAxY-C54:NfOpzv1GEjg:TurmC1JePmc&amp;sa=N&amp;ct=rd&amp;cs_p=http://svn.fckeditor.net/FCKdtd2js/trunk&amp;cs_f=dtd/html401-transitional.dtd&amp;start=1">html401-transitional.dtd</a>
<a href="/codesearch?hl=en&amp;q=show:ysXKBpNqZiE:NfOpzv1GEjg:yGTwbl-Oojk&amp;sa=N&amp;ct=rd&amp;cs_p=http://svn.fckeditor.net/FCKdtd2js/trunk&amp;cs_f=dtd/xhtml10-strict.dtd&amp;start=1">xhtml10-strict.dtd</a>
<a href="/codesearch?hl=en&amp;q=show:n0QeN_YOFew:NfOpzv1GEjg:t9SmuwXUPI0&amp;sa=N&amp;ct=rd&amp;cs_p=http://svn.fckeditor.net/FCKdtd2js/trunk&amp;cs_f=dtd/xhtml10-transitional.dtd&amp;start=1">xhtml10-transitional.dtd</a>
<a href="/codesearch?hl=en&amp;q=show:CWRfcDYcDp4:NfOpzv1GEjg:-aINO3lfLyI&amp;sa=N&amp;ct=rd&amp;cs_p=http://svn.fckeditor.net/FCKdtd2js/trunk&amp;cs_f=dtd/xhtml11.dtd&amp;start=1">xhtml11.dtd</a>
</pre></td><td>&nbsp;&nbsp;&nbsp;&nbsp;</td><td align=left valign=top width=100%><pre><span id=l1>&lt;!--
</span><span id=l2>    This is HTML 4.01 Strict DTD, which excludes the presentation
</span><span id=l3>    attributes and elements that W3C expects to phase out as
</span><span id=l4>    support for style sheets matures. Authors should use the Strict
</span><span id=l5>    DTD when possible, but may use the Transitional DTD when support
</span><span id=l6>    for presentation attribute and elements is required.
</span><span id=l7>
</span><span id=l8>    HTML 4 includes mechanisms for style sheets, scripting,
</span><span id=l9>    embedding objects, improved support for right to left and mixed
</span><span id=l10>    direction text, and enhancements to forms for improved
</span><span id=l11>    accessibility for people with disabilities.
</span><span id=l12>
</span><span id=l13>          Draft: $Date: 1999/12/24 23:37:49 $
</span><span id=l14>
</span><span id=l15>          Authors:
</span><span id=l16>              Dave Raggett &lt;dsr@w3.org&gt;
</span><span id=l17>              Arnaud Le Hors &lt;lehors@w3.org&gt;
</span><span id=l18>              Ian Jacobs &lt;ij@w3.org&gt;
</span><span id=l19>
</span><span id=l20>    Further information about HTML 4.01 is available at:
</span><span id=l21>
</span><span id=l22>        http://www.w3.org/TR/1999/REC-html401-19991224
</span><span id=l23>
</span><span id=l24>
</span><span id=l25>    The HTML 4.01 specification includes additional
</span><span id=l26>    syntactic constraints that cannot be expressed within
</span><span id=l27>    the DTDs.
</span><span id=l28>
</span><span id=l29>--&gt;
</span><span id=l30>&lt;!--
</span><span id=l31>    Typical usage:
</span><span id=l32>
</span><span id=l33>    &lt;!DOCTYPE HTML PUBLIC &quot;-//W3C//DTD HTML 4.01//EN&quot;
</span><span id=l34>            &quot;http://www.w3.org/TR/html4/strict.dtd&quot;&gt;
</span><span id=l35>    &lt;html&gt;
</span><span id=l36>    &lt;head&gt;
</span><span id=l37>    ...
</span><span id=l38>    &lt;/head&gt;
</span><span id=l39>    &lt;body&gt;
</span><span id=l40>    ...
</span><span id=l41>    &lt;/body&gt;
</span><span id=l42>    &lt;/html&gt;
</span><span id=l43>
</span><span id=l44>    The URI used as a system identifier with the public identifier allows
</span><span id=l45>    the user agent to download the DTD and entity sets as needed.
</span><span id=l46>
</span><span id=l47>    The FPI for the Transitional HTML 4.01 DTD is:
</span><span id=l48>
</span><span id=l49>        &quot;-//W3C//DTD HTML 4.01 Transitional//EN&quot;
</span><span id=l50>
</span><span id=l51>    This version of the transitional DTD is:
</span><span id=l52>
</span><span id=l53>        http://www.w3.org/TR/1999/REC-html401-19991224/loose.dtd
</span><span id=l54>
</span><span id=l55>    If you are writing a document that includes frames, use
</span><span id=l56>    the following FPI:
</span><span id=l57>
</span><span id=l58>        &quot;-//W3C//DTD HTML 4.01 Frameset//EN&quot;
</span><span id=l59>
</span><span id=l60>    This version of the frameset DTD is:
</span><span id=l61>
</span><span id=l62>        http://www.w3.org/TR/1999/REC-html401-19991224/frameset.dtd
</span><span id=l63>
</span><span id=l64>    Use the following (relative) URIs to refer to
</span><span id=l65>    the DTDs and entity definitions of this specification:
</span><span id=l66>
</span><span id=l67>    &quot;strict.dtd&quot;
</span><span id=l68>    &quot;loose.dtd&quot;
</span><span id=l69>    &quot;frameset.dtd&quot;
</span><span id=l70>    &quot;HTMLlat1.ent&quot;
</span><span id=l71>    &quot;HTMLsymbol.ent&quot;
</span><span id=l72>    &quot;HTMLspecial.ent&quot;
</span><span id=l73>
</span><span id=l74>--&gt;
</span><span id=l75>
</span><span id=l76>&lt;!--================== Imported Names ====================================--&gt;
</span><span id=l77>&lt;!-- Feature Switch for frameset documents --&gt;
</span><span id=l78>&lt;!ENTITY % HTML.Frameset &quot;IGNORE&quot;&gt;
</span><span id=l79>
</span><span id=l80>&lt;!ENTITY % ContentType &quot;CDATA&quot;
</span><span id=l81>    -- media type, as per [RFC2045]
</span><span id=l82>    --&gt;
</span><span id=l83>
</span><span id=l84>&lt;!ENTITY % ContentTypes &quot;CDATA&quot;
</span><span id=l85>    -- comma-separated list of media types, as per [RFC2045]
</span><span id=l86>    --&gt;
</span><span id=l87>
</span><span id=l88>&lt;!ENTITY % Charset &quot;CDATA&quot;
</span><span id=l89>    -- a character encoding, as per [RFC2045]
</span><span id=l90>    --&gt;
</span><span id=l91>
</span><span id=l92>&lt;!ENTITY % Charsets &quot;CDATA&quot;
</span><span id=l93>    -- a space-separated list of character encodings, as per [RFC2045]
</span><span id=l94>    --&gt;
</span><span id=l95>
</span><span id=l96>&lt;!ENTITY % LanguageCode &quot;NAME&quot;
</span><span id=l97>    -- a language code, as per [RFC1766]
</span><span id=l98>    --&gt;
</span><span id=l99>
</span><span id=l100>&lt;!ENTITY % Character &quot;CDATA&quot;
</span><span id=l101>    -- a single character from [ISO10646]
</span><span id=l102>    --&gt;
</span><span id=l103>
</span><span id=l104>&lt;!ENTITY % LinkTypes &quot;CDATA&quot;
</span><span id=l105>    -- space-separated list of link types
</span><span id=l106>    --&gt;
</span><span id=l107>
</span><span id=l108>&lt;!ENTITY % MediaDesc &quot;CDATA&quot;
</span><span id=l109>    -- single or comma-separated list of media descriptors
</span><span id=l110>    --&gt;
</span><span id=l111>
</span><span id=l112>&lt;!ENTITY % URI &quot;CDATA&quot;
</span><span id=l113>    -- a Uniform Resource Identifier,
</span><span id=l114>       see [URI]
</span><span id=l115>    --&gt;
</span><span id=l116>
</span><span id=l117>&lt;!ENTITY % Datetime &quot;CDATA&quot; -- date and time information. ISO date format --&gt;
</span><span id=l118>
</span><span id=l119>
</span><span id=l120>&lt;!ENTITY % Script &quot;CDATA&quot; -- script expression --&gt;
</span><span id=l121>
</span><span id=l122>&lt;!ENTITY % StyleSheet &quot;CDATA&quot; -- style sheet data --&gt;
</span><span id=l123>
</span><span id=l124>
</span><span id=l125>
</span><span id=l126>&lt;!ENTITY % Text &quot;CDATA&quot;&gt;
</span><span id=l127>
</span><span id=l128>
</span><span id=l129>&lt;!-- Parameter Entities --&gt;
</span><span id=l130>
</span><span id=l131>&lt;!ENTITY % head.misc &quot;SCRIPT|STYLE|META|LINK|OBJECT&quot; -- repeatable head elements --&gt;
</span><span id=l132>
</span><span id=l133>&lt;!ENTITY % heading &quot;H1|H2|H3|H4|H5|H6&quot;&gt;
</span><span id=l134>
</span><span id=l135>&lt;!ENTITY % list &quot;UL | OL&quot;&gt;
</span><span id=l136>
</span><span id=l137>&lt;!ENTITY % preformatted &quot;PRE&quot;&gt;
</span><span id=l138>
</span><span id=l139>
</span><span id=l140>&lt;!--================ Character mnemonic entities =========================--&gt;
</span><span id=l141>
</span><span id=l142>&lt;!ENTITY % HTMLlat1 PUBLIC
</span><span id=l143>   &quot;-//W3C//ENTITIES Latin1//EN//HTML&quot;
</span><span id=l144>   &quot;HTMLlat1.ent&quot;&gt;
</span><span id=l145>%HTMLlat1;
</span><span id=l146>
</span><span id=l147>&lt;!ENTITY % HTMLsymbol PUBLIC
</span><span id=l148>   &quot;-//W3C//ENTITIES Symbols//EN//HTML&quot;
</span><span id=l149>   &quot;HTMLsymbol.ent&quot;&gt;
</span><span id=l150>%HTMLsymbol;
</span><span id=l151>
</span><span id=l152>&lt;!ENTITY % HTMLspecial PUBLIC
</span><span id=l153>   &quot;-//W3C//ENTITIES Special//EN//HTML&quot;
</span><span id=l154>   &quot;HTMLspecial.ent&quot;&gt;
</span><span id=l155>%HTMLspecial;
</span><span id=l156>&lt;!--=================== Generic Attributes ===============================--&gt;
</span><span id=l157>
</span><span id=l158>&lt;!ENTITY % coreattrs
</span><span id=l159> &quot;id          ID             #IMPLIED  -- document-wide unique id --
</span><span id=l160>  class       CDATA          #IMPLIED  -- space-separated list of classes --
</span><span id=l161>  style       %StyleSheet;   #IMPLIED  -- associated style info --
</span><span id=l162>  title       %Text;         #IMPLIED  -- advisory title --&quot;
</span><span id=l163>  &gt;
</span><span id=l164>
</span><span id=l165>&lt;!ENTITY % i18n
</span><span id=l166> &quot;lang        %LanguageCode; #IMPLIED  -- language code --
</span><span id=l167>  dir         (ltr|rtl)      #IMPLIED  -- direction for weak/neutral text --&quot;
</span><span id=l168>  &gt;
</span><span id=l169>
</span><span id=l170>&lt;!ENTITY % events
</span><span id=l171> &quot;onclick     %Script;       #IMPLIED  -- a pointer button was clicked --
</span><span id=l172>  ondblclick  %Script;       #IMPLIED  -- a pointer button was double clicked--
</span><span id=l173>  onmousedown %Script;       #IMPLIED  -- a pointer button was pressed down --
</span><span id=l174>  onmouseup   %Script;       #IMPLIED  -- a pointer button was released --
</span><span id=l175>  onmouseover %Script;       #IMPLIED  -- a pointer was moved onto --
</span><span id=l176>  onmousemove %Script;       #IMPLIED  -- a pointer was moved within --
</span><span id=l177>  onmouseout  %Script;       #IMPLIED  -- a pointer was moved away --
</span><span id=l178>  onkeypress  %Script;       #IMPLIED  -- a key was pressed and released --
</span><span id=l179>  onkeydown   %Script;       #IMPLIED  -- a key was pressed down --
</span><span id=l180>  onkeyup     %Script;       #IMPLIED  -- a key was released --&quot;
</span><span id=l181>  &gt;
</span><span id=l182>
</span><span id=l183>&lt;!-- Reserved Feature Switch --&gt;
</span><span id=l184>&lt;!ENTITY % HTML.Reserved &quot;IGNORE&quot;&gt;
</span><span id=l185>
</span><span id=l186>&lt;!-- The following attributes are reserved for possible future use --&gt;
</span><span id=l187>&lt;![ %HTML.Reserved; [
</span><span id=l188>&lt;!ENTITY % reserved
</span><span id=l189> &quot;datasrc     %URI;          #IMPLIED  -- a single or tabular Data Source --
</span><span id=l190>  datafld     CDATA          #IMPLIED  -- the property or column name --
</span><span id=l191>  dataformatas (plaintext|html) plaintext -- text or html --&quot;
</span><span id=l192>  &gt;
</span><span id=l193>]]&gt;
</span><span id=l194>
</span><span id=l195>&lt;!ENTITY % reserved &quot;&quot;&gt;
</span><span id=l196>
</span><span id=l197>&lt;!ENTITY % attrs &quot;%coreattrs; %i18n; %events;&quot;&gt;
</span><span id=l198>
</span><span id=l199>
</span><span id=l200>&lt;!--=================== Text Markup ======================================--&gt;
</span><span id=l201>
</span><span id=l202>&lt;!ENTITY % fontstyle
</span><span id=l203> &quot;TT | I | B | BIG | SMALL&quot;&gt;
</span><span id=l204>
</span><span id=l205>&lt;!ENTITY % phrase &quot;EM | STRONG | DFN | CODE |
</span><span id=l206>                   SAMP | KBD | VAR | CITE | ABBR | ACRONYM&quot; &gt;
</span><span id=l207>
</span><span id=l208>&lt;!ENTITY % special
</span><span id=l209>   &quot;A | IMG | OBJECT | BR | SCRIPT | MAP | Q | SUB | SUP | SPAN | BDO&quot;&gt;
</span><span id=l210>
</span><span id=l211>&lt;!ENTITY % formctrl &quot;INPUT | SELECT | TEXTAREA | LABEL | BUTTON&quot;&gt;
</span><span id=l212>
</span><span id=l213>&lt;!-- %inline; covers inline or &quot;text-level&quot; elements --&gt;
</span><span id=l214>&lt;!ENTITY % inline &quot;#PCDATA | %fontstyle; | %phrase; | %special; | %formctrl;&quot;&gt;
</span><span id=l215>
</span><span id=l216>&lt;!ELEMENT (%fontstyle;|%phrase;) - - (%inline;)*&gt;
</span><span id=l217>&lt;!ATTLIST (%fontstyle;|%phrase;)
</span><span id=l218>  %attrs;                              -- %coreattrs, %i18n, %events --
</span><span id=l219>  &gt;
</span><span id=l220>
</span><span id=l221>&lt;!ELEMENT (SUB|SUP) - - (%inline;)*    -- subscript, superscript --&gt;
</span><span id=l222>&lt;!ATTLIST (SUB|SUP)
</span><span id=l223>  %attrs;                              -- %coreattrs, %i18n, %events --
</span><span id=l224>  &gt;
</span><span id=l225>
</span><span id=l226>&lt;!ELEMENT SPAN - - (%inline;)*         -- generic language/style container --&gt;
</span><span id=l227>&lt;!ATTLIST SPAN
</span><span id=l228>  %attrs;                              -- %coreattrs, %i18n, %events --
</span><span id=l229>  %reserved;                   -- reserved for possible future use --
</span><span id=l230>  &gt;
</span><span id=l231>
</span><span id=l232>&lt;!ELEMENT BDO - - (%inline;)*          -- I18N BiDi over-ride --&gt;
</span><span id=l233>&lt;!ATTLIST BDO
</span><span id=l234>  %coreattrs;                          -- id, class, style, title --
</span><span id=l235>  lang        %LanguageCode; #IMPLIED  -- language code --
</span><span id=l236>  dir         (ltr|rtl)      #REQUIRED -- directionality --
</span><span id=l237>  &gt;
</span><span id=l238>
</span><span id=l239>
</span><span id=l240>&lt;!ELEMENT BR - O EMPTY                 -- forced line break --&gt;
</span><span id=l241>&lt;!ATTLIST BR
</span><span id=l242>  %coreattrs;                          -- id, class, style, title --
</span><span id=l243>  &gt;
</span><span id=l244>
</span><span id=l245>&lt;!--================== HTML content models ===============================--&gt;
</span><span id=l246>
</span><span id=l247>&lt;!--
</span><span id=l248>    HTML has two basic content models:
</span><span id=l249>
</span><span id=l250>        %inline;     character level elements and text strings
</span><span id=l251>        %block;      block-like elements e.g. paragraphs and lists
</span><span id=l252>--&gt;
</span><span id=l253>
</span><span id=l254>&lt;!ENTITY % block
</span><span id=l255>     &quot;P | %heading; | %list; | %preformatted; | DL | DIV | NOSCRIPT |
</span><span id=l256>      BLOCKQUOTE | FORM | HR | TABLE | FIELDSET | ADDRESS&quot;&gt;
</span><span id=l257>
</span><span id=l258>&lt;!ENTITY % flow &quot;%block; | %inline;&quot;&gt;
</span><span id=l259>
</span><span id=l260>&lt;!--=================== Document Body ====================================--&gt;
</span><span id=l261>
</span><span id=l262>&lt;!ELEMENT BODY O O (%block;|SCRIPT)+ +(INS|DEL) -- document body --&gt;
</span><span id=l263>&lt;!ATTLIST BODY
</span><span id=l264>  %attrs;                              -- %coreattrs, %i18n, %events --
</span><span id=l265>  onload          %Script;   #IMPLIED  -- the document has been loaded --
</span><span id=l266>  onunload        %Script;   #IMPLIED  -- the document has been removed --
</span><span id=l267>  &gt;
</span><span id=l268>
</span><span id=l269>&lt;!ELEMENT ADDRESS - - (%inline;)* -- information on author --&gt;
</span><span id=l270>&lt;!ATTLIST ADDRESS
</span><span id=l271>  %attrs;                              -- %coreattrs, %i18n, %events --
</span><span id=l272>  &gt;
</span><span id=l273>
</span><span id=l274>&lt;!ELEMENT DIV - - (%flow;)*            -- generic language/style container --&gt;
</span><span id=l275>&lt;!ATTLIST DIV
</span><span id=l276>  %attrs;                              -- %coreattrs, %i18n, %events --
</span><span id=l277>  %reserved;                           -- reserved for possible future use --
</span><span id=l278>  &gt;
</span><span id=l279>
</span><span id=l280>
</span><span id=l281>&lt;!--================== The Anchor Element ================================--&gt;
</span><span id=l282>
</span><span id=l283>&lt;!ENTITY % Shape &quot;(rect|circle|poly|default)&quot;&gt;
</span><span id=l284>&lt;!ENTITY % Coords &quot;CDATA&quot; -- comma-separated list of lengths --&gt;
</span><span id=l285>
</span><span id=l286>&lt;!ELEMENT A - - (%inline;)* -(A)       -- anchor --&gt;
</span><span id=l287>&lt;!ATTLIST A
</span><span id=l288>  %attrs;                              -- %coreattrs, %i18n, %events --
</span><span id=l289>  charset     %Charset;      #IMPLIED  -- char encoding of linked resource --
</span><span id=l290>  type        %ContentType;  #IMPLIED  -- advisory content type --
</span><span id=l291>  name        CDATA          #IMPLIED  -- named link end --
</span><span id=l292>  href        %URI;          #IMPLIED  -- URI for linked resource --
</span><span id=l293>  hreflang    %LanguageCode; #IMPLIED  -- language code --
</span><span id=l294>  rel         %LinkTypes;    #IMPLIED  -- forward link types --
</span><span id=l295>  rev         %LinkTypes;    #IMPLIED  -- reverse link types --
</span><span id=l296>  accesskey   %Character;    #IMPLIED  -- accessibility key character --
</span><span id=l297>  shape       %Shape;        rect      -- for use with client-side image maps --
</span><span id=l298>  coords      %Coords;       #IMPLIED  -- for use with client-side image maps --
</span><span id=l299>  tabindex    NUMBER         #IMPLIED  -- position in tabbing order --
</span><span id=l300>  onfocus     %Script;       #IMPLIED  -- the element got the focus --
</span><span id=l301>  onblur      %Script;       #IMPLIED  -- the element lost the focus --
</span><span id=l302>  &gt;
</span><span id=l303>
</span><span id=l304>&lt;!--================== Client-side image maps ============================--&gt;
</span><span id=l305>
</span><span id=l306>&lt;!-- These can be placed in the same document or grouped in a
</span><span id=l307>     separate document although this isn&#39;t yet widely supported --&gt;
</span><span id=l308>
</span><span id=l309>&lt;!ELEMENT MAP - - ((%block;) | AREA)+ -- client-side image map --&gt;
</span><span id=l310>&lt;!ATTLIST MAP
</span><span id=l311>  %attrs;                              -- %coreattrs, %i18n, %events --
</span><span id=l312>  name        CDATA          #REQUIRED -- for reference by usemap --
</span><span id=l313>  &gt;
</span><span id=l314>
</span><span id=l315>&lt;!ELEMENT AREA - O EMPTY               -- client-side image map area --&gt;
</span><span id=l316>&lt;!ATTLIST AREA
</span><span id=l317>  %attrs;                              -- %coreattrs, %i18n, %events --
</span><span id=l318>  shape       %Shape;        rect      -- controls interpretation of coords --
</span><span id=l319>  coords      %Coords;       #IMPLIED  -- comma-separated list of lengths --
</span><span id=l320>  href        %URI;          #IMPLIED  -- URI for linked resource --
</span><span id=l321>  nohref      (nohref)       #IMPLIED  -- this region has no action --
</span><span id=l322>  alt         %Text;         #REQUIRED -- short description --
</span><span id=l323>  tabindex    NUMBER         #IMPLIED  -- position in tabbing order --
</span><span id=l324>  accesskey   %Character;    #IMPLIED  -- accessibility key character --
</span><span id=l325>  onfocus     %Script;       #IMPLIED  -- the element got the focus --
</span><span id=l326>  onblur      %Script;       #IMPLIED  -- the element lost the focus --
</span><span id=l327>  &gt;
</span><span id=l328>
</span><span id=l329>&lt;!--================== The LINK Element ==================================--&gt;
</span><span id=l330>
</span><span id=l331>&lt;!--
</span><span id=l332>  Relationship values can be used in principle:
</span><span id=l333>
</span><span id=l334>   a) for document specific toolbars/menus when used
</span><span id=l335>      with the LINK element in document head e.g.
</span><span id=l336>        start, contents, previous, next, index, end, help
</span><span id=l337>   b) to link to a separate style sheet (rel=stylesheet)
</span><span id=l338>   c) to make a link to a script (rel=script)
</span><span id=l339>   d) by stylesheets to control how collections of
</span><span id=l340>      html nodes are rendered into printed documents
</span><span id=l341>   e) to make a link to a printable version of this document
</span><span id=l342>      e.g. a postscript or pdf version (rel=alternate media=print)
</span><span id=l343>--&gt;
</span><span id=l344>
</span><span id=l345>&lt;!ELEMENT LINK - O EMPTY               -- a media-independent link --&gt;
</span><span id=l346>&lt;!ATTLIST LINK
</span><span id=l347>  %attrs;                              -- %coreattrs, %i18n, %events --
</span><span id=l348>  charset     %Charset;      #IMPLIED  -- char encoding of linked resource --
</span><span id=l349>  href        %URI;          #IMPLIED  -- URI for linked resource --
</span><span id=l350>  hreflang    %LanguageCode; #IMPLIED  -- language code --
</span><span id=l351>  type        %ContentType;  #IMPLIED  -- advisory content type --
</span><span id=l352>  rel         %LinkTypes;    #IMPLIED  -- forward link types --
</span><span id=l353>  rev         %LinkTypes;    #IMPLIED  -- reverse link types --
</span><span id=l354>  media       %MediaDesc;    #IMPLIED  -- for rendering on these media --
</span><span id=l355>  &gt;
</span><span id=l356>
</span><span id=l357>&lt;!--=================== Images ===========================================--&gt;
</span><span id=l358>
</span><span id=l359>&lt;!-- Length defined in strict DTD for cellpadding/cellspacing --&gt;
</span><span id=l360>&lt;!ENTITY % Length &quot;CDATA&quot; -- nn for pixels or nn% for percentage length --&gt;
</span><span id=l361>&lt;!ENTITY % MultiLength &quot;CDATA&quot; -- pixel, percentage, or relative --&gt;
</span><span id=l362>
</span><span id=l363>&lt;![ %HTML.Frameset; [
</span><span id=l364>&lt;!ENTITY % MultiLengths &quot;CDATA&quot; -- comma-separated list of MultiLength --&gt;
</span><span id=l365>]]&gt;
</span><span id=l366>
</span><span id=l367>&lt;!ENTITY % Pixels &quot;CDATA&quot; -- integer representing length in pixels --&gt;
</span><span id=l368>
</span><span id=l369>
</span><span id=l370>&lt;!-- To avoid problems with text-only UAs as well as
</span><span id=l371>   to make image content understandable and navigable
</span><span id=l372>   to users of non-visual UAs, you need to provide
</span><span id=l373>   a description with ALT, and avoid server-side image maps --&gt;
</span><span id=l374>&lt;!ELEMENT IMG - O EMPTY                -- Embedded image --&gt;
</span><span id=l375>&lt;!ATTLIST IMG
</span><span id=l376>  %attrs;                              -- %coreattrs, %i18n, %events --
</span><span id=l377>  src         %URI;          #REQUIRED -- URI of image to embed --
</span><span id=l378>  alt         %Text;         #REQUIRED -- short description --
</span><span id=l379>  longdesc    %URI;          #IMPLIED  -- link to long description
</span><span id=l380>                                          (complements alt) --
</span><span id=l381>  name        CDATA          #IMPLIED  -- name of image for scripting --
</span><span id=l382>  height      %Length;       #IMPLIED  -- override height --
</span><span id=l383>  width       %Length;       #IMPLIED  -- override width --
</span><span id=l384>  usemap      %URI;          #IMPLIED  -- use client-side image map --
</span><span id=l385>  ismap       (ismap)        #IMPLIED  -- use server-side image map --
</span><span id=l386>  &gt;
</span><span id=l387>
</span><span id=l388>&lt;!-- USEMAP points to a MAP element which may be in this document
</span><span id=l389>  or an external document, although the latter is not widely supported --&gt;
</span><span id=l390>
</span><span id=l391>&lt;!--==================== OBJECT ======================================--&gt;
</span><span id=l392>&lt;!--
</span><span id=l393>  OBJECT is used to embed objects as part of HTML pages
</span><span id=l394>  PARAM elements should precede other content. SGML mixed content
</span><span id=l395>  model technicality precludes specifying this formally ...
</span><span id=l396>--&gt;
</span><span id=l397>
</span><span id=l398>&lt;!ELEMENT OBJECT - - (PARAM | %flow;)*
</span><span id=l399> -- generic embedded object --&gt;
</span><span id=l400>&lt;!ATTLIST OBJECT
</span><span id=l401>  %attrs;                              -- %coreattrs, %i18n, %events --
</span><span id=l402>  declare     (declare)      #IMPLIED  -- declare but don&#39;t instantiate flag --
</span><span id=l403>  classid     %URI;          #IMPLIED  -- identifies an implementation --
</span><span id=l404>  codebase    %URI;          #IMPLIED  -- base URI for classid, data, archive--
</span><span id=l405>  data        %URI;          #IMPLIED  -- reference to object&#39;s data --
</span><span id=l406>  type        %ContentType;  #IMPLIED  -- content type for data --
</span><span id=l407>  codetype    %ContentType;  #IMPLIED  -- content type for code --
</span><span id=l408>  archive     CDATA          #IMPLIED  -- space-separated list of URIs --
</span><span id=l409>  standby     %Text;         #IMPLIED  -- message to show while loading --
</span><span id=l410>  height      %Length;       #IMPLIED  -- override height --
</span><span id=l411>  width       %Length;       #IMPLIED  -- override width --
</span><span id=l412>  usemap      %URI;          #IMPLIED  -- use client-side image map --
</span><span id=l413>  name        CDATA          #IMPLIED  -- submit as part of form --
</span><span id=l414>  tabindex    NUMBER         #IMPLIED  -- position in tabbing order --
</span><span id=l415>  %reserved;                           -- reserved for possible future use --
</span><span id=l416>  &gt;
</span><span id=l417>
</span><span id=l418>&lt;!ELEMENT PARAM - O EMPTY              -- named property value --&gt;
</span><span id=l419>&lt;!ATTLIST PARAM
</span><span id=l420>  id          ID             #IMPLIED  -- document-wide unique id --
</span><span id=l421>  name        CDATA          #REQUIRED -- property name --
</span><span id=l422>  value       CDATA          #IMPLIED  -- property value --
</span><span id=l423>  valuetype   (DATA|REF|OBJECT) DATA   -- How to interpret value --
</span><span id=l424>  type        %ContentType;  #IMPLIED  -- content type for value
</span><span id=l425>                                          when valuetype=ref --
</span><span id=l426>  &gt;
</span><span id=l427>
</span><span id=l428>
</span><span id=l429>&lt;!--=================== Horizontal Rule ==================================--&gt;
</span><span id=l430>
</span><span id=l431>&lt;!ELEMENT HR - O EMPTY -- horizontal rule --&gt;
</span><span id=l432>&lt;!ATTLIST HR
</span><span id=l433>  %attrs;                              -- %coreattrs, %i18n, %events --
</span><span id=l434>  &gt;
</span><span id=l435>
</span><span id=l436>&lt;!--=================== Paragraphs =======================================--&gt;
</span><span id=l437>
</span><span id=l438>&lt;!ELEMENT P - O (%inline;)*            -- paragraph --&gt;
</span><span id=l439>&lt;!ATTLIST P
</span><span id=l440>  %attrs;                              -- %coreattrs, %i18n, %events --
</span><span id=l441>  &gt;
</span><span id=l442>
</span><span id=l443>&lt;!--=================== Headings =========================================--&gt;
</span><span id=l444>
</span><span id=l445>&lt;!--
</span><span id=l446>  There are six levels of headings from H1 (the most important)
</span><span id=l447>  to H6 (the least important).
</span><span id=l448>--&gt;
</span><span id=l449>
</span><span id=l450>&lt;!ELEMENT (%heading;)  - - (%inline;)* -- heading --&gt;
</span><span id=l451>&lt;!ATTLIST (%heading;)
</span><span id=l452>  %attrs;                              -- %coreattrs, %i18n, %events --
</span><span id=l453>  &gt;
</span><span id=l454>
</span><span id=l455>&lt;!--=================== Preformatted Text ================================--&gt;
</span><span id=l456>
</span><span id=l457>&lt;!-- excludes markup for images and changes in font size --&gt;
</span><span id=l458>&lt;!ENTITY % pre.exclusion &quot;IMG|OBJECT|BIG|SMALL|SUB|SUP&quot;&gt;
</span><span id=l459>
</span><span id=l460>&lt;!ELEMENT PRE - - (%inline;)* -(%pre.exclusion;) -- preformatted text --&gt;
</span><span id=l461>&lt;!ATTLIST PRE
</span><span id=l462>  %attrs;                              -- %coreattrs, %i18n, %events --
</span><span id=l463>  &gt;
</span><span id=l464>
</span><span id=l465>&lt;!--===================== Inline Quotes ==================================--&gt;
</span><span id=l466>
</span><span id=l467>&lt;!ELEMENT Q - - (%inline;)*            -- short inline quotation --&gt;
</span><span id=l468>&lt;!ATTLIST Q
</span><span id=l469>  %attrs;                              -- %coreattrs, %i18n, %events --
</span><span id=l470>  cite        %URI;          #IMPLIED  -- URI for source document or msg --
</span><span id=l471>  &gt;
</span><span id=l472>
</span><span id=l473>&lt;!--=================== Block-like Quotes ================================--&gt;
</span><span id=l474>
</span><span id=l475>&lt;!ELEMENT BLOCKQUOTE - - (%block;|SCRIPT)+ -- long quotation --&gt;
</span><span id=l476>&lt;!ATTLIST BLOCKQUOTE
</span><span id=l477>  %attrs;                              -- %coreattrs, %i18n, %events --
</span><span id=l478>  cite        %URI;          #IMPLIED  -- URI for source document or msg --
</span><span id=l479>  &gt;
</span><span id=l480>
</span><span id=l481>&lt;!--=================== Inserted/Deleted Text ============================--&gt;
</span><span id=l482>
</span><span id=l483>
</span><span id=l484>&lt;!-- INS/DEL are handled by inclusion on BODY --&gt;
</span><span id=l485>&lt;!ELEMENT (INS|DEL) - - (%flow;)*      -- inserted text, deleted text --&gt;
</span><span id=l486>&lt;!ATTLIST (INS|DEL)
</span><span id=l487>  %attrs;                              -- %coreattrs, %i18n, %events --
</span><span id=l488>  cite        %URI;          #IMPLIED  -- info on reason for change --
</span><span id=l489>  datetime    %Datetime;     #IMPLIED  -- date and time of change --
</span><span id=l490>  &gt;
</span><span id=l491>
</span><span id=l492>&lt;!--=================== Lists ============================================--&gt;
</span><span id=l493>
</span><span id=l494>&lt;!-- definition lists - DT for term, DD for its definition --&gt;
</span><span id=l495>
</span><span id=l496>&lt;!ELEMENT DL - - (DT|DD)+              -- definition list --&gt;
</span><span id=l497>&lt;!ATTLIST DL
</span><span id=l498>  %attrs;                              -- %coreattrs, %i18n, %events --
</span><span id=l499>  &gt;
</span><span id=l500>
</span><span id=l501>&lt;!ELEMENT DT - O (%inline;)*           -- definition term --&gt;
</span><span id=l502>&lt;!ELEMENT DD - O (%flow;)*             -- definition description --&gt;
</span><span id=l503>&lt;!ATTLIST (DT|DD)
</span><span id=l504>  %attrs;                              -- %coreattrs, %i18n, %events --
</span><span id=l505>  &gt;
</span><span id=l506>
</span><span id=l507>
</span><span id=l508>&lt;!ELEMENT OL - - (LI)+                 -- ordered list --&gt;
</span><span id=l509>&lt;!ATTLIST OL
</span><span id=l510>  %attrs;                              -- %coreattrs, %i18n, %events --
</span><span id=l511>  &gt;
</span><span id=l512>
</span><span id=l513>&lt;!-- Unordered Lists (UL) bullet styles --&gt;
</span><span id=l514>&lt;!ELEMENT UL - - (LI)+                 -- unordered list --&gt;
</span><span id=l515>&lt;!ATTLIST UL
</span><span id=l516>  %attrs;                              -- %coreattrs, %i18n, %events --
</span><span id=l517>  &gt;
</span><span id=l518>
</span><span id=l519>
</span><span id=l520>
</span><span id=l521>&lt;!ELEMENT LI - O (%flow;)*             -- list item --&gt;
</span><span id=l522>&lt;!ATTLIST LI
</span><span id=l523>  %attrs;                              -- %coreattrs, %i18n, %events --
</span><span id=l524>  &gt;
</span><span id=l525>
</span><span id=l526>&lt;!--================ Forms ===============================================--&gt;
</span><span id=l527>&lt;!ELEMENT FORM - - (%block;|SCRIPT)+ -(FORM) -- interactive form --&gt;
</span><span id=l528>&lt;!ATTLIST FORM
</span><span id=l529>  %attrs;                              -- %coreattrs, %i18n, %events --
</span><span id=l530>  action      %URI;          #REQUIRED -- server-side form handler --
</span><span id=l531>  method      (GET|POST)     GET       -- HTTP method used to submit the form--
</span><span id=l532>  enctype     %ContentType;  &quot;application/x-www-form-urlencoded&quot;
</span><span id=l533>  accept      %ContentTypes; #IMPLIED  -- list of MIME types for file upload --
</span><span id=l534>  name        CDATA          #IMPLIED  -- name of form for scripting --
</span><span id=l535>  onsubmit    %Script;       #IMPLIED  -- the form was submitted --
</span><span id=l536>  onreset     %Script;       #IMPLIED  -- the form was reset --
</span><span id=l537>  accept-charset %Charsets;  #IMPLIED  -- list of supported charsets --
</span><span id=l538>  &gt;
</span><span id=l539>
</span><span id=l540>&lt;!-- Each label must not contain more than ONE field --&gt;
</span><span id=l541>&lt;!ELEMENT LABEL - - (%inline;)* -(LABEL) -- form field label text --&gt;
</span><span id=l542>&lt;!ATTLIST LABEL
</span><span id=l543>  %attrs;                              -- %coreattrs, %i18n, %events --
</span><span id=l544>  for         IDREF          #IMPLIED  -- matches field ID value --
</span><span id=l545>  accesskey   %Character;    #IMPLIED  -- accessibility key character --
</span><span id=l546>  onfocus     %Script;       #IMPLIED  -- the element got the focus --
</span><span id=l547>  onblur      %Script;       #IMPLIED  -- the element lost the focus --
</span><span id=l548>  &gt;
</span><span id=l549>
</span><span id=l550>&lt;!ENTITY % InputType
</span><span id=l551>  &quot;(TEXT | PASSWORD | CHECKBOX |
</span><span id=l552>    RADIO | SUBMIT | RESET |
</span><span id=l553>    FILE | HIDDEN | IMAGE | BUTTON)&quot;
</span><span id=l554>   &gt;
</span><span id=l555>
</span><span id=l556>&lt;!-- attribute name required for all but submit and reset --&gt;
</span><span id=l557>&lt;!ELEMENT INPUT - O EMPTY              -- form control --&gt;
</span><span id=l558>&lt;!ATTLIST INPUT
</span><span id=l559>  %attrs;                              -- %coreattrs, %i18n, %events --
</span><span id=l560>  type        %InputType;    TEXT      -- what kind of widget is needed --
</span><span id=l561>  name        CDATA          #IMPLIED  -- submit as part of form --
</span><span id=l562>  value       CDATA          #IMPLIED  -- Specify for radio buttons and checkboxes --
</span><span id=l563>  checked     (checked)      #IMPLIED  -- for radio buttons and check boxes --
</span><span id=l564>  disabled    (disabled)     #IMPLIED  -- unavailable in this context --
</span><span id=l565>  readonly    (readonly)     #IMPLIED  -- for text and passwd --
</span><span id=l566>  size        CDATA          #IMPLIED  -- specific to each type of field --
</span><span id=l567>  maxlength   NUMBER         #IMPLIED  -- max chars for text fields --
</span><span id=l568>  src         %URI;          #IMPLIED  -- for fields with images --
</span><span id=l569>  alt         CDATA          #IMPLIED  -- short description --
</span><span id=l570>  usemap      %URI;          #IMPLIED  -- use client-side image map --
</span><span id=l571>  ismap       (ismap)        #IMPLIED  -- use server-side image map --
</span><span id=l572>  tabindex    NUMBER         #IMPLIED  -- position in tabbing order --
</span><span id=l573>  accesskey   %Character;    #IMPLIED  -- accessibility key character --
</span><span id=l574>  onfocus     %Script;       #IMPLIED  -- the element got the focus --
</span><span id=l575>  onblur      %Script;       #IMPLIED  -- the element lost the focus --
</span><span id=l576>  onselect    %Script;       #IMPLIED  -- some text was selected --
</span><span id=l577>  onchange    %Script;       #IMPLIED  -- the element value was changed --
</span><span id=l578>  accept      %ContentTypes; #IMPLIED  -- list of MIME types for file upload --
</span><span id=l579>  %reserved;                           -- reserved for possible future use --
</span><span id=l580>  &gt;
</span><span id=l581>
</span><span id=l582>&lt;!ELEMENT SELECT - - (OPTGROUP|OPTION)+ -- option selector --&gt;
</span><span id=l583>&lt;!ATTLIST SELECT
</span><span id=l584>  %attrs;                              -- %coreattrs, %i18n, %events --
</span><span id=l585>  name        CDATA          #IMPLIED  -- field name --
</span><span id=l586>  size        NUMBER         #IMPLIED  -- rows visible --
</span><span id=l587>  multiple    (multiple)     #IMPLIED  -- default is single selection --
</span><span id=l588>  disabled    (disabled)     #IMPLIED  -- unavailable in this context --
</span><span id=l589>  tabindex    NUMBER         #IMPLIED  -- position in tabbing order --
</span><span id=l590>  onfocus     %Script;       #IMPLIED  -- the element got the focus --
</span><span id=l591>  onblur      %Script;       #IMPLIED  -- the element lost the focus --
</span><span id=l592>  onchange    %Script;       #IMPLIED  -- the element value was changed --
</span><span id=l593>  %reserved;                           -- reserved for possible future use --
</span><span id=l594>  &gt;
</span><span id=l595>
</span><span id=l596>&lt;!ELEMENT OPTGROUP - - (OPTION)+ -- option group --&gt;
</span><span id=l597>&lt;!ATTLIST OPTGROUP
</span><span id=l598>  %attrs;                              -- %coreattrs, %i18n, %events --
</span><span id=l599>  disabled    (disabled)     #IMPLIED  -- unavailable in this context --
</span><span id=l600>  label       %Text;         #REQUIRED -- for use in hierarchical menus --
</span><span id=l601>  &gt;
</span><span id=l602>
</span><span id=l603>&lt;!ELEMENT OPTION - O (#PCDATA)         -- selectable choice --&gt;
</span><span id=l604>&lt;!ATTLIST OPTION
</span><span id=l605>  %attrs;                              -- %coreattrs, %i18n, %events --
</span><span id=l606>  selected    (selected)     #IMPLIED
</span><span id=l607>  disabled    (disabled)     #IMPLIED  -- unavailable in this context --
</span><span id=l608>  label       %Text;         #IMPLIED  -- for use in hierarchical menus --
</span><span id=l609>  value       CDATA          #IMPLIED  -- defaults to element content --
</span><span id=l610>  &gt;
</span><span id=l611>
</span><span id=l612>&lt;!ELEMENT TEXTAREA - - (#PCDATA)       -- multi-line text field --&gt;
</span><span id=l613>&lt;!ATTLIST TEXTAREA
</span><span id=l614>  %attrs;                              -- %coreattrs, %i18n, %events --
</span><span id=l615>  name        CDATA          #IMPLIED
</span><span id=l616>  rows        NUMBER         #REQUIRED
</span><span id=l617>  cols        NUMBER         #REQUIRED
</span><span id=l618>  disabled    (disabled)     #IMPLIED  -- unavailable in this context --
</span><span id=l619>  readonly    (readonly)     #IMPLIED
</span><span id=l620>  tabindex    NUMBER         #IMPLIED  -- position in tabbing order --
</span><span id=l621>  accesskey   %Character;    #IMPLIED  -- accessibility key character --
</span><span id=l622>  onfocus     %Script;       #IMPLIED  -- the element got the focus --
</span><span id=l623>  onblur      %Script;       #IMPLIED  -- the element lost the focus --
</span><span id=l624>  onselect    %Script;       #IMPLIED  -- some text was selected --
</span><span id=l625>  onchange    %Script;       #IMPLIED  -- the element value was changed --
</span><span id=l626>  %reserved;                           -- reserved for possible future use --
</span><span id=l627>  &gt;
</span><span id=l628>
</span><span id=l629>&lt;!--
</span><span id=l630>  #PCDATA is to solve the mixed content problem,
</span><span id=l631>  per specification only whitespace is allowed there!
</span><span id=l632> --&gt;
</span><span id=l633>&lt;!ELEMENT FIELDSET - - (#PCDATA,LEGEND,(%flow;)*) -- form control group --&gt;
</span><span id=l634>&lt;!ATTLIST FIELDSET
</span><span id=l635>  %attrs;                              -- %coreattrs, %i18n, %events --
</span><span id=l636>  &gt;
</span><span id=l637>
</span><span id=l638>&lt;!ELEMENT LEGEND - - (%inline;)*       -- fieldset legend --&gt;
</span><span id=l639>
</span><span id=l640>&lt;!ATTLIST LEGEND
</span><span id=l641>  %attrs;                              -- %coreattrs, %i18n, %events --
</span><span id=l642>  accesskey   %Character;    #IMPLIED  -- accessibility key character --
</span><span id=l643>  &gt;
</span><span id=l644>
</span><span id=l645>&lt;!ELEMENT BUTTON - -
</span><span id=l646>     (%flow;)* -(A|%formctrl;|FORM|FIELDSET)
</span><span id=l647>     -- push button --&gt;
</span><span id=l648>&lt;!ATTLIST BUTTON
</span><span id=l649>  %attrs;                              -- %coreattrs, %i18n, %events --
</span><span id=l650>  name        CDATA          #IMPLIED
</span><span id=l651>  value       CDATA          #IMPLIED  -- sent to server when submitted --
</span><span id=l652>  type        (button|submit|reset) submit -- for use as form button --
</span><span id=l653>  disabled    (disabled)     #IMPLIED  -- unavailable in this context --
</span><span id=l654>  tabindex    NUMBER         #IMPLIED  -- position in tabbing order --
</span><span id=l655>  accesskey   %Character;    #IMPLIED  -- accessibility key character --
</span><span id=l656>  onfocus     %Script;       #IMPLIED  -- the element got the focus --
</span><span id=l657>  onblur      %Script;       #IMPLIED  -- the element lost the focus --
</span><span id=l658>  %reserved;                           -- reserved for possible future use --
</span><span id=l659>  &gt;
</span><span id=l660>
</span><span id=l661>&lt;!--======================= Tables =======================================--&gt;
</span><span id=l662>
</span><span id=l663>&lt;!-- IETF HTML table standard, see [RFC1942] --&gt;
</span><span id=l664>
</span><span id=l665>&lt;!--
</span><span id=l666> The BORDER attribute sets the thickness of the frame around the
</span><span id=l667> table. The default units are screen pixels.
</span><span id=l668>
</span><span id=l669> The FRAME attribute specifies which parts of the frame around
</span><span id=l670> the table should be rendered. The values are not the same as
</span><span id=l671> CALS to avoid a name clash with the VALIGN attribute.
</span><span id=l672>
</span><span id=l673> The value &quot;border&quot; is included for backwards compatibility with
</span><span id=l674> &lt;TABLE BORDER&gt; which yields frame=border and border=implied
</span><span id=l675> For &lt;TABLE BORDER=1&gt; you get border=1 and frame=implied. In this
</span><span id=l676> case, it is appropriate to treat this as frame=border for backwards
</span><span id=l677> compatibility with deployed browsers.
</span><span id=l678>--&gt;
</span><span id=l679>&lt;!ENTITY % TFrame &quot;(void|above|below|hsides|lhs|rhs|vsides|box|border)&quot;&gt;
</span><span id=l680>
</span><span id=l681>&lt;!--
</span><span id=l682> The RULES attribute defines which rules to draw between cells:
</span><span id=l683>
</span><span id=l684> If RULES is absent then assume:
</span><span id=l685>     &quot;none&quot; if BORDER is absent or BORDER=0 otherwise &quot;all&quot;
</span><span id=l686>--&gt;
</span><span id=l687>
</span><span id=l688>&lt;!ENTITY % TRules &quot;(none | groups | rows | cols | all)&quot;&gt;
</span><span id=l689>
</span><span id=l690>&lt;!-- horizontal placement of table relative to document --&gt;
</span><span id=l691>&lt;!ENTITY % TAlign &quot;(left|center|right)&quot;&gt;
</span><span id=l692>
</span><span id=l693>&lt;!-- horizontal alignment attributes for cell contents --&gt;
</span><span id=l694>&lt;!ENTITY % cellhalign
</span><span id=l695>  &quot;align      (left|center|right|justify|char) #IMPLIED
</span><span id=l696>   char       %Character;    #IMPLIED  -- alignment char, e.g. char=&#39;:&#39; --
</span><span id=l697>   charoff    %Length;       #IMPLIED  -- offset for alignment char --&quot;
</span><span id=l698>  &gt;
</span><span id=l699>
</span><span id=l700>&lt;!-- vertical alignment attributes for cell contents --&gt;
</span><span id=l701>&lt;!ENTITY % cellvalign
</span><span id=l702>  &quot;valign     (top|middle|bottom|baseline) #IMPLIED&quot;
</span><span id=l703>  &gt;
</span><span id=l704>
</span><span id=l705>&lt;!ELEMENT TABLE - -
</span><span id=l706>     (CAPTION?, (COL*|COLGROUP*), THEAD?, TFOOT?, TBODY+)&gt;
</span><span id=l707>&lt;!ELEMENT CAPTION  - - (%inline;)*     -- table caption --&gt;
</span><span id=l708>&lt;!ELEMENT THEAD    - O (TR)+           -- table header --&gt;
</span><span id=l709>&lt;!ELEMENT TFOOT    - O (TR)+           -- table footer --&gt;
</span><span id=l710>&lt;!ELEMENT TBODY    O O (TR)+           -- table body --&gt;
</span><span id=l711>&lt;!ELEMENT COLGROUP - O (COL)*          -- table column group --&gt;
</span><span id=l712>&lt;!ELEMENT COL      - O EMPTY           -- table column --&gt;
</span><span id=l713>&lt;!ELEMENT TR       - O (TH|TD)+        -- table row --&gt;
</span><span id=l714>&lt;!ELEMENT (TH|TD)  - O (%flow;)*       -- table header cell, table data cell--&gt;
</span><span id=l715>
</span><span id=l716>&lt;!ATTLIST TABLE                        -- table element --
</span><span id=l717>  %attrs;                              -- %coreattrs, %i18n, %events --
</span><span id=l718>  summary     %Text;         #IMPLIED  -- purpose/structure for speech output--
</span><span id=l719>  width       %Length;       #IMPLIED  -- table width --
</span><span id=l720>  border      %Pixels;       #IMPLIED  -- controls frame width around table --
</span><span id=l721>  frame       %TFrame;       #IMPLIED  -- which parts of frame to render --
</span><span id=l722>  rules       %TRules;       #IMPLIED  -- rulings between rows and cols --
</span><span id=l723>  cellspacing %Length;       #IMPLIED  -- spacing between cells --
</span><span id=l724>  cellpadding %Length;       #IMPLIED  -- spacing within cells --
</span><span id=l725>  %reserved;                           -- reserved for possible future use --
</span><span id=l726>  datapagesize CDATA         #IMPLIED  -- reserved for possible future use --
</span><span id=l727>  &gt;
</span><span id=l728>
</span><span id=l729>
</span><span id=l730>&lt;!ATTLIST CAPTION
</span><span id=l731>  %attrs;                              -- %coreattrs, %i18n, %events --
</span><span id=l732>  &gt;
</span><span id=l733>
</span><span id=l734>&lt;!--
</span><span id=l735>COLGROUP groups a set of COL elements. It allows you to group
</span><span id=l736>several semantically related columns together.
</span><span id=l737>--&gt;
</span><span id=l738>&lt;!ATTLIST COLGROUP
</span><span id=l739>  %attrs;                              -- %coreattrs, %i18n, %events --
</span><span id=l740>  span        NUMBER         1         -- default number of columns in group --
</span><span id=l741>  width       %MultiLength;  #IMPLIED  -- default width for enclosed COLs --
</span><span id=l742>  %cellhalign;                         -- horizontal alignment in cells --
</span><span id=l743>  %cellvalign;                         -- vertical alignment in cells --
</span><span id=l744>  &gt;
</span><span id=l745>
</span><span id=l746>&lt;!--
</span><span id=l747> COL elements define the alignment properties for cells in
</span><span id=l748> one or more columns.
</span><span id=l749>
</span><span id=l750> The WIDTH attribute specifies the width of the columns, e.g.
</span><span id=l751>
</span><span id=l752>     width=64        width in screen pixels
</span><span id=l753>     width=0.5*      relative width of 0.5
</span><span id=l754>
</span><span id=l755> The SPAN attribute causes the attributes of one
</span><span id=l756> COL element to apply to more than one column.
</span><span id=l757>--&gt;
</span><span id=l758>&lt;!ATTLIST COL                          -- column groups and properties --
</span><span id=l759>  %attrs;                              -- %coreattrs, %i18n, %events --
</span><span id=l760>  span        NUMBER         1         -- COL attributes affect N columns --
</span><span id=l761>  width       %MultiLength;  #IMPLIED  -- column width specification --
</span><span id=l762>  %cellhalign;                         -- horizontal alignment in cells --
</span><span id=l763>  %cellvalign;                         -- vertical alignment in cells --
</span><span id=l764>  &gt;
</span><span id=l765>
</span><span id=l766>&lt;!--
</span><span id=l767>    Use THEAD to duplicate headers when breaking table
</span><span id=l768>    across page boundaries, or for static headers when
</span><span id=l769>    TBODY sections are rendered in scrolling panel.
</span><span id=l770>
</span><span id=l771>    Use TFOOT to duplicate footers when breaking table
</span><span id=l772>    across page boundaries, or for static footers when
</span><span id=l773>    TBODY sections are rendered in scrolling panel.
</span><span id=l774>
</span><span id=l775>    Use multiple TBODY sections when rules are needed
</span><span id=l776>    between groups of table rows.
</span><span id=l777>--&gt;
</span><span id=l778>&lt;!ATTLIST (THEAD|TBODY|TFOOT)          -- table section --
</span><span id=l779>  %attrs;                              -- %coreattrs, %i18n, %events --
</span><span id=l780>  %cellhalign;                         -- horizontal alignment in cells --
</span><span id=l781>  %cellvalign;                         -- vertical alignment in cells --
</span><span id=l782>  &gt;
</span><span id=l783>
</span><span id=l784>&lt;!ATTLIST TR                           -- table row --
</span><span id=l785>  %attrs;                              -- %coreattrs, %i18n, %events --
</span><span id=l786>  %cellhalign;                         -- horizontal alignment in cells --
</span><span id=l787>  %cellvalign;                         -- vertical alignment in cells --
</span><span id=l788>  &gt;
</span><span id=l789>
</span><span id=l790>
</span><span id=l791>
</span><span id=l792>&lt;!-- Scope is simpler than headers attribute for common tables --&gt;
</span><span id=l793>&lt;!ENTITY % Scope &quot;(row|col|rowgroup|colgroup)&quot;&gt;
</span><span id=l794>
</span><span id=l795>&lt;!-- TH is for headers, TD for data, but for cells acting as both use TD --&gt;
</span><span id=l796>&lt;!ATTLIST (TH|TD)                      -- header or data cell --
</span><span id=l797>  %attrs;                              -- %coreattrs, %i18n, %events --
</span><span id=l798>  abbr        %Text;         #IMPLIED  -- abbreviation for header cell --
</span><span id=l799>  axis        CDATA          #IMPLIED  -- comma-separated list of related headers--
</span><span id=l800>  headers     IDREFS         #IMPLIED  -- list of id&#39;s for header cells --
</span><span id=l801>  scope       %Scope;        #IMPLIED  -- scope covered by header cells --
</span><span id=l802>  rowspan     NUMBER         1         -- number of rows spanned by cell --
</span><span id=l803>  colspan     NUMBER         1         -- number of cols spanned by cell --
</span><span id=l804>  %cellhalign;                         -- horizontal alignment in cells --
</span><span id=l805>  %cellvalign;                         -- vertical alignment in cells --
</span><span id=l806>  &gt;
</span><span id=l807>
</span><span id=l808>
</span><span id=l809>&lt;!--================ Document Head =======================================--&gt;
</span><span id=l810>&lt;!-- %head.misc; defined earlier on as &quot;SCRIPT|STYLE|META|LINK|OBJECT&quot; --&gt;
</span><span id=l811>&lt;!ENTITY % head.content &quot;TITLE &amp; BASE?&quot;&gt;
</span><span id=l812>
</span><span id=l813>&lt;!ELEMENT HEAD O O (%head.content;) +(%head.misc;) -- document head --&gt;
</span><span id=l814>&lt;!ATTLIST HEAD
</span><span id=l815>  %i18n;                               -- lang, dir --
</span><span id=l816>  profile     %URI;          #IMPLIED  -- named dictionary of meta info --
</span><span id=l817>  &gt;
</span><span id=l818>
</span><span id=l819>&lt;!-- The TITLE element is not considered part of the flow of text.
</span><span id=l820>       It should be displayed, for example as the page header or
</span><span id=l821>       window title. Exactly one title is required per document.
</span><span id=l822>    --&gt;
</span><span id=l823>&lt;!ELEMENT TITLE - - (#PCDATA) -(%head.misc;) -- document title --&gt;
</span><span id=l824>&lt;!ATTLIST TITLE %i18n&gt;
</span><span id=l825>
</span><span id=l826>
</span><span id=l827>&lt;!ELEMENT BASE - O EMPTY               -- document base URI --&gt;
</span><span id=l828>&lt;!ATTLIST BASE
</span><span id=l829>  href        %URI;          #REQUIRED -- URI that acts as base URI --
</span><span id=l830>  &gt;
</span><span id=l831>
</span><span id=l832>&lt;!ELEMENT META - O EMPTY               -- generic metainformation --&gt;
</span><span id=l833>&lt;!ATTLIST META
</span><span id=l834>  %i18n;                               -- lang, dir, for use with content --
</span><span id=l835>  http-equiv  NAME           #IMPLIED  -- HTTP response header name  --
</span><span id=l836>  name        NAME           #IMPLIED  -- metainformation name --
</span><span id=l837>  content     CDATA          #REQUIRED -- associated information --
</span><span id=l838>  scheme      CDATA          #IMPLIED  -- select form of content --
</span><span id=l839>  &gt;
</span><span id=l840>
</span><span id=l841>&lt;!ELEMENT STYLE - - %StyleSheet        -- style info --&gt;
</span><span id=l842>&lt;!ATTLIST STYLE
</span><span id=l843>  %i18n;                               -- lang, dir, for use with title --
</span><span id=l844>  type        %ContentType;  #REQUIRED -- content type of style language --
</span><span id=l845>  media       %MediaDesc;    #IMPLIED  -- designed for use with these media --
</span><span id=l846>  title       %Text;         #IMPLIED  -- advisory title --
</span><span id=l847>  &gt;
</span><span id=l848>
</span><span id=l849>&lt;!ELEMENT SCRIPT - - %Script;          -- script statements --&gt;
</span><span id=l850>&lt;!ATTLIST SCRIPT
</span><span id=l851>  charset     %Charset;      #IMPLIED  -- char encoding of linked resource --
</span><span id=l852>  type        %ContentType;  #REQUIRED -- content type of script language --
</span><span id=l853>  src         %URI;          #IMPLIED  -- URI for an external script --
</span><span id=l854>  defer       (defer)        #IMPLIED  -- UA may defer execution of script --
</span><span id=l855>  event       CDATA          #IMPLIED  -- reserved for possible future use --
</span><span id=l856>  for         %URI;          #IMPLIED  -- reserved for possible future use --
</span><span id=l857>  &gt;
</span><span id=l858>
</span><span id=l859>&lt;!ELEMENT NOSCRIPT - - (%block;)+
</span><span id=l860>  -- alternate content container for non script-based rendering --&gt;
</span><span id=l861>&lt;!ATTLIST NOSCRIPT
</span><span id=l862>  %attrs;                              -- %coreattrs, %i18n, %events --
</span><span id=l863>  &gt;
</span><span id=l864>
</span><span id=l865>&lt;!--================ Document Structure ==================================--&gt;
</span><span id=l866>&lt;!ENTITY % html.content &quot;HEAD, BODY&quot;&gt;
</span><span id=l867>
</span><span id=l868>&lt;!ELEMENT HTML O O (%html.content;)    -- document root element --&gt;
</span><span id=l869>&lt;!ATTLIST HTML
</span><span id=l870>  %i18n;                               -- lang, dir --
</span><span id=l871>  &gt;
</span></pre></td></tr></table><table cellspacing=0 cellpadding=0 border=0 width=100%><tr height=1 bgcolor=#000000><td bgcolor=#000000 colspan=3></td></tr><tr height=10><td></td></tr><tr><td><font size=-1><code class=fn>dtd/html401-strict.dtd</code> from<br><span class="a"><a href="codesearch/url?hl=en&ct=rpc&url=http://svn.fckeditor.net/FCKdtd2js/trunk&usg=AFQjCNHOChAbcczS9zMRKwfD8vHQR7vw_A">http://svn.fckeditor.net/FCKdtd2js/trunk</a></span> - <span class="a"><a class="s" href="/codesearch?hl=en&q=show:dytoKfs0VKk:5sYMnnS9oxk:jT-gBYyZdVc&sa=N&ct=rl&cs_p=http://svn.fckeditor.net/FCKdtd2js/trunk&cs_f=dtd/html401-strict.dtd">Mozilla</a></span><br><br></font></tr></tr></table></body></html>