
<!--
     File isogrk2.ent produced by the XSL script entities.xsl
     from input data in unicode.xml.

     Copyright 1998 - 2008 W3C.

     Use and distribution of this code are permitted under the terms of the
     W3C Software Notice and License.
     http://www.w3.org/Consortium/Legal/copyright-software-19980720

     Please report any errors to David Carlisle
     via the public W3C list www-math@w3.org.

     The numeric character values assigned to each entity
     (should) match the Unicode assignments in Unicode 5.x.

     Entity names in this file are derived from files carrying the
     following notice:

     (C) International Organization for Standardization 1986
     Permission to copy in any form is granted for use with
     conforming SGML systems and applications as defined in
     ISO 8879, provided this notice is included in all copies.

-->


<!-- 

       Public identifier: -//W3C//ENTITIES Monotoniko Greek//EN//XML
       System identifier: http://www.w3.org/2003/entities/2007/isogrk2.ent

     The public identifier should always be used verbatim.
     The system identifier may be changed to suit local requirements.

     Typical invocation:

       <!ENTITY % isogrk2 PUBLIC
         "-//W3C//ENTITIES Monotoniko Greek//EN//XML"
         "http://www.w3.org/2003/entities/2007/isogrk2.ent"
       >
       %isogrk2;

-->

<!ENTITY aacgr            "&#x003AC;" ><!--GREEK SMALL LETTER ALPHA WITH TONOS -->
<!ENTITY Aacgr            "&#x00386;" ><!--GREEK CAPITAL LETTER ALPHA WITH TONOS -->
<!ENTITY eacgr            "&#x003AD;" ><!--GREEK SMALL LETTER EPSILON WITH TONOS -->
<!ENTITY Eacgr            "&#x00388;" ><!--GREEK CAPITAL LETTER EPSILON WITH TONOS -->
<!ENTITY eeacgr           "&#x003AE;" ><!--GREEK SMALL LETTER ETA WITH TONOS -->
<!ENTITY EEacgr           "&#x00389;" ><!--GREEK CAPITAL LETTER ETA WITH TONOS -->
<!ENTITY iacgr            "&#x003AF;" ><!--GREEK SMALL LETTER IOTA WITH TONOS -->
<!ENTITY Iacgr            "&#x0038A;" ><!--GREEK CAPITAL LETTER IOTA WITH TONOS -->
<!ENTITY idiagr           "&#x00390;" ><!--GREEK SMALL LETTER IOTA WITH DIALYTIKA AND TONOS -->
<!ENTITY idigr            "&#x003CA;" ><!--GREEK SMALL LETTER IOTA WITH DIALYTIKA -->
<!ENTITY Idigr            "&#x003AA;" ><!--GREEK CAPITAL LETTER IOTA WITH DIALYTIKA -->
<!ENTITY oacgr            "&#x003CC;" ><!--GREEK SMALL LETTER OMICRON WITH TONOS -->
<!ENTITY Oacgr            "&#x0038C;" ><!--GREEK CAPITAL LETTER OMICRON WITH TONOS -->
<!ENTITY ohacgr           "&#x003CE;" ><!--GREEK SMALL LETTER OMEGA WITH TONOS -->
<!ENTITY OHacgr           "&#x0038F;" ><!--GREEK CAPITAL LETTER OMEGA WITH TONOS -->
<!ENTITY uacgr            "&#x003CD;" ><!--GREEK SMALL LETTER UPSILON WITH TONOS -->
<!ENTITY Uacgr            "&#x0038E;" ><!--GREEK CAPITAL LETTER UPSILON WITH TONOS -->
<!ENTITY udiagr           "&#x003B0;" ><!--GREEK SMALL LETTER UPSILON WITH DIALYTIKA AND TONOS -->
<!ENTITY udigr            "&#x003CB;" ><!--GREEK SMALL LETTER UPSILON WITH DIALYTIKA -->
<!ENTITY Udigr            "&#x003AB;" ><!--GREEK CAPITAL LETTER UPSILON WITH DIALYTIKA -->
