
<!--
     File isonummap.xsl produced by the XSL script charmap.xsl
     from input data in unicode.xml.

     Copyright 2003 - 2007 W3C.

     Use and distribution of this code are permitted under the terms of the
     W3C Software Notice and License.
     http://www.w3.org/Consortium/Legal/copyright-software-19980720

     Please report any errors to David Carlisle
     via the public W3C list www-math@w3.org.

     The numeric character values assigned to each entity
     (should) match the Unicode assignments in Unicode 5.1.

     Entity names in this file are derived from files carrying the
     following notice:

     (C) International Organization for Standardization 1991
     Permission to copy in any form is granted for use with
     conforming SGML systems and applications as defined in
     ISO 8879, provided this notice is included in all copies.
-->
<xsl:stylesheet xmlns:xsl="http://www.w3.org/1999/XSL/Transform" version="2.0">
<xsl:character-map name="isonum">
  <!--U00026 amp-->
  <!--U00027 apos-->
  <!--U0002A ast-->
  <xsl:output-character character="&#166;" string="&amp;brvbar;"/>
  <!--U0005C bsol-->
  <xsl:output-character character="&#162;" string="&amp;cent;"/>
  <!--U0003A colon-->
  <!--U0002C comma-->
  <!--U00040 commat-->
  <xsl:output-character character="&#169;" string="&amp;copy;"/>
  <xsl:output-character character="&#164;" string="&amp;curren;"/>
  <xsl:output-character character="&#8595;" string="&amp;darr;"/>
  <xsl:output-character character="&#176;" string="&amp;deg;"/>
  <xsl:output-character character="&#247;" string="&amp;divide;"/>
  <!--U00024 dollar-->
  <!--U0003D equals-->
  <!--U00021 excl-->
  <xsl:output-character character="&#189;" string="&amp;frac12;"/>
  <xsl:output-character character="&#188;" string="&amp;frac14;"/>
  <xsl:output-character character="&#8539;" string="&amp;frac18;"/>
  <xsl:output-character character="&#190;" string="&amp;frac34;"/>
  <xsl:output-character character="&#8540;" string="&amp;frac38;"/>
  <xsl:output-character character="&#8541;" string="&amp;frac58;"/>
  <xsl:output-character character="&#8542;" string="&amp;frac78;"/>
  <!--U0003E gt-->
  <xsl:output-character character="&#189;" string="&amp;half;"/>
  <xsl:output-character character="&#8213;" string="&amp;horbar;"/>
  <xsl:output-character character="&#8208;" string="&amp;hyphen;"/>
  <xsl:output-character character="&#161;" string="&amp;iexcl;"/>
  <xsl:output-character character="&#191;" string="&amp;iquest;"/>
  <xsl:output-character character="&#171;" string="&amp;laquo;"/>
  <xsl:output-character character="&#8592;" string="&amp;larr;"/>
  <!--U0007B lcub-->
  <xsl:output-character character="&#8220;" string="&amp;ldquo;"/>
  <!--U0005F lowbar-->
  <!--U00028 lpar-->
  <!--U0005B lsqb-->
  <xsl:output-character character="&#8216;" string="&amp;lsquo;"/>
  <!--U0003C lt-->
  <xsl:output-character character="&#181;" string="&amp;micro;"/>
  <xsl:output-character character="&#183;" string="&amp;middot;"/>
  <xsl:output-character character="&#160;" string="&amp;nbsp;"/>
  <xsl:output-character character="&#172;" string="&amp;not;"/>
  <!--U00023 num-->
  <xsl:output-character character="&#8486;" string="&amp;ohm;"/>
  <xsl:output-character character="&#170;" string="&amp;ordf;"/>
  <xsl:output-character character="&#186;" string="&amp;ordm;"/>
  <xsl:output-character character="&#182;" string="&amp;para;"/>
  <!--U00025 percnt-->
  <!--U0002E period-->
  <!--U0002B plus-->
  <xsl:output-character character="&#177;" string="&amp;plusmn;"/>
  <xsl:output-character character="&#163;" string="&amp;pound;"/>
  <!--U0003F quest-->
  <!--U00022 quot-->
  <xsl:output-character character="&#187;" string="&amp;raquo;"/>
  <xsl:output-character character="&#8594;" string="&amp;rarr;"/>
  <!--U0007D rcub-->
  <xsl:output-character character="&#8221;" string="&amp;rdquo;"/>
  <xsl:output-character character="&#174;" string="&amp;reg;"/>
  <!--U00029 rpar-->
  <!--U0005D rsqb-->
  <xsl:output-character character="&#8217;" string="&amp;rsquo;"/>
  <xsl:output-character character="&#167;" string="&amp;sect;"/>
  <!--U0003B semi-->
  <xsl:output-character character="&#173;" string="&amp;shy;"/>
  <!--U0002F sol-->
  <xsl:output-character character="&#9834;" string="&amp;sung;"/>
  <xsl:output-character character="&#185;" string="&amp;sup1;"/>
  <xsl:output-character character="&#178;" string="&amp;sup2;"/>
  <xsl:output-character character="&#179;" string="&amp;sup3;"/>
  <xsl:output-character character="&#215;" string="&amp;times;"/>
  <xsl:output-character character="&#8482;" string="&amp;trade;"/>
  <xsl:output-character character="&#8593;" string="&amp;uarr;"/>
  <!--U0007C verbar-->
  <xsl:output-character character="&#165;" string="&amp;yen;"/>
</xsl:character-map>

</xsl:stylesheet>
