<html><head><meta http-equiv="content-type" content="text/html; charset=UTF-8"><title>mqat200504201739/src/org/servingMathematics/mqat/resources/xml/xsd/mathqti/mathqti_v0p0.xsd - Google Code Search</title><style><!--
body {background-color:white;color:black;font-family:Arial, sans-serif;margin:8px;margin-top:3px}
.j{white-space:-moz-pre-wrap;	white-space:-pre-wrap;	white-space:-o-pre-wrap;	word-wrap:break-word;	margin-top:4px;margin-bottom:4px;border:1px solid silver;background-color:#f5f5f5;padding:0.5em;width:85%;color:#222;}
#title {border-top:1px solid #36c;background-color:#e5ecf9;margin:0;padding:0;padding-top:1px;padding-bottom:1px;padding-left:3px;margin-top:5px}
.expl {font-size:small;margin-left:2em;margin-right:2em}
.f {font-size:small;margin-bottom:1.5em}
.hl{font-weight:bold;color:#000}
.h{margin-top:1em;margin-bottom:0px}
.k {background-color:#36c}
.a,.a a{font-size:small;color:green}
a:active{color:#f00}a:link{color:#00c}a:visited{color:#551a8b}a.s,.s a{font-size:small;color:#77c}.a,.a a{font-size:small;color:green}.i, .i:link {color:#a90a08;font-size:small}
.n .i {font-size:10pt;font-weight:bold}
.n a {font-size:10pt;color:#000}
.b a {font-size:12pt;color:#00c;font-weight:bold}
code {color: #007000; font-family:"bogus font here",monospace; font-size: 100%;}
code.fn {color: #007000; font-family:"bogus font here",monospace; font-size: 100%;}
div.n {margin-top:1ex}
img{border:0}
.chl {background:#ffa}
.cchl {background:#aff}
.cclhl {background:#e8f4f7;display:block}
.cc {color:#060}
.input_table tr td {vertical-align:top;}--></style>
<script type="text/javascript">
<!--
function sf(){}
// --></script></head><body bgcolor=#ffffff onload="sf()"><table cellspacing=0 cellpadding=0 border=0 width=100%><tr><td align=left valign=top><a href="/codesearch"><img src="http://www.google.com/intl/en/images/codesearch_logo_sm.gif" width=150 height=55 alt="" border=0 vspace=12></a></td><td width=10></td><td align=left><font size=-1>This is Google's cached copy of <code class=fn>mqat200504201739/src/org/servingMathematics/mqat/resources/xml/xsd/mathqti/mathqti_v0p0.xsd</code> from<br><span class="a"><a href="codesearch/url?hl=en&ct=rpc&url=http://www.mirrorservice.org/sites/download.sourceforge.net/pub/sourceforge/m/mq/mqat/mqat200504201739.tar.gz&usg=AFQjCNF1ohyFG5NaxBmUzVQ6TXzCPFJNYA">http://www.mirrorservice.org/sites/download.sourceforge.net/pub/sourceforge/m/mq/mqat/mqat200504201739.tar.gz</a></span> <br><br><i>Google is neither affiliated with the authors of this page nor responsible for its content.</i></font></td></tr><tr height=10><td colspan=3></td></tr><tr height=1 bgcolor=#000000><td bgcolor=#000000 colspan=3></td></tr></table><br><table cellspacing=0 cellpadding=0 border=0 width=100%><tr><td align=left valign=top colspan=4><pre><a href="/codesearch?hl=en&amp;q=show:InFKgDqmE28:bLYH7cLrANI&amp;sa=N&amp;ct=rdp&amp;cs_p=http://www.mirrorservice.org">http://www.mirrorservice.org</a>/<a href="/codesearch?hl=en&amp;q=show:11cHSQUWPsU:1otMIuRipTw&amp;sa=N&amp;ct=rdp&amp;cs_p=http://www.mirrorservice.org&amp;cs_f=sites">sites</a>/<a href="/codesearch?hl=en&amp;q=show:qJ9ycdCcuig:tpqnwluk6UA&amp;sa=N&amp;ct=rdp&amp;cs_p=http://www.mirrorservice.org&amp;cs_f=sites/download.sourceforge.net">download.sourceforge.net</a>/<a href="/codesearch?hl=en&amp;q=show:Ok8sBRIn7BM:-ea_G6_-djo&amp;sa=N&amp;ct=rdp&amp;cs_p=http://www.mirrorservice.org&amp;cs_f=sites/download.sourceforge.net/pub">pub</a>/<a href="/codesearch?hl=en&amp;q=show:r6rA9t-dDXg:FgX1W0Zgf2s&amp;sa=N&amp;ct=rdp&amp;cs_p=http://www.mirrorservice.org&amp;cs_f=sites/download.sourceforge.net/pub/sourceforge">sourceforge</a>/<a href="/codesearch?hl=en&amp;q=show:tyCsahJSs44:LCiPDoIPbPw&amp;sa=N&amp;ct=rdp&amp;cs_p=http://www.mirrorservice.org&amp;cs_f=sites/download.sourceforge.net/pub/sourceforge/m">m</a>/<a href="/codesearch?hl=en&amp;q=show:rtyUFjYmfnY:Wm8rwcuSg8M&amp;sa=N&amp;ct=rdp&amp;cs_p=http://www.mirrorservice.org&amp;cs_f=sites/download.sourceforge.net/pub/sourceforge/m/mq">mq</a>/<a href="/codesearch?hl=en&amp;q=show:MJg-g0ZTdh8:l3oKzH0lnOI&amp;sa=N&amp;ct=rdp&amp;cs_p=http://www.mirrorservice.org&amp;cs_f=sites/download.sourceforge.net/pub/sourceforge/m/mq/mqat">mqat</a>/<a href="/codesearch?hl=en&amp;q=show:uoAin74Wl2A:XD6Nj1acNWs&amp;sa=N&amp;ct=rdp&amp;cs_p=http://www.mirrorservice.org/sites/download.sourceforge.net/pub/sourceforge/m/mq/mqat/mqat200504201739.tar.gz">mqat200504201739.tar.gz</a>/<a href="/codesearch?hl=en&amp;q=show:_H8xPAV8KGg:GQ-RYM_xJ9w&amp;sa=N&amp;ct=rdp&amp;cs_p=http://www.mirrorservice.org/sites/download.sourceforge.net/pub/sourceforge/m/mq/mqat/mqat200504201739.tar.gz&amp;cs_f=mqat200504201739">mqat200504201739</a>/<a href="/codesearch?hl=en&amp;q=show:cJT19B7IJU4:Txp-lMiAlhI&amp;sa=N&amp;ct=rdp&amp;cs_p=http://www.mirrorservice.org/sites/download.sourceforge.net/pub/sourceforge/m/mq/mqat/mqat200504201739.tar.gz&amp;cs_f=mqat200504201739/src">src</a>/<a href="/codesearch?hl=en&amp;q=show:tJrf_4V1CGI:gPmA70IYKq4&amp;sa=N&amp;ct=rdp&amp;cs_p=http://www.mirrorservice.org/sites/download.sourceforge.net/pub/sourceforge/m/mq/mqat/mqat200504201739.tar.gz&amp;cs_f=mqat200504201739/src/org">org</a>/<a href="/codesearch?hl=en&amp;q=show:rrD8V_DP-7g:dn-avLDs1YE&amp;sa=N&amp;ct=rdp&amp;cs_p=http://www.mirrorservice.org/sites/download.sourceforge.net/pub/sourceforge/m/mq/mqat/mqat200504201739.tar.gz&amp;cs_f=mqat200504201739/src/org/servingMathematics">servingMathematics</a>/<a href="/codesearch?hl=en&amp;q=show:kyR7Cd6Tyvw:6eXNwN0poeQ&amp;sa=N&amp;ct=rdp&amp;cs_p=http://www.mirrorservice.org/sites/download.sourceforge.net/pub/sourceforge/m/mq/mqat/mqat200504201739.tar.gz&amp;cs_f=mqat200504201739/src/org/servingMathematics/mqat">mqat</a>/<a href="/codesearch?hl=en&amp;q=show:iO_ro0ubWYY:67uEf_LjAfY&amp;sa=N&amp;ct=rdp&amp;cs_p=http://www.mirrorservice.org/sites/download.sourceforge.net/pub/sourceforge/m/mq/mqat/mqat200504201739.tar.gz&amp;cs_f=mqat200504201739/src/org/servingMathematics/mqat/resources">resources</a>/<a href="/codesearch?hl=en&amp;q=show:JWxLBvSUkRk:ArM1XPEfHwk&amp;sa=N&amp;ct=rdp&amp;cs_p=http://www.mirrorservice.org/sites/download.sourceforge.net/pub/sourceforge/m/mq/mqat/mqat200504201739.tar.gz&amp;cs_f=mqat200504201739/src/org/servingMathematics/mqat/resources/xml">xml</a>/<a href="/codesearch?hl=en&amp;q=show:c9sW_qS6T0I:tmqUnzaj-As&amp;sa=N&amp;ct=rdp&amp;cs_p=http://www.mirrorservice.org/sites/download.sourceforge.net/pub/sourceforge/m/mq/mqat/mqat200504201739.tar.gz&amp;cs_f=mqat200504201739/src/org/servingMathematics/mqat/resources/xml/xsd">xsd</a>/<a href="/codesearch?hl=en&amp;q=show:kkL6SXNhdrM:Uql3EGm6COE&amp;sa=N&amp;ct=rdp&amp;cs_p=http://www.mirrorservice.org/sites/download.sourceforge.net/pub/sourceforge/m/mq/mqat/mqat200504201739.tar.gz&amp;cs_f=mqat200504201739/src/org/servingMathematics/mqat/resources/xml/xsd/mathqti">mathqti</a>/</pre></td></tr><tr><td>&nbsp;&nbsp;&nbsp;&nbsp;</td><td align=left valign=top><pre><a href="/codesearch?hl=en&amp;q=show:6xX4uEHdoOQ:kkL6SXNhdrM:HyxtErUeqAQ&amp;sa=N&amp;ct=rd&amp;cs_p=http://www.mirrorservice.org/sites/download.sourceforge.net/pub/sourceforge/m/mq/mqat/mqat200504201739.tar.gz&amp;cs_f=mqat200504201739/src/org/servingMathematics/mqat/resources/xml/xsd/mathqti/mathqti_v0p0.dtd&amp;start=1">mathqti_v0p0.dtd</a>
<b>mathqti_v0p0.xsd</b>
<a href="/codesearch?hl=en&amp;q=show:c8_6ZIoC2_c:kkL6SXNhdrM:5MutcujqCXk&amp;sa=N&amp;ct=rd&amp;cs_p=http://www.mirrorservice.org/sites/download.sourceforge.net/pub/sourceforge/m/mq/mqat/mqat200504201739.tar.gz&amp;cs_f=mqat200504201739/src/org/servingMathematics/mqat/resources/xml/xsd/mathqti/mathqti_v0p3.dtd&amp;start=1">mathqti_v0p3.dtd</a>
<a href="/codesearch?hl=en&amp;q=show:6KcFgd2ZW6s:kkL6SXNhdrM:1Dm2kjxI08c&amp;sa=N&amp;ct=rd&amp;cs_p=http://www.mirrorservice.org/sites/download.sourceforge.net/pub/sourceforge/m/mq/mqat/mqat200504201739.tar.gz&amp;cs_f=mqat200504201739/src/org/servingMathematics/mqat/resources/xml/xsd/mathqti/mathqti_v0p3.xsd&amp;start=1">mathqti_v0p3.xsd</a>
</pre></td><td>&nbsp;&nbsp;&nbsp;&nbsp;</td><td align=left valign=top width=100%><pre><span id=l1>&lt;?xml version=&quot;1.0&quot; encoding=&quot;UTF-8&quot;?&gt;
</span><span id=l2>
</span><span id=l3>&lt;xs:schema xmlns:xs=&quot;http://www.w3.org/2001/XMLSchema&quot;
</span><span id=l4>xmlns:xsi=&quot;http://www.w3.org/2001/XMLSchema-instance&quot;
</span><span id=l5>xsi:schemaLocation=&quot;http://www.w3.org/2001/XMLSchema http://www.w3.org/2001/XMLSchema.xsd&quot;
</span><span id=l6>  xmlns:om=&quot;http://www.openmath.org/OpenMath&quot;
</span><span id=l7>  targetNamespace=&quot;http://www.imsglobal.org/xsd/imsqti_v2p0&quot;
</span><span id=l8>  xmlns=&quot;http://www.imsglobal.org/xsd/imsqti_v2p0&quot;
</span><span id=l9>  xmlns:imsqti=&quot;http://www.imsglobal.org/xsd/imsqti_v2p0&quot;
</span><span id=l10>  &gt;
</span><span id=l11>
</span><span id=l12>
</span><span id=l13>
</span><span id=l14>  &lt;xs:annotation&gt;
</span><span id=l15>    &lt;xs:documentation&gt;
</span><span id=l16>      This is an XML Schema for Math QTI documents.
</span><span id=l17>    &lt;/xs:documentation&gt;
</span><span id=l18>  &lt;/xs:annotation&gt;
</span><span id=l19>
</span><span id=l20>  &lt;!-- ================  OpenMath ================= --&gt;
</span><span id=l21>
</span><span id=l22>  &lt;xs:import namespace=&quot;http://www.openmath.org/OpenMath&quot; schemaLocation=&quot;../openmath/openmath2.xsd&quot;/&gt;
</span><span id=l23>
</span><span id=l24> &lt;!-- ================  QTI  ================= --&gt;
</span><span id=l25>
</span><span id=l26>  &lt;!-- overwrite IMS QTI&#39;s parameter elements --&gt;
</span><span id=l27>
</span><span id=l28>  &lt;!-- include OMOBJ in the possible expressions
</span><span id=l29>     perhaps it makes more sense to include it in only in the
</span><span id=l30>     equal, match or wherever it is actually needed --&gt;
</span><span id=l31>
</span><span id=l32>
</span><span id=l33>
</span><span id=l34>
</span><span id=l35>
</span><span id=l36>
</span><span id=l37>  &lt;!-- include an element called syn_eq for syntactical equivalence --&gt;
</span><span id=l38>  &lt;xs:redefine schemaLocation=&quot;../imsqti/imsqti_v2p0.xsd&quot;&gt;
</span><span id=l39>    &lt;xs:group name=&quot;expression.ElementGroup&quot;&gt;
</span><span id=l40>      &lt;xs:choice&gt;
</span><span id=l41>        &lt;xs:element ref=&quot;synt_equal&quot;/&gt;
</span><span id=l42>	&lt;xs:element ref=&quot;sem_equal&quot;/&gt;
</span><span id=l43>        &lt;xs:element ref=&quot;om:OMOBJ&quot;/&gt;
</span><span id=l44>        &lt;xs:group ref=&quot;expression.ElementGroup&quot;/&gt;
</span><span id=l45>      &lt;/xs:choice&gt;
</span><span id=l46>    &lt;/xs:group&gt;
</span><span id=l47>
</span><span id=l48>    &lt;!-- an element for semantical equivalent will also be added once details are agreed upon --&gt;
</span><span id=l49>
</span><span id=l50>    &lt;!-- extended numerical equality --&gt;
</span><span id=l51>    &lt;xs:attributeGroup name=&quot;equal.AttrGroup&quot;&gt;
</span><span id=l52>        &lt;xs:attribute name=&quot;minsig&quot; type=&quot;xs:string&quot;/&gt;
</span><span id=l53>        &lt;xs:attribute name=&quot;maxsig&quot; type=&quot;xs:string&quot;/&gt;
</span><span id=l54>        &lt;xs:attribute name=&quot;mindec&quot; type=&quot;xs:string&quot;/&gt;
</span><span id=l55>        &lt;xs:attribute name=&quot;maxdec&quot; type=&quot;xs:string&quot;/&gt;
</span><span id=l56>        &lt;xs:attributeGroup ref=&quot;equal.AttrGroup&quot;/&gt;
</span><span id=l57>    &lt;/xs:attributeGroup&gt;
</span><span id=l58>
</span><span id=l59>    &lt;xs:attributeGroup name=&quot;setTemplateValue.AttrGroup&quot;&gt;
</span><span id=l60>        &lt;xs:attribute name=&quot;evaluate&quot; type=&quot;xs:string&quot; use=&quot;optional&quot; default=&quot;numeric&quot;/&gt;
</span><span id=l61>	&lt;xs:attributeGroup ref=&quot;setTemplateValue.AttrGroup&quot;/&gt;
</span><span id=l62>    &lt;/xs:attributeGroup&gt;
</span><span id=l63>
</span><span id=l64>     &lt;!-- extended numerical equality --&gt;
</span><span id=l65>    &lt;xs:attributeGroup name=&quot;randomInteger.AttrGroup&quot;&gt;
</span><span id=l66>        &lt;xs:attribute name=&quot;exclude&quot; type=&quot;xs:string&quot;/&gt;
</span><span id=l67>	&lt;xs:attributeGroup ref=&quot;randomInteger.AttrGroup&quot;/&gt;
</span><span id=l68>    &lt;/xs:attributeGroup&gt;
</span><span id=l69>
</span><span id=l70>
</span><span id=l71>
</span><span id=l72>    &lt;!-- add &quot;for&quot; attribute at the interaction attributes group
</span><span id=l73>     to specify for which id the interaction is --&gt;
</span><span id=l74>    &lt;xs:attributeGroup name=&quot;interaction.AttrGroup&quot;&gt;
</span><span id=l75>        &lt;xs:attribute name=&quot;for&quot; type=&quot;xs:NMTOKEN&quot;/&gt;
</span><span id=l76>        &lt;xs:attributeGroup ref=&quot;interaction.AttrGroup&quot;/&gt;
</span><span id=l77>    &lt;/xs:attributeGroup&gt;
</span><span id=l78>
</span><span id=l79>
</span><span id=l80>  &lt;/xs:redefine&gt;
</span><span id=l81>
</span><span id=l82>
</span><span id=l83>&lt;!-- Class: synt_equal --&gt;
</span><span id=l84>
</span><span id=l85>&lt;xs:group name=&quot;synt_equal.ContentGroup&quot;&gt;
</span><span id=l86>	&lt;xs:sequence&gt;
</span><span id=l87>		&lt;xs:group ref=&quot;expression.ElementGroup&quot; minOccurs=&quot;2&quot; maxOccurs=&quot;2&quot;/&gt;
</span><span id=l88>	&lt;/xs:sequence&gt;
</span><span id=l89>&lt;/xs:group&gt;
</span><span id=l90>
</span><span id=l91>
</span><span id=l92>&lt;xs:complexType name=&quot;synt_equal.Type&quot; mixed=&quot;false&quot;&gt;
</span><span id=l93>	&lt;xs:group ref=&quot;synt_equal.ContentGroup&quot;/&gt;
</span><span id=l94>&lt;/xs:complexType&gt;
</span><span id=l95>
</span><span id=l96>&lt;xs:element name=&quot;synt_equal&quot; type=&quot;synt_equal.Type&quot;/&gt;
</span><span id=l97>
</span><span id=l98>
</span><span id=l99>
</span><span id=l100>&lt;!-- Class: sem_equal --&gt;
</span><span id=l101>
</span><span id=l102>&lt;xs:group name=&quot;sem_equal.ContentGroup&quot;&gt;
</span><span id=l103>	&lt;xs:sequence&gt;
</span><span id=l104>		&lt;xs:group ref=&quot;expression.ElementGroup&quot; minOccurs=&quot;2&quot; maxOccurs=&quot;2&quot;/&gt;
</span><span id=l105>	&lt;/xs:sequence&gt;
</span><span id=l106>&lt;/xs:group&gt;
</span><span id=l107>
</span><span id=l108>
</span><span id=l109>&lt;xs:complexType name=&quot;sem_equal.Type&quot; mixed=&quot;false&quot;&gt;
</span><span id=l110>	&lt;xs:group ref=&quot;sem_equal.ContentGroup&quot;/&gt;
</span><span id=l111>&lt;/xs:complexType&gt;
</span><span id=l112>
</span><span id=l113>&lt;xs:element name=&quot;sem_equal&quot; type=&quot;sem_equal.Type&quot;/&gt;
</span><span id=l114>
</span><span id=l115>
</span><span id=l116>&lt;/xs:schema&gt;
</span></pre></td></tr></table><table cellspacing=0 cellpadding=0 border=0 width=100%><tr height=1 bgcolor=#000000><td bgcolor=#000000 colspan=3></td></tr><tr height=10><td></td></tr><tr><td><font size=-1><code class=fn>mqat200504201739/src/org/servingMathematics/mqat/resources/xml/xsd/mathqti/mathqti_v0p0.xsd</code> from<br><span class="a"><a href="codesearch/url?hl=en&ct=rpc&url=http://www.mirrorservice.org/sites/download.sourceforge.net/pub/sourceforge/m/mq/mqat/mqat200504201739.tar.gz&usg=AFQjCNF1ohyFG5NaxBmUzVQ6TXzCPFJNYA">http://www.mirrorservice.org/sites/download.sourceforge.net/pub/sourceforge/m/mq/mqat/mqat200504201739.tar.gz</a></span> - <span class="a"><a class="s" href="/codesearch?hl=en&q=show:lEs2qjT5g0Q:Y3gSOgjxlhY:qgmpPXTPmkg&sa=N&ct=rl&cs_p=http://www.mirrorservice.org/sites/download.sourceforge.net/pub/sourceforge/m/mq/mqat/mqat200504131029.tar.gz&cs_f=mqat200504131029/src/org/servingMathematics/mqat/resources/xml/xsd/mathqti/mathqti_v0p0.xsd">GPL</a></span><br><br></font></tr></tr></table></body></html>