<?xml version="1.0" encoding="iso-8859-1"?>

<!-- file: xhtml-meta-1.rng

     This is XHTML, a reformulation of HTML as a modular XML application.
     Copyright 1998-2008 W3C (MIT, ERCIM, Keio), All Rights Reserved.
     Revision: $Id: Overview.html,v 1.3 2008/06/04 16:00:46 smccarro Exp $

     This RelaxNG module is identified by URI:
        
        http://www.w3.org/MarkUp/RELAXNG/xhtml-meta-1.rng
     .................................................................... -->
<!-- Meta Module -->
<grammar xmlns="http://relaxng.org/ns/structure/1.0">

<define name="xhtml.meta">
  <element name="meta">
    <ref name="xhtml.meta.attlist"/>
  </element>
</define>

<define name="xhtml.meta.attlist">
  <ref name="xhtml.I18n.attrib"/>
  <optional>
    <attribute name="http-equiv">
      <ref name="xhtml.NMTOKEN.datatype"/>
    </attribute>
  </optional>
  <optional>
    <attribute name="name">
      <ref name="xhtml.NMTOKEN.datatype"/>
    </attribute>
  </optional>
  <optional>
    <attribute name="content"/>
  </optional>
  <optional>
    <attribute name="scheme"/>
  </optional>
</define>

<define name="xhtml.head.content" combine="interleave">
  <zeroOrMore>
    <ref name="xhtml.meta"/>
  </zeroOrMore>
</define>

</grammar>
