<html>
	<head>
		<title>Eric Vasilik: Code Karma</title>
		<style type="text/css">
			body{margin:0px;padding:0px;background:#f6f6f6;color:#000000;font-family:"Trebuchet MS",Trebuchet,Verdana,Sans-Serif;}
			a{color:#DE7008;}
			a:hover{color:#E0AD12;}
			#logo{padding:0px;margin:0px;}
                        @media all {
                          div#mainClm{float:right;width:66%;padding:30px 7% 10px 3%;border-left:dotted 1px #E0AD12;}
			  div#sideBar{margin:20px 0px 0px 1em;padding:0px;text-align:left;}
                        }
                        @media handheld {
                          div#mainClm{float:none;width:90%;}
			  div#sideBar{padding:30px 7% 10px 3%;}
                        }
                        #header{padding:0px 0px 0px 0px;margin:0px 0px 0px 0px;border-top:1px solid #eeeeee;border-bottom:dotted 1px #E0AD12;background:#F5E39E;color:white;}
			h1,h2,h3,h4,h5,h6{padding:0px;margin:0px;}
			h1 a:link {text-decoration:none;color:#F5DEB3}
			h1 a:visited {text-decoration:none;color:#F5DEB3}
			h1{padding:25px 0px 10px 5%;border-top:double 3px #BF5C00;border-bottom:solid 1px #E89E47;color:#F5DEB3;background:#DE7008;font:bold 300% Verdana,Sans-Serif;letter-spacing:-2px;}
			h2{color:#9E5205;font-weight:bold;font-family:Verdana,Sans-Serif;letter-spacing:-1px;}
			h3{margin:10px 0px 0px 0px;color:#777777;font-size:105%;}
			h4{color:#aa0033;}
			h6{color:#B8A80D;font-size:140%;}
			h2.sidebar-title{color:#B8A80D;margin:0px;padding:0px;font-size:120%;}
			#sideBar ul{margin:0px 0px 33px 0px;padding:0px 0px 0px 0px;list-style-type:none;font-size:95%;}
			#sideBar li{margin:0px 0px 0px 0px;padding:0px 0px 0px 0px;list-style-type:none;font-size:95%;}
			#description{padding:0px;margin:7px 12% 7px 5%;color:#9E5205;background:transparent;font:bold 85% Verdana,Sans-Serif;}
			.blogPost{margin:0px 0px 30px 0px;font-size:100%;}
			.blogPost strong{color:#000000;font-weight:bold;}
			#sideBar ul a{padding:2px;margin:1px;width:100%;border:none;color:#999999;text-decoration:none;}
			#sideBar ul a:link{color:#999999;}
			#sideBar ul a:visited{color:#999999;}
			#sideBar ul a:active{color:#ff0000;}
			#sideBar ul a:hover{color:#DE7008;text-decoration:none;}
			strike{color:#999999;}
			.bug{padding:5px;border:0px;}
			.byline{padding:0px;margin:0px;color:#444444;font-size:80%;}
			.byline a{border:none;color:#968A0A;text-decoration:none;}
			.byline a:hover{text-decoration:underline;}
			.blogComments{padding:0px;color:#9E5205;font-family:Verdana,Sans-Serif;}
			.blogComment{margin-top:10px;font-size:100%;font-weight:normal;color:black;}
			.blogComments .byline{padding-bottom:20px;color:#444444;font-size:80%;font-weight:normal;display:inline;margin-right:10px}
                        .deleted-comment {font-style:italic;color:gray;}
               		.comment-link {margin-left:.6em;}
			#profile-container { }
			.profile-datablock { }
			.profile-img {display:inline;}
			.profile-img img {float:left;margin-right:5px;}
			.profile-data strong { }
			#profile-container p { }
			#profile-container .profile-textblock { }
            .profile-link a:link {color:#999999;text-decoration:none;}
            .profile-link a:active {color:#ff0000;text-decoration:none;}
            .profile-link a:visited {color:#999999;text-decoration:none;}
			.profile-link a:hover{color:#DE7008;text-decoration:none;}

pre {
 margin:.75em 0;
 border-width:1px 1px;
 padding:5px 15px;
 display: block;
 background-color: #dedede;
}
</style>
		
		<meta http-equiv="Content-Type" content="text/html; charset=UTF-8" />
<meta name="MSSmartTagsPreventParsing" content="true" />
<meta name="generator" content="Blogger" />
<link rel="icon" type="image/vnd.microsoft.icon" href="http://www.blogger.com/favicon.ico"/>
<link rel="alternate" type="application/atom+xml" title="Eric Vasilik - Atom" href="http://www.ericvasilik.com/atom.xml" />
<link rel="alternate" type="application/rss+xml" title="Eric Vasilik - RSS" href="http://www.ericvasilik.com/rss.xml" />
<link rel="service.post" type="application/atom+xml" title="Eric Vasilik - Atom" href="http://www.blogger.com/feeds/30549315/posts/default" />
<link rel="EditURI" type="application/rsd+xml" title="RSD" href="http://www.blogger.com/rsd.g?blogID=30549315" />
<link rel="alternate" type="application/atom+xml" title="Eric Vasilik - Atom" href="http://www.blogger.com/feeds/30549315/115190001892212272/comments/default" />
 <link rel="stylesheet" type="text/css" href="http://www.blogger.com/css/blog_controls.css"/> <link rel="stylesheet" type="text/css" href="http://www.blogger.com/dyn-css/authorization.css?targetBlogID=30549315&zx=f092a58b-9c8c-466f-8cc5-f40699d1c6ce"/>

	</head>

<body>


<div id="header">
	<h1>
    <a href="http://www.ericvasilik.com/default.htm">
	Eric Vasilik
	</a>
  </h1>
	<p id="description">Eric Vasilik's Blog</p>
</div>


<!-- Main Column -->
<div id="mainClm">

	<!-- Blog Posts -->
	
		 
			  <h3>Sunday, July 02, 2006</h3>
		 
		 <a name="115190001892212272">&nbsp;</a>
		 <h2>
Code Karma</h2>
			<div class="blogPost">
			  <div style="clear:both;"></div><p>I've recently been writing client side Java Script for an HTML user interface I've been building at work, and I ran into an issue with Internet Explorer which I was at least partially responsible for 10 years ago! Let me explain what it is, why it is and an effective way to work around it.<br /><br />I was attempting to dynamically replace a number of rows in a table with a different set of rows.  I was using the innerHTML property of an element which takes a string, parses it as HTML and replaces the contents of that element with the new HTML.  In this case, I try to replace the contents of a TBODY with a new set of rows:<br /><br /><pre>  &lt;table&gt;<br />    &lt;tbody id="rows"&gt;<br />      &lt;tr&gt;....<br />      &lt;tr&gt;....<br />      ...<br />    &lt;/tbody&gt;<br />  &lt;/table&gt;<br /><p><br />  var tb = document.getElementsByName('rows')[0];<br />  tb.innerHTML = "&lt;tr>......";<br /></pre><br />This works just fine in Firefox.  The new rows replace the old and the display updates.  However, in Internet Explorer, one gets a script error stating that there was a runtime error!<br /><br />At first, I thought that IE was not capable of performing the redraw for modified tables with innerHTML, but then I remembered that I was responsible for this limitation!  How many developers get to deal with the consequences of their decisions about products at a later date?  Probably not many.  Let me describe how this came to be.<br /><br />About 10 years ago, I was part of the Trident team.  Trident was responsible for implementing the parsing, rendering and object model for the next version of IE, after 3.0.  Also known as mshtml.dll.  I was a developer responsible for the in-memory representation of the HTML and the dynamic manipulation of that HTML.<br /><br />One of the things I did during this time was invent the method innerHTML, along with innerText, outerHTML, outerText and the lesser known insertAdjacentHTML and insertAdjacentText methods.  These were methods which took HTML or raw text and replaced/inserted that new content into the document.<br /><br />Now, Microsoft <a href="http://msdn.microsoft.com/library/default.asp?url=/workshop/author/dhtml/reference/properties/innerhtml.asp">documents</a> this as not applicable to table elements.  Why?  They don't say.  However, I remembered why.<br /><br />When one sets the innerHTML property of an element, the string containing the HTML is run through the parser.  Now, HTML parsers are not simple, straightforward parsers like XML parsers.  The HTML parser (implemented brilliantly by <a href=http://www.davidbau.com>David Bau</a>) takes arbitrary text and, usually, produces an HTML tree of elements.  For example, parsing a file containing only "Foo" will result in the tree:<br /><pre>  &lt;HTML&gt;&lt;HEAD&gt;&lt;/HEAD&gt;<br />  &lt;BODY&gt;Foo&lt;/BODY&gt;&lt;/HTML&gt;<br /></pre><br />You can see this for yourself by running the following through IE (Firefox won't work, as they did not implement outerHTML):<br /><pre>Foo&lt;script&gt;alert(document.body.parentNode.outerHTML)&lt;/script&gt;<br /></pre><br />Now, parsing something like "&lt;tr&gt;&lt;td&gt;Foo" where there is no TABLE tag preceding the TR causes the parser to ignore the TR tag altogether.  This was probably done by the IE parser for backwards compatibility with the Netscape browser of the time.  In fact, much of the complexity of the parser is influenced by backwards compatibility.<br /><br />So, attempting to set the innerHTML of a TBODY with "&lt;tr&gt;..." would result in setting the contents of the TBODY with "Foo".  This is not terribly "valid" or displayable HTML.  In order to get that TR created, you need to precede it with a TABLE tag.  However, attempting to set the contents of the TBODY with "&lt;table&gt;&lt;tr&gt;..." makes even less sense because injecting a TABLE directly in a TBODY is also meaningless.<br /><br />What this all calls for is what I used to call "Contextual HTML Parsing".  This is a mode of parsing where a branch of an existing HTML tree was to "seed" the parser with a context with which the parser would then interpret a string to parse.  Thus, if the branch of tags were (from the bottom) TBODY, TABLE, BODY, HTML and one were to parse "&lt;tr&gt;...", the "Contextual HTML Parser" would know that creating a TR was okay because its immediate parent would implicitly be a TBODY, a valid container for a TR.<br /><br />Nifty concept, this contextual parsing.  The problem was that we never had enough time to implement such a feature.  And, in order to deal with attempts to modify tables in such a manner, I prohibited the modification of tables with innerHTML and other methods.<br /><br />An alternative to all this would have been to "hack" something up.  For example, I could have checked to see if the innerHTML of a TBODY was being set to something which began with a "&lt;tr&gt;".  Under these circumstances I could have prepended a "&lt;table&gt;" to the string, and then plucked the TR's out of the resulting tree and replaced the contents of the TBODY with them.<br /><br />Sounds simple enough until you have to consider all the variations.  Like, what if the string to be parsed looks like "&lt;!-- new rows --&gt;&lt;tr&gt;...".  Pretty soon you start doing all the work the <i>real</i> parser has to do.  <br /><br />So instead of hacking up something very incomplete and possibly erroneous in many cases, I left the modifications of tables with innerHTML out of the product.  It would have been fun to modify the parser to deal with non textual context!<br /><br />I wonder how Firefox implemented this.  Perhaps I'll find the time to look at the code sometime....<br /><br />The workaround for this is actually not all that bad.  What I did was to insert a SPAN tag into my original page with the visibility style set to hidden.  When I wanted to replace the rows, I would set the innerHTML of this span with something like "&lt;table&gt;&lt;tbody&gt;&lt;tr&gt;...".  Because the span is not visible, this does not cause the page to redraw.  Then, I would use the DOM method replaceChild of elements to remove the old TBODY and replace it with the newly parsed TBODY.  This resulted in the table changing and being redrawn correctly!<br /><pre>  &lt;table&gt;<br />    &lt;tbody id="tb"&gt;<br />      &lt;tr&gt;....<br />      &lt;tr&gt;....<br />      ...<br />    &lt;/tbody&gt;<br />  &lt;/table&gt;<br />  &lt;span id=temp style='visibility:hidden'&gt;&lt;/span&gt;<br /><p><br />  var temp = document.getElementsByName('temp')[0];<br />  temp.innerHTML = '&lt;table&gt;&lt;tbody&gt;&lt;tr&gt;&lt;td&gt;New Row';<br />  var tb = document.getElementsByName('tb')[0];<br />  tb.parentNode.replaceChild(temp.firstChild.firstChild, tb);<br /></pre><br />You can see this in action <a href=http://www.ericvasilik.com/table.htm>here</a>.<div style="clear:both; padding-bottom:0.25em"></div><br />
			  <div class="byline"><a href="http://www.ericvasilik.com/2006/07/code-karma.html" title="permanent link">#</a> posted by Eric Vasilik @ 9:11 PM <span class="item-control blog-admin pid-1964064290"><a style="border:none;" href="http://www.blogger.com/post-edit.g?blogID=30549315&postID=115190001892212272" title="Edit Post"><img class="icon-action" alt="" src="http://www.blogger.com:80/img/icon18_edit_allbkg.gif" height="18" width="18"></a></span> </div>
			</div>
 
  <div class="blogComments">
	<a name="comments"></a>
			Comments:
			
			<div class="blogComment">
				<a name="115333509009834268"></a> 
				Thanks for a very helpful and insightful piece of writing. Ran into the exact same problem earlier today, and your little workaround totally saved my afternoon.<BR/><BR/>But shame on you for not implementing innerHTML properly 10 years ago. :-)<br />
				<div class="byline"><a href="http://www.ericvasilik.com/2006/07/code-karma.html?showComment=1153335060000#c115333509009834268"title="permanent link">#</a> posted by <span style="line-height:16px" class="comment-icon anon-comment-icon"><img src="http://www.blogger.com/img/anon16-rounded.gif" alt="Anonymous" style="display:inline;" /></span>&nbsp;<a href="http://www.jcmikkelsen.dk" rel="nofollow">Jens Christian Mikkelsen</a> : 11:51 AM </div>
				<span class="item-control blog-admin pid-1405864575"><a style="border:none;" href="http://www.blogger.com/delete-comment.g?blogID=30549315&postID=115333509009834268" title="Delete Comment" ><span class="delete-comment-icon">&nbsp;</span></a></span>
			</div>
			
			<div class="blogComment">
				<a name="116237686691751320"></a> 
				yuck..<BR/><BR/>Thanks for the post. It clears up why I am having trouble. A couple of things though which aren't clear.<BR/><BR/>1. why, when creating the temp table does the html stop? shouldn't (angles replaced with squares)<BR/><BR/>var newRows = '[table][tbody][tr][td]New Row';<BR/><BR/>really be <BR/><BR/>var newRows = '[table][tbody][tr][td]New Row'[/td][/tr][/tbody][/table]';<BR/><BR/>?<BR/><BR/>2. also, I am trying to replace a single row with two rows (an "expand this row out to see the detail" function) how would this fit?<br />
				<div class="byline"><a href="http://www.ericvasilik.com/2006/07/code-karma.html?showComment=1162376820000#c116237686691751320"title="permanent link">#</a> posted by <span style="line-height:16px" class="comment-icon anon-comment-icon"><img src="http://www.blogger.com/img/anon16-rounded.gif" alt="Anonymous" style="display:inline;" /></span>&nbsp;<span class="anon-comment-author">metamind</span> : 2:27 AM </div>
				<span class="item-control blog-admin pid-1405864575"><a style="border:none;" href="http://www.blogger.com/delete-comment.g?blogID=30549315&postID=116237686691751320" title="Delete Comment" ><span class="delete-comment-icon">&nbsp;</span></a></span>
			</div>
			
			<div class="blogComment">
				<a name="116291106876838232"></a> 
				The inventor of innerHTML ! *respect*<BR/><BR/>This post saved me a lot of trouble as well, really appreciate this.  <BR/><BR/>Now I can get on with easily replacing whole chunks of a table using Ajax, and not break IE...<BR/><BR/>Thanks!<br />
				<div class="byline"><a href="http://www.ericvasilik.com/2006/07/code-karma.html?showComment=1162911060000#c116291106876838232"title="permanent link">#</a> posted by <span style="line-height:16px" class="comment-icon anon-comment-icon"><img src="http://www.blogger.com/img/anon16-rounded.gif" alt="Anonymous" style="display:inline;" /></span>&nbsp;<a href="http://ptrthomas.wordpress.com" rel="nofollow">Peter Thomas</a> : 6:51 AM </div>
				<span class="item-control blog-admin pid-1405864575"><a style="border:none;" href="http://www.blogger.com/delete-comment.g?blogID=30549315&postID=116291106876838232" title="Delete Comment" ><span class="delete-comment-icon">&nbsp;</span></a></span>
			</div>
			
			<div class="blogComment">
				<a name="116292170943580100"></a> 
				metamind,<BR/><BR/>The HTML I use does not include the end tags because HTML parsers to not require them and implicitly close those tags when the 'EOF' is reached.<BR/><BR/>If you want to replace single rows, simply wrap them in their own TBODYs.  Or, you should be able to change the code slightly to replace the TR directly, instead of using the TBODY as a container.<br />
				<div class="byline"><a href="http://www.ericvasilik.com/2006/07/code-karma.html?showComment=1162921680000#c116292170943580100"title="permanent link">#</a> posted by <span style="line-height:16px" class="comment-icon blogger-comment-icon"><img src="http://www.blogger.com/img/b16-rounded.gif" alt="Blogger" style="display:inline;" /></span>&nbsp;<a href="http://www.blogger.com/profile/09622601499428032516" rel="nofollow">Eric Vasilik</a> : 9:48 AM </div>
				<span class="item-control blog-admin pid-1964064290"><a style="border:none;" href="http://www.blogger.com/delete-comment.g?blogID=30549315&postID=116292170943580100" title="Delete Comment" ><span class="delete-comment-icon">&nbsp;</span></a></span>
			</div>
			
			<div class="blogComment">
				<a name="116301548849490695"></a> 
				Thanks.  This is very helpful!  I just can't seem to get it to replace a [tr] element (like you suggested should be possible).  This should be an easy DOM traversal, and I'm probably doing something stupid, but I can't get a reference to the [tr] element.  I either just get all the cells in the row, or all the rows in the table:  This is an example to show my problem:<BR/><BR/>[html]<BR/>[body]<BR/><BR/>[table]<BR/>[tr id="abc"][td]first row[/td][/tr]<BR/>[tr][td]2nd row[/td][/tr]<BR/>[/table]<BR/><BR/>[script type="text/javascript"]<BR/>var aNode = document.getElementById("abc")<BR/>alert(aNode.innerHTML);  // does not contain the [tr] tag<BR/>alert(aNode.parentNode.innerHTML);  // ok has a few [tr] tags, but looks like text<BR/>alert(aNode.parentNode.firstChild.innerHTML); // back to [td] tag like the first one<BR/>[/script]<BR/><BR/>[/body]<BR/>[/html]<br />
				<div class="byline"><a href="http://www.ericvasilik.com/2006/07/code-karma.html?showComment=1163015460000#c116301548849490695"title="permanent link">#</a> posted by <span style="line-height:16px" class="comment-icon anon-comment-icon"><img src="http://www.blogger.com/img/anon16-rounded.gif" alt="Anonymous" style="display:inline;" /></span>&nbsp;<span class="anon-comment-author">Gerrat Rickert</span> : 11:51 AM </div>
				<span class="item-control blog-admin pid-1405864575"><a style="border:none;" href="http://www.blogger.com/delete-comment.g?blogID=30549315&postID=116301548849490695" title="Delete Comment" ><span class="delete-comment-icon">&nbsp;</span></a></span>
			</div>
			
			<div class="blogComment">
				<a name="116301792308638100"></a> 
				Sorry, nevermind.<BR/>Figured out what I needed to do.<br />
				<div class="byline"><a href="http://www.ericvasilik.com/2006/07/code-karma.html?showComment=1163017920000#c116301792308638100"title="permanent link">#</a> posted by <span style="line-height:16px" class="comment-icon anon-comment-icon"><img src="http://www.blogger.com/img/anon16-rounded.gif" alt="Anonymous" style="display:inline;" /></span>&nbsp;<span class="anon-comment-author">Gerrat Rickert</span> : 12:32 PM </div>
				<span class="item-control blog-admin pid-1405864575"><a style="border:none;" href="http://www.blogger.com/delete-comment.g?blogID=30549315&postID=116301792308638100" title="Delete Comment" ><span class="delete-comment-icon">&nbsp;</span></a></span>
			</div>
			
			<div class="blogComment">
				<a name="116802909778777944"></a> 
				Great help.  When I told my manager the problem I was having but found the guy that caused it he laughed.  This has saved me hours of trouble.<BR/><BR/>Thanks,<BR/>Chris<br />
				<div class="byline"><a href="http://www.ericvasilik.com/2006/07/code-karma.html?showComment=1168029060000#c116802909778777944"title="permanent link">#</a> posted by <span style="line-height:16px" class="comment-icon anon-comment-icon"><img src="http://www.blogger.com/img/anon16-rounded.gif" alt="Anonymous" style="display:inline;" /></span>&nbsp;<span class="anon-comment-author">Chris</span> : 12:31 PM </div>
				<span class="item-control blog-admin pid-1405864575"><a style="border:none;" href="http://www.blogger.com/delete-comment.g?blogID=30549315&postID=116802909778777944" title="Delete Comment" ><span class="delete-comment-icon">&nbsp;</span></a></span>
			</div>
			
			<div class="blogComment">
				<a name="5100317419624559833"></a> 
				Do an alert on the innerHTML of the modified object... it doesnt exist. How would you attach an event to the replaced data? This work around seems a little thin.<br />
				<div class="byline"><a href="http://www.ericvasilik.com/2006/07/code-karma.html?showComment=1174943100000#c5100317419624559833"title="permanent link">#</a> posted by <span style="line-height:16px" class="comment-icon anon-comment-icon"><img src="http://www.blogger.com/img/anon16-rounded.gif" alt="Anonymous" style="display:inline;" /></span>&nbsp;<span class="anon-comment-author">Anonymous</span> : 2:05 PM </div>
				<span class="item-control blog-admin pid-1405864575"><a style="border:none;" href="http://www.blogger.com/delete-comment.g?blogID=30549315&postID=5100317419624559833" title="Delete Comment" ><span class="delete-comment-icon">&nbsp;</span></a></span>
			</div>
			
			<div class="blogComment">
				<a name="6266152645836579645"></a> 
				Thank you very much, I really needed this workaround!<BR/>I was searching for two days and was near to give it up!<BR/><BR/>Thankyou <BR/>Federica<br />
				<div class="byline"><a href="http://www.ericvasilik.com/2006/07/code-karma.html?showComment=1192628640000#c6266152645836579645"title="permanent link">#</a> posted by <span style="line-height:16px" class="comment-icon anon-comment-icon"><img src="http://www.blogger.com/img/anon16-rounded.gif" alt="Anonymous" style="display:inline;" /></span>&nbsp;<span class="anon-comment-author">Anonymous</span> : 6:44 AM </div>
				<span class="item-control blog-admin pid-1405864575"><a style="border:none;" href="http://www.blogger.com/delete-comment.g?blogID=30549315&postID=6266152645836579645" title="Delete Comment" ><span class="delete-comment-icon">&nbsp;</span></a></span>
			</div>
			
			<div class="blogComment">
				<a name="1862601630935473041"></a> 
				OH I have been stuck on this one for 4 months.  WHat a find!<BR/><BR/>innerHTML is a great invention, nice work!<br />
				<div class="byline"><a href="http://www.ericvasilik.com/2006/07/code-karma.html?showComment=1209889260000#c1862601630935473041"title="permanent link">#</a> posted by <span style="line-height:16px" class="comment-icon anon-comment-icon"><img src="http://www.blogger.com/img/anon16-rounded.gif" alt="Anonymous" style="display:inline;" /></span>&nbsp;<span class="anon-comment-author">John Newman</span> : 1:21 AM </div>
				<span class="item-control blog-admin pid-1405864575"><a style="border:none;" href="http://www.blogger.com/delete-comment.g?blogID=30549315&postID=1862601630935473041" title="Delete Comment" ><span class="delete-comment-icon">&nbsp;</span></a></span>
			</div>
			
			<div class="blogComment">
				<a name="7694412177632040381"></a> 
				Thank you!<BR/>This keeps on helping programmers..<br />
				<div class="byline"><a href="http://www.ericvasilik.com/2006/07/code-karma.html?showComment=1231750800000#c7694412177632040381"title="permanent link">#</a> posted by <span style="line-height:16px" class="comment-icon blogger-comment-icon"><img src="http://www.blogger.com/img/b16-rounded.gif" alt="Blogger" style="display:inline;" /></span>&nbsp;<a href="http://www.blogger.com/profile/08023749971493011407" rel="nofollow">Ron Merom</a> : 1:00 AM </div>
				<span class="item-control blog-admin pid-2125610742"><a style="border:none;" href="http://www.blogger.com/delete-comment.g?blogID=30549315&postID=7694412177632040381" title="Delete Comment" ><span class="delete-comment-icon">&nbsp;</span></a></span>
			</div>
			
			<div class="blogComment">
				<a name="7712879102824991860"></a> 
				Let me show my admiration for your work 10 years ago. About that time, in 1998-1999 I learned and researched Web development mainly with IE4 and Netscape 4, the big two back then.<BR/><BR/>I found IE4 was a big leap from IE3 and much better than NN4 in DHTML, live DOM manipulation. I remember using innerHTML and innerText a lot. On every update, the page layout was instantly recalculated. NN had nothing comparable: just a layer.document.open(); layer.document.write("something")... IIRC, that did not recalculate any layout or element sizes.<BR/><BR/>Then came the standard DOM API which I thought was much less convenient than MS's way (and I'm not an MS fan). Something like div.innerHTML="My name is [b]Boraski[/b]"; (square brackets for angle brackets in post) requires a bunch of API calls with standard DOM manipulation. Fortunately they accepted .innerHTML (though it has its detractors).<BR/><BR/>And I also now remember that I indeed had problems using it with tables, ans I had to use functions such as insertRow(), etc. I now, 10 years later understand why.<BR/><BR/>Let me also point out that HTML's decision of allowing optional end tags, while good for "lazy" hand code writers, must be a pain for parser writers. Parsers need extra intelligence to know where elements end. And, BTW, Netscape was also quite bad at doing this. I remember some optional end tags were badly inferred by it.<BR/><BR/>Now modern Web apps rely on good manipulation of all elements of Web pages (adding, removing, resizing, changing styles, etc.) and that was an invention of those people 10 years ago. IMO, in more recent years, however, Web technology has advanced much more outside of MS (better DOM, better CSS, SVG, canvas, video, better JS, ...).<br />
				<div class="byline"><a href="http://www.ericvasilik.com/2006/07/code-karma.html?showComment=1236018480000#c7712879102824991860"title="permanent link">#</a> posted by <span style="line-height:16px" class="comment-icon blogger-comment-icon"><img src="http://www.blogger.com/img/b16-rounded.gif" alt="Blogger" style="display:inline;" /></span>&nbsp;<a href="http://www.blogger.com/profile/09960866551954271128" rel="nofollow">Boraski</a> : 10:28 AM </div>
				<span class="item-control blog-admin pid-152786531"><a style="border:none;" href="http://www.blogger.com/delete-comment.g?blogID=30549315&postID=7712879102824991860" title="Delete Comment" ><span class="delete-comment-icon">&nbsp;</span></a></span>
			</div>
			
			<div class="blogComment">
				<a name="3196561283882254247"></a> 
				As metamind said before be, The inventor of innerHTML, wow, respect man!<BR/><BR/>Always wondered why IE won't replace my table tags, so I resulted to lists with spans and div styled as tables,<BR/>Oh well, it's you to blame! :)<BR/><BR/>Had fun reading this post! :)<br />
				<div class="byline"><a href="http://www.ericvasilik.com/2006/07/code-karma.html?showComment=1236030120000#c3196561283882254247"title="permanent link">#</a> posted by <span style="line-height:16px" class="comment-icon blogger-comment-icon"><img src="http://www.blogger.com/img/b16-rounded.gif" alt="Blogger" style="display:inline;" /></span>&nbsp;<a href="http://www.blogger.com/profile/13556970842353739493" rel="nofollow">Caseless</a> : 1:42 PM </div>
				<span class="item-control blog-admin pid-1848345957"><a style="border:none;" href="http://www.blogger.com/delete-comment.g?blogID=30549315&postID=3196561283882254247" title="Delete Comment" ><span class="delete-comment-icon">&nbsp;</span></a></span>
			</div>
			
			<div class="blogComment">
				<a name="7949480540944264563"></a> 
				I also always wondered why IE was such a pain in this way - it makes more sense now of course.  But it's still good to know who I can blame :)<BR/><BR/>Thanks for explaining.<br />
				<div class="byline"><a href="http://www.ericvasilik.com/2006/07/code-karma.html?showComment=1236032760000#c7949480540944264563"title="permanent link">#</a> posted by <span style="line-height:16px" class="comment-icon openid-comment-icon"><img src="http://www.blogger.com/img/openid16-rounded.gif" alt="OpenID" style="display:inline;" /></span>&nbsp;<a href="http://philfreo.com/" rel="nofollow">Phil Freo</a> : 2:26 PM </div>
				<span class="item-control blog-admin pid-1814688800"><a style="border:none;" href="http://www.blogger.com/delete-comment.g?blogID=30549315&postID=7949480540944264563" title="Delete Comment" ><span class="delete-comment-icon">&nbsp;</span></a></span>
			</div>
			
			<a class="comment-link" href="https://www.blogger.com/comment.g?blogID=30549315&postID=115190001892212272">Post a Comment</a>
	  
        <br /> <br />
        

	<br /> <br />
	<a href="http://www.ericvasilik.com/default.htm">&lt;&lt; Home</a>
    </div>



<!-- 	In accordance to the Blogger terms of service, please leave this button somewhere on your blogger-powered page. Thanks! -->
<p><a href="http://www.blogger.com"><img width="88" height="31" src="http://buttons.blogger.com/bloggerbutton1.gif" border="0" alt="This page is powered by Blogger. Isn't yours?" /></a></p>

</div>

<!-- Sidebar -->
<div id="sideBar">

  <img width=140 src="http://ericvasilik.com/pictures/eric/eric.jpg"><p>
		<h6>Links</h6>
		<ul>
			<li><a href="http://www.ericandsylvia.com/">Eric & Sylvia</a></li>
		</ul>
		
		<h6>archives</h6>
		<ul>
			<li><a href='http://www.ericvasilik.com/2006_07_01_archive.html'>July 2006</a></li><li><a href='http://www.ericvasilik.com/2006_08_01_archive.html'>August 2006</a></li><li><a href='http://www.ericvasilik.com/2006_10_01_archive.html'>October 2006</a></li><li><a href='http://www.ericvasilik.com/2007_01_01_archive.html'>January 2007</a></li>
			<!-- Link to the front page, from your archives -->
			<script type="text/javascript">if (location.href.indexOf("archive")!=-1) document.write("<li><strong><a href=\"http://www.ericvasilik.com/default.htm\">Current Posts</a></strong></li>");</script> 
		</ul>
</div>
<script type="text/javascript">
var gaJsHost = (("https:" == document.location.protocol) ? "https://ssl." : "http://www.");
document.write(unescape("%3Cscript src='" + gaJsHost + "google-analytics.com/ga.js' type='text/javascript'%3E%3C/script%3E"));
</script>
<script type="text/javascript">
try {
var pageTracker = _gat._getTracker("UA-7727517-1");
pageTracker._trackPageview();
} catch(err) {}</script></body>
</html>