<html><head><meta http-equiv="content-type" content="text/html; charset=UTF-8"><title>sites/html/tags/dtds/html2-s.dtd - Google Code Search</title><style><!--
body {background-color:white;color:black;font-family:Arial, sans-serif;margin:8px;margin-top:3px}
.j{white-space:-moz-pre-wrap;	white-space:-pre-wrap;	white-space:-o-pre-wrap;	word-wrap:break-word;	margin-top:4px;margin-bottom:4px;border:1px solid silver;background-color:#f5f5f5;padding:0.5em;width:85%;color:#222}
#title {border-top:1px solid #36c;background-color:#e5ecf9;margin:0;padding:0;padding-top:1px;padding-bottom:1px;padding-left:3px;margin-top:5px}
.expl {font-size:small;margin-left:2em;margin-right:2em}
.f {font-size:small;margin-bottom:1.5em}
.hl{font-weight:bold;color:#000}
.h{margin-top:1em;margin-bottom:0px}
.k {background-color:#36c}
.a,.a a{font-size:small;color:green}
a:active{color:#f00}a:link{color:#00c}a:visited{color:#551a8b}a.s,.s a{font-size:small;color:#77c}.a,.a a{font-size:small;color:green}.i, .i:link {color:#a90a08;font-size:small}
.n .i {font-size:10pt;font-weight:bold}
.n a {font-size:10pt;color:#000}
.b a {font-size:12pt;color:#00c;font-weight:bold}
code {color: #007000; font-family:"bogus font here",monospace; font-size: 100%;}
code.fn {color: #007000; font-family:"bogus font here",monospace; font-size: 100%;}
div.n {margin-top:1ex}
img{border:0}
.chl {background:#ffa}
.cchl {background:#aff}
.cc {color:#060}
.input_table tr td {vertical-align:top;}--></style>
<script type="text/javascript">
<!--
function sf(){}
// --></script></head><body bgcolor=#ffffff onload="sf()"><table cellspacing=0 cellpadding=0 border=0 width=100%><tr><td align=left valign=top><a href="/codesearch"><img src="http://www.google.com/intl/en/images/codesearch_logo_sm.gif" width=150 height=55 alt="Go To Google Code Search Home" border=0 vspace=12></a></td><td width=10></td><td align=left><font size=-1>This is Google's cached copy of <code class=fn>sites/html/tags/dtds/html2-s.dtd</code> from<br><span class="a"><a href="codesearch/url?hl=en&url=http://www.w3.org/2001/05/05-19-cssvalidator.zip&usg=AFQjCNFWl7oxgBZUnBXp9uS0aelp_0huJg">http://www.w3.org/2001/05/05-19-cssvalidator.zip</a></span> <br><br><i>Google is neither affiliated with the authors of this page nor responsible for its content.</i></font></td></tr><tr height=10><td colspan=3></td></tr><tr height=1 bgcolor=#000000><td bgcolor=#000000 colspan=3></td></tr></table><br><table cellspacing=0 cellpadding=0 border=0 width=100%><tr><td align=left valign=top colspan=4><pre><a href="/codesearch?hl=en&amp;q=show:mEksFOveTVA:ZhDvnwbzGWY&amp;sa=N&amp;ct=rdp&amp;cs_p=http://www.w3.org/2001/05/05-19-cssvalidator.zip">http://www.w3.org/2001/05/05-19-cssvalidator.zip</a>/<a href="/codesearch?hl=en&amp;q=show:-jpvNgAP5p4:vBtOihBilMI&amp;sa=N&amp;ct=rdp&amp;cs_p=http://www.w3.org/2001/05/05-19-cssvalidator.zip&amp;cs_f=sites">sites</a>/<a href="/codesearch?hl=en&amp;q=show:BfDFHHNVd5A:E2AFDyWD_GI&amp;sa=N&amp;ct=rdp&amp;cs_p=http://www.w3.org/2001/05/05-19-cssvalidator.zip&amp;cs_f=sites/html">html</a>/<a href="/codesearch?hl=en&amp;q=show:lNo8CIwff_I:gou17Fb25RU&amp;sa=N&amp;ct=rdp&amp;cs_p=http://www.w3.org/2001/05/05-19-cssvalidator.zip&amp;cs_f=sites/html/tags">tags</a>/<a href="/codesearch?hl=en&amp;q=show:OQ4x5gidGqQ:gVWihPIsca4&amp;sa=N&amp;ct=rdp&amp;cs_p=http://www.w3.org/2001/05/05-19-cssvalidator.zip&amp;cs_f=sites/html/tags/dtds">dtds</a>/</pre></td></tr><tr><td>&nbsp;&nbsp;&nbsp;&nbsp;</td><td align=left valign=top><pre><a href="/codesearch?hl=en&amp;q=show:Tvkeg6YYEtE:OQ4x5gidGqQ:zgebocUFzsk&amp;sa=N&amp;ct=rd&amp;cs_p=http://www.w3.org/2001/05/05-19-cssvalidator.zip&amp;cs_f=sites/html/tags/dtds/HTML4.decl&amp;start=1">HTML4.decl</a>
<a href="/codesearch?hl=en&amp;q=show:Bfc6tFEUjSU:OQ4x5gidGqQ:hJk6ceJCmSI&amp;sa=N&amp;ct=rd&amp;cs_p=http://www.w3.org/2001/05/05-19-cssvalidator.zip&amp;cs_f=sites/html/tags/dtds/HTMLlat1.ent&amp;start=1">HTMLlat1.ent</a>
<a href="/codesearch?hl=en&amp;q=show:M5spgZiHwjM:OQ4x5gidGqQ:R6A3Nw8djKA&amp;sa=N&amp;ct=rd&amp;cs_p=http://www.w3.org/2001/05/05-19-cssvalidator.zip&amp;cs_f=sites/html/tags/dtds/HTMLmisc.ent&amp;start=1">HTMLmisc.ent</a>
<a href="/codesearch?hl=en&amp;q=show:oynVIcdFvlk:OQ4x5gidGqQ:7c8Ll1y1XSc&amp;sa=N&amp;ct=rd&amp;cs_p=http://www.w3.org/2001/05/05-19-cssvalidator.zip&amp;cs_f=sites/html/tags/dtds/HTMLsym.ent&amp;start=1">HTMLsym.ent</a>
<a href="/codesearch?hl=en&amp;q=show:Bfc6tFEUjSU:OQ4x5gidGqQ:R0F9e9NCdog&amp;sa=N&amp;ct=rd&amp;cs_p=http://www.w3.org/2001/05/05-19-cssvalidator.zip&amp;cs_f=sites/html/tags/dtds/ISOlat1.ent&amp;start=1">ISOlat1.ent</a>
<a href="/codesearch?hl=en&amp;q=show:pzPupOpOhLY:OQ4x5gidGqQ:AUni7IWQnRU&amp;sa=N&amp;ct=rd&amp;cs_p=http://www.w3.org/2001/05/05-19-cssvalidator.zip&amp;cs_f=sites/html/tags/dtds/ISOlat1.sgml&amp;start=1">ISOlat1.sgml</a>
<a href="/codesearch?hl=en&amp;q=show:s2BsfjttGNQ:OQ4x5gidGqQ:6sq0Z0C8Tvg&amp;sa=N&amp;ct=rd&amp;cs_p=http://www.w3.org/2001/05/05-19-cssvalidator.zip&amp;cs_f=sites/html/tags/dtds/cougar.dtd&amp;start=1">cougar.dtd</a>
<a href="/codesearch?hl=en&amp;q=show:5HErsitqoGI:OQ4x5gidGqQ:g9KH7L7Px0Y&amp;sa=N&amp;ct=rd&amp;cs_p=http://www.w3.org/2001/05/05-19-cssvalidator.zip&amp;cs_f=sites/html/tags/dtds/html2-0.dtd&amp;start=1">html2-0.dtd</a>
<a href="/codesearch?hl=en&amp;q=show:qfEqOWhX8Wc:OQ4x5gidGqQ:0_H9atDuDnI&amp;sa=N&amp;ct=rd&amp;cs_p=http://www.w3.org/2001/05/05-19-cssvalidator.zip&amp;cs_f=sites/html/tags/dtds/html2-0s.dtd&amp;start=1">html2-0s.dtd</a>
<a href="/codesearch?hl=en&amp;q=show:a1-KRLv1yyw:OQ4x5gidGqQ:mfS9p3Nt6Vo&amp;sa=N&amp;ct=rd&amp;cs_p=http://www.w3.org/2001/05/05-19-cssvalidator.zip&amp;cs_f=sites/html/tags/dtds/html2-1.dtd&amp;start=1">html2-1.dtd</a>
<a href="/codesearch?hl=en&amp;q=show:1Li86zWD8Q4:OQ4x5gidGqQ:ykZio45UCP8&amp;sa=N&amp;ct=rd&amp;cs_p=http://www.w3.org/2001/05/05-19-cssvalidator.zip&amp;cs_f=sites/html/tags/dtds/html2-1s.dtd&amp;start=1">html2-1s.dtd</a>
<a href="/codesearch?hl=en&amp;q=show:RQkq-AaPekY:OQ4x5gidGqQ:hABaT9Zaq5g&amp;sa=N&amp;ct=rd&amp;cs_p=http://www.w3.org/2001/05/05-19-cssvalidator.zip&amp;cs_f=sites/html/tags/dtds/html2-net.dtd&amp;start=1">html2-net.dtd</a>
<b>html2-s.dtd</b>
<a href="/codesearch?hl=en&amp;q=show:hkq7MsgGIx0:OQ4x5gidGqQ:3nwWV74jKgA&amp;sa=N&amp;ct=rd&amp;cs_p=http://www.w3.org/2001/05/05-19-cssvalidator.zip&amp;cs_f=sites/html/tags/dtds/html2.dtd&amp;start=1">html2.dtd</a>
<a href="/codesearch?hl=en&amp;q=show:HpDVhqpvfXQ:OQ4x5gidGqQ:PDAm74KsTCo&amp;sa=N&amp;ct=rd&amp;cs_p=http://www.w3.org/2001/05/05-19-cssvalidator.zip&amp;cs_f=sites/html/tags/dtds/html2.sgml&amp;start=1">html2.sgml</a>
<a href="/codesearch?hl=en&amp;q=show:iSnF-311XL8:OQ4x5gidGqQ:3lScRh-JGhg&amp;sa=N&amp;ct=rd&amp;cs_p=http://www.w3.org/2001/05/05-19-cssvalidator.zip&amp;cs_f=sites/html/tags/dtds/html3.dtd&amp;start=1">html3.dtd</a>
<a href="/codesearch?hl=en&amp;q=show:0sYd7dI6wzY:OQ4x5gidGqQ:3AmdmNzvZAA&amp;sa=N&amp;ct=rd&amp;cs_p=http://www.w3.org/2001/05/05-19-cssvalidator.zip&amp;cs_f=sites/html/tags/dtds/html32.dtd&amp;start=1">html32.dtd</a>
<a href="/codesearch?hl=en&amp;q=show:c0P4LXQ-rHg:OQ4x5gidGqQ:SpugtczNPwg&amp;sa=N&amp;ct=rd&amp;cs_p=http://www.w3.org/2001/05/05-19-cssvalidator.zip&amp;cs_f=sites/html/tags/dtds/html32.dtd.COOL&amp;start=1">html32.dtd.COOL</a>
<a href="/codesearch?hl=en&amp;q=show:0sYd7dI6wzY:OQ4x5gidGqQ:M8PzNqhTqD4&amp;sa=N&amp;ct=rd&amp;cs_p=http://www.w3.org/2001/05/05-19-cssvalidator.zip&amp;cs_f=sites/html/tags/dtds/html32.dtd.ORIG&amp;start=1">html32.dtd.ORIG</a>
<a href="/codesearch?hl=en&amp;q=show:VrThmZrs4x0:OQ4x5gidGqQ:ICiHWHaGJq0&amp;sa=N&amp;ct=rd&amp;cs_p=http://www.w3.org/2001/05/05-19-cssvalidator.zip&amp;cs_f=sites/html/tags/dtds/html4.dtd&amp;start=1">html4.dtd</a>
<a href="/codesearch?hl=en&amp;q=show:_Ad4uk81Ig0:OQ4x5gidGqQ:skieV_SPsMI&amp;sa=N&amp;ct=rd&amp;cs_p=http://www.w3.org/2001/05/05-19-cssvalidator.zip&amp;cs_f=sites/html/tags/dtds/july96-HTML.dtd&amp;start=1">july96-HTML.dtd</a>
<a href="/codesearch?hl=en&amp;q=show:_Ad4uk81Ig0:OQ4x5gidGqQ:XJbGaalRPdo&amp;sa=N&amp;ct=rd&amp;cs_p=http://www.w3.org/2001/05/05-19-cssvalidator.zip&amp;cs_f=sites/html/tags/dtds/july96.dtd&amp;start=1">july96.dtd</a>
<a href="/codesearch?hl=en&amp;q=show:x_IXfhcIdzY:OQ4x5gidGqQ:x3DJQZcJnI8&amp;sa=N&amp;ct=rd&amp;cs_p=http://www.w3.org/2001/05/05-19-cssvalidator.zip&amp;cs_f=sites/html/tags/dtds/lat1html.ent&amp;start=1">lat1html.ent</a>
<a href="/codesearch?hl=en&amp;q=show:djNZtxA0FfY:OQ4x5gidGqQ:exXwbLiy_bY&amp;sa=N&amp;ct=rd&amp;cs_p=http://www.w3.org/2001/05/05-19-cssvalidator.zip&amp;cs_f=sites/html/tags/dtds/public.map&amp;start=1">public.map</a>
</pre></td><td>&nbsp;&nbsp;&nbsp;&nbsp;</td><td align=left valign=top width=100%><pre>&lt;!--	html-P.dtd

        Document Type Definition for the HyperText Markup Language
	with strict validation (HTML Strict DTD).

	$Id: html-s.dtd,v 1.1 1994/11/30 23:45:34 connolly Exp $

	Author: Daniel W. Connolly &lt;connolly@hal.com&gt;
	See Also: http://www.hal.com/%7Econnolly/html-spec/index.html
		  http://info.cern.ch/hypertext/WWW/MarkUp2/MarkUp.html
--&gt;

&lt;!ENTITY % HTML.Version
	&quot;-//IETF//DTD HTML 2.0 Strict//EN&quot;

        -- Typical usage:

            &lt;!DOCTYPE HTML PUBLIC
		&quot;-//IETF//DTD HTML Strict//EN&quot;&gt;
	    &lt;html&gt;
	    ...
	    &lt;/html&gt;
	--
	&gt;

&lt;!-- Feature Test Entities --&gt;
&lt;!ENTITY % HTML.Recommended &quot;INCLUDE&quot;&gt;

&lt;!ENTITY % html PUBLIC &quot;-//IETF//DTD HTML 2.0//EN&quot;&gt;
%html;
</pre></td></tr></table><table cellspacing=0 cellpadding=0 border=0 width=100%><tr height=1 bgcolor=#000000><td bgcolor=#000000 colspan=3></td></tr><tr height=10><td></td></tr><tr><td><font size=-1><code class=fn>sites/html/tags/dtds/html2-s.dtd</code> from<br><span class="a"><a href="codesearch/url?hl=en&url=http://www.w3.org/2001/05/05-19-cssvalidator.zip&usg=AFQjCNFWl7oxgBZUnBXp9uS0aelp_0huJg">http://www.w3.org/2001/05/05-19-cssvalidator.zip</a></span> - <span class="a">Unknown License</span><br><br></font></tr></tr></table></body></html>