<?xml version="1.0" encoding="UTF-8"?>
<xs:schema
 xmlns:xs="http://www.w3.org/2001/XMLSchema"
 xmlns="http://www.w3.org/1999/xhtml/datatypes/"
 xmlns:xh11d="http://www.w3.org/1999/xhtml/datatypes/"
 targetNamespace="http://www.w3.org/1999/xhtml/datatypes/"
 elementFormDefault="qualified"
>
    <xs:simpleType name="CURIE">
        <xs:restriction base="xs:string">
            <xs:pattern value="[\i-[:]][\c-[:]]*:.+" />
        </xs:restriction>
    </xs:simpleType>
    
    <xs:simpleType name="CURIEs">
        <xs:list itemType="xh11d:CURIE" />
    </xs:simpleType>
    
    <xs:simpleType name="SafeCURIE">
        <xs:restriction base="xs:string">
            <xs:pattern value="\[[\i-[:]][\c-[:]]*:.+\]" />
        </xs:restriction>
    </xs:simpleType>
    
    <xs:simpleType name="SafeCURIEs">
        <xs:list itemType="xh11d:SafeCURIE" />
    </xs:simpleType>
    
    <xs:simpleType name="URIorSafeCURIE">
        <xs:union memberTypes="xs:anyURI xh11d:SafeCURIE" />
    </xs:simpleType>
</xs:schema>
