<?xml version="1.0" encoding="UTF-8"?>
<xs:schema xmlns:xs="http://www.w3.org/2001/XMLSchema"
           targetNamespace="http://www.example.com/xmlns/simpleml1"
           xmlns="http://www.example.com/xmlns/simpleml1">

  <xs:annotation>
    <xs:documentation>
      This is the XML Schema module for module SimpleML
      $Id: simpleml-module-1.xsd,v 1.5 2006/06/12 22:38:55 ahby Exp $
    </xs:documentation>
    <xs:documentation source="http://www.w3.org/MarkUp/SCHEMA/xhtml-copyright-1.xsd"/>
  </xs:annotation>
    
  <xs:attributeGroup name="xhtml.Common.attrib">
    <xs:attribute name="id" type="xs:ID"/>
  </xs:attributeGroup> 

  <xs:group name="otherelement.content">
     <xs:sequence/>
  </xs:group>
  
  <xs:attributeGroup name="otherelement.attlist">
    <xs:attributeGroup ref="xhtml.Common.attrib"/>    
  </xs:attributeGroup>
  
  <xs:complexType name="otherelement.type">
    <xs:group ref="otherelement.content"/>
    <xs:attributeGroup ref="otherelement.attlist"/> 
  </xs:complexType>
  
  <xs:element name="otherelement" type="otherelement.type"/>
  
  <xs:group name="element.content">
    <xs:choice>
      <xs:element ref="otherelement" minOccurs="0" maxOccurs="unbounded"/>
    </xs:choice>
  </xs:group>
  
  <xs:attributeGroup name="element.attlist">
    <xs:attributeGroup ref="xhtml.Common.attrib"/>    
  </xs:attributeGroup>
  
  <xs:complexType name="element.type" mixed="true">
    <xs:group ref="element.content"/>
    <xs:attributeGroup ref="element.attlist"/> 
  </xs:complexType>
  
  <xs:element name="element" type="element.type"/>
    
  <!-- Note: Global attribute -->
  <xs:attribute name="myattr" type="xs:string"/>

</xs:schema>

