<html><head><meta http-equiv="content-type" content="text/html; charset=UTF-8"><title>mozilla_tidy_source/tidy_extension/xpi/sgml-lib/REC-xhtml-basic-20001219/xhtml-inlphras-1.mod - Google Code Search</title><style><!--
body {background-color:white;color:black;font-family:Arial, sans-serif;margin:8px;margin-top:3px}
.j{white-space:-moz-pre-wrap;	white-space:-pre-wrap;	white-space:-o-pre-wrap;	word-wrap:break-word;	margin-top:4px;margin-bottom:4px;border:1px solid silver;background-color:#f5f5f5;padding:0.5em;width:85%;color:#222;}
#title {border-top:1px solid #36c;background-color:#e5ecf9;margin:0;padding:0;padding-top:1px;padding-bottom:1px;padding-left:3px;margin-top:5px}
.expl {font-size:small;margin-left:2em;margin-right:2em}
.f {font-size:small;margin-bottom:1.5em}
.hl{font-weight:bold;color:#000}
.h{margin-top:1em;margin-bottom:0px}
.k {background-color:#36c}
.a,.a a{font-size:small;color:green}
a:active{color:#f00}a:link{color:#00c}a:visited{color:#551a8b}a.s,.s a{font-size:small;color:#77c}.a,.a a{font-size:small;color:green}.i, .i:link {color:#a90a08;font-size:small}
.n .i {font-size:10pt;font-weight:bold}
.n a {font-size:10pt;color:#000}
.b a {font-size:12pt;color:#00c;font-weight:bold}
code {color: #007000; font-family:"bogus font here",monospace; font-size: 100%;}
code.fn {color: #007000; font-family:"bogus font here",monospace; font-size: 100%;}
div.n {margin-top:1ex}
img{border:0}
.chl {background:#ffa}
.cchl {background:#aff}
.cclhl {background:#e8f4f7;display:block}
.cc {color:#060}
.input_table tr td {vertical-align:top;}--></style>
<script type="text/javascript">
<!--
function sf(){}
// --></script></head><body bgcolor=#ffffff onload="sf()"><table cellspacing=0 cellpadding=0 border=0 width=100%><tr><td align=left valign=top><a href="/codesearch"><img src="http://www.google.com/intl/en/images/codesearch_logo_sm.gif" width=150 height=55 alt="" border=0 vspace=12></a></td><td width=10></td><td align=left><font size=-1>This is Google's cached copy of <code class=fn>mozilla_tidy_source/tidy_extension/xpi/sgml-lib/REC-xhtml-basic-20001219/xhtml-inlphras-1.mod</code> from<br><span class="a"><a href="codesearch/url?hl=en&ct=rpc&url=http://users.skynet.be/mgueury/mozilla/tidy_08x_source.zip&usg=AFQjCNFecLonw5eEXUaOOFUc28sq6tFk9w">http://users.skynet.be/mgueury/mozilla/tidy_08x_source.zip</a></span> <br><br><i>Google is neither affiliated with the authors of this page nor responsible for its content.</i></font></td></tr><tr height=10><td colspan=3></td></tr><tr height=1 bgcolor=#000000><td bgcolor=#000000 colspan=3></td></tr></table><br><table cellspacing=0 cellpadding=0 border=0 width=100%><tr><td align=left valign=top colspan=4><pre><a href="/codesearch?hl=en&amp;q=show:eU0EuvDRNYs:rwEtmQFIluY&amp;sa=N&amp;ct=rdp&amp;cs_p=http://users.skynet.be">http://users.skynet.be</a>/<a href="/codesearch?hl=en&amp;q=show:ozOXaw3a1qs:9alDXuevGD0&amp;sa=N&amp;ct=rdp&amp;cs_p=http://users.skynet.be&amp;cs_f=mgueury">mgueury</a>/<a href="/codesearch?hl=en&amp;q=show:uVx3IdDidwk:10M3ZSfbaYE&amp;sa=N&amp;ct=rdp&amp;cs_p=http://users.skynet.be&amp;cs_f=mgueury/mozilla">mozilla</a>/<a href="/codesearch?hl=en&amp;q=show:SM_R3GbDAfQ:QZXoFApwGAQ&amp;sa=N&amp;ct=rdp&amp;cs_p=http://users.skynet.be/mgueury/mozilla/tidy_08x_source.zip">tidy_08x_source.zip</a>/<a href="/codesearch?hl=en&amp;q=show:cAjNKJVA3LA:9nQINOx9IOg&amp;sa=N&amp;ct=rdp&amp;cs_p=http://users.skynet.be/mgueury/mozilla/tidy_08x_source.zip&amp;cs_f=mozilla_tidy_source">mozilla_tidy_source</a>/<a href="/codesearch?hl=en&amp;q=show:g09kpcc7uto:B4HgLtyn-7M&amp;sa=N&amp;ct=rdp&amp;cs_p=http://users.skynet.be/mgueury/mozilla/tidy_08x_source.zip&amp;cs_f=mozilla_tidy_source/tidy_extension">tidy_extension</a>/<a href="/codesearch?hl=en&amp;q=show:r65OzAw_92c:vxcNSgIQcGA&amp;sa=N&amp;ct=rdp&amp;cs_p=http://users.skynet.be/mgueury/mozilla/tidy_08x_source.zip&amp;cs_f=mozilla_tidy_source/tidy_extension/xpi">xpi</a>/<a href="/codesearch?hl=en&amp;q=show:48MxNM6690U:GGuOTYL7VNc&amp;sa=N&amp;ct=rdp&amp;cs_p=http://users.skynet.be/mgueury/mozilla/tidy_08x_source.zip&amp;cs_f=mozilla_tidy_source/tidy_extension/xpi/sgml-lib">sgml-lib</a>/<a href="/codesearch?hl=en&amp;q=show:Tr7_LGRdAts:3tK5YBO_TXk&amp;sa=N&amp;ct=rdp&amp;cs_p=http://users.skynet.be/mgueury/mozilla/tidy_08x_source.zip&amp;cs_f=mozilla_tidy_source/tidy_extension/xpi/sgml-lib/REC-xhtml-basic-20001219">REC-xhtml-basic-20001219</a>/</pre></td></tr><tr><td>&nbsp;&nbsp;&nbsp;&nbsp;</td><td align=left valign=top><pre><a href="/codesearch?hl=en&amp;q=show:G6fs28yd2rk:Tr7_LGRdAts:xsPpppRk0rI&amp;sa=N&amp;ct=rd&amp;cs_p=http://users.skynet.be/mgueury/mozilla/tidy_08x_source.zip&amp;cs_f=mozilla_tidy_source/tidy_extension/xpi/sgml-lib/REC-xhtml-basic-20001219/xhtml-arch-1.mod&amp;start=1">xhtml-arch-1.mod</a>
<a href="/codesearch?hl=en&amp;q=show:kRoGUQsxx0g:Tr7_LGRdAts:lcruX-64MNA&amp;sa=N&amp;ct=rd&amp;cs_p=http://users.skynet.be/mgueury/mozilla/tidy_08x_source.zip&amp;cs_f=mozilla_tidy_source/tidy_extension/xpi/sgml-lib/REC-xhtml-basic-20001219/xhtml-attribs-1.mod&amp;start=1">xhtml-attribs-1.mod</a>
<a href="/codesearch?hl=en&amp;q=show:vRQigIUer2U:Tr7_LGRdAts:dTTcYjfie00&amp;sa=N&amp;ct=rd&amp;cs_p=http://users.skynet.be/mgueury/mozilla/tidy_08x_source.zip&amp;cs_f=mozilla_tidy_source/tidy_extension/xpi/sgml-lib/REC-xhtml-basic-20001219/xhtml-base-1.mod&amp;start=1">xhtml-base-1.mod</a>
<a href="/codesearch?hl=en&amp;q=show:uejwmIt0Has:Tr7_LGRdAts:s64DivngjZU&amp;sa=N&amp;ct=rd&amp;cs_p=http://users.skynet.be/mgueury/mozilla/tidy_08x_source.zip&amp;cs_f=mozilla_tidy_source/tidy_extension/xpi/sgml-lib/REC-xhtml-basic-20001219/xhtml-basic-form-1.mod&amp;start=1">xhtml-basic-form-1.mod</a>
<a href="/codesearch?hl=en&amp;q=show:1fkgyUvEkWY:Tr7_LGRdAts:KS2ElF0djac&amp;sa=N&amp;ct=rd&amp;cs_p=http://users.skynet.be/mgueury/mozilla/tidy_08x_source.zip&amp;cs_f=mozilla_tidy_source/tidy_extension/xpi/sgml-lib/REC-xhtml-basic-20001219/xhtml-basic-table-1.mod&amp;start=1">xhtml-basic-table-1.mod</a>
<a href="/codesearch?hl=en&amp;q=show:STVctLzzhgw:Tr7_LGRdAts:0rNHG0t8_ak&amp;sa=N&amp;ct=rd&amp;cs_p=http://users.skynet.be/mgueury/mozilla/tidy_08x_source.zip&amp;cs_f=mozilla_tidy_source/tidy_extension/xpi/sgml-lib/REC-xhtml-basic-20001219/xhtml-basic10-f.dtd&amp;start=1">xhtml-basic10-f.dtd</a>
<a href="/codesearch?hl=en&amp;q=show:LR4LVEo0gx0:Tr7_LGRdAts:JxRyr0QMxtc&amp;sa=N&amp;ct=rd&amp;cs_p=http://users.skynet.be/mgueury/mozilla/tidy_08x_source.zip&amp;cs_f=mozilla_tidy_source/tidy_extension/xpi/sgml-lib/REC-xhtml-basic-20001219/xhtml-basic10-model-1.mod&amp;start=1">xhtml-basic10-model-1.mod</a>
<a href="/codesearch?hl=en&amp;q=show:nc3BnrJoaqA:Tr7_LGRdAts:TnViLluCGJQ&amp;sa=N&amp;ct=rd&amp;cs_p=http://users.skynet.be/mgueury/mozilla/tidy_08x_source.zip&amp;cs_f=mozilla_tidy_source/tidy_extension/xpi/sgml-lib/REC-xhtml-basic-20001219/xhtml-basic10.cat&amp;start=1">xhtml-basic10.cat</a>
<a href="/codesearch?hl=en&amp;q=show:F6KFv2XmmH8:Tr7_LGRdAts:Wh1-gQKdOlk&amp;sa=N&amp;ct=rd&amp;cs_p=http://users.skynet.be/mgueury/mozilla/tidy_08x_source.zip&amp;cs_f=mozilla_tidy_source/tidy_extension/xpi/sgml-lib/REC-xhtml-basic-20001219/xhtml-basic10.dtd&amp;start=1">xhtml-basic10.dtd</a>
<a href="/codesearch?hl=en&amp;q=show:Dv3EbRnWD1A:Tr7_LGRdAts:eGUeJDX0bxM&amp;sa=N&amp;ct=rd&amp;cs_p=http://users.skynet.be/mgueury/mozilla/tidy_08x_source.zip&amp;cs_f=mozilla_tidy_source/tidy_extension/xpi/sgml-lib/REC-xhtml-basic-20001219/xhtml-blkphras-1.mod&amp;start=1">xhtml-blkphras-1.mod</a>
<a href="/codesearch?hl=en&amp;q=show:7mAxsaX_S1g:Tr7_LGRdAts:yzcR0AVJsxo&amp;sa=N&amp;ct=rd&amp;cs_p=http://users.skynet.be/mgueury/mozilla/tidy_08x_source.zip&amp;cs_f=mozilla_tidy_source/tidy_extension/xpi/sgml-lib/REC-xhtml-basic-20001219/xhtml-blkstruct-1.mod&amp;start=1">xhtml-blkstruct-1.mod</a>
<a href="/codesearch?hl=en&amp;q=show:B-oF0kL39-U:Tr7_LGRdAts:LEucoNRmWps&amp;sa=N&amp;ct=rd&amp;cs_p=http://users.skynet.be/mgueury/mozilla/tidy_08x_source.zip&amp;cs_f=mozilla_tidy_source/tidy_extension/xpi/sgml-lib/REC-xhtml-basic-20001219/xhtml-charent-1.mod&amp;start=1">xhtml-charent-1.mod</a>
<a href="/codesearch?hl=en&amp;q=show:5sREcGHGNnw:Tr7_LGRdAts:mvovpJWohug&amp;sa=N&amp;ct=rd&amp;cs_p=http://users.skynet.be/mgueury/mozilla/tidy_08x_source.zip&amp;cs_f=mozilla_tidy_source/tidy_extension/xpi/sgml-lib/REC-xhtml-basic-20001219/xhtml-datatypes-1.mod&amp;start=1">xhtml-datatypes-1.mod</a>
<a href="/codesearch?hl=en&amp;q=show:CcwEeSI9Tg8:Tr7_LGRdAts:l_7lNuRDX3w&amp;sa=N&amp;ct=rd&amp;cs_p=http://users.skynet.be/mgueury/mozilla/tidy_08x_source.zip&amp;cs_f=mozilla_tidy_source/tidy_extension/xpi/sgml-lib/REC-xhtml-basic-20001219/xhtml-framework-1.mod&amp;start=1">xhtml-framework-1.mod</a>
<a href="/codesearch?hl=en&amp;q=show:EVlZW-y8Cww:Tr7_LGRdAts:Stz6RUsH-WM&amp;sa=N&amp;ct=rd&amp;cs_p=http://users.skynet.be/mgueury/mozilla/tidy_08x_source.zip&amp;cs_f=mozilla_tidy_source/tidy_extension/xpi/sgml-lib/REC-xhtml-basic-20001219/xhtml-hypertext-1.mod&amp;start=1">xhtml-hypertext-1.mod</a>
<a href="/codesearch?hl=en&amp;q=show:YCPY9MtrJxE:Tr7_LGRdAts:5vQnWyTH-58&amp;sa=N&amp;ct=rd&amp;cs_p=http://users.skynet.be/mgueury/mozilla/tidy_08x_source.zip&amp;cs_f=mozilla_tidy_source/tidy_extension/xpi/sgml-lib/REC-xhtml-basic-20001219/xhtml-image-1.mod&amp;start=1">xhtml-image-1.mod</a>
<b>xhtml-inlphras-1.mod</b>
<a href="/codesearch?hl=en&amp;q=show:nUapWj-lhx8:Tr7_LGRdAts:4oDEldBCZSg&amp;sa=N&amp;ct=rd&amp;cs_p=http://users.skynet.be/mgueury/mozilla/tidy_08x_source.zip&amp;cs_f=mozilla_tidy_source/tidy_extension/xpi/sgml-lib/REC-xhtml-basic-20001219/xhtml-inlstruct-1.mod&amp;start=1">xhtml-inlstruct-1.mod</a>
<a href="/codesearch?hl=en&amp;q=show:ZK0aQQ-N3x4:Tr7_LGRdAts:R8eZI--XAVQ&amp;sa=N&amp;ct=rd&amp;cs_p=http://users.skynet.be/mgueury/mozilla/tidy_08x_source.zip&amp;cs_f=mozilla_tidy_source/tidy_extension/xpi/sgml-lib/REC-xhtml-basic-20001219/xhtml-lat1.ent&amp;start=1">xhtml-lat1.ent</a>
<a href="/codesearch?hl=en&amp;q=show:XHjWPgpbzF8:Tr7_LGRdAts:l49SVkDGAOU&amp;sa=N&amp;ct=rd&amp;cs_p=http://users.skynet.be/mgueury/mozilla/tidy_08x_source.zip&amp;cs_f=mozilla_tidy_source/tidy_extension/xpi/sgml-lib/REC-xhtml-basic-20001219/xhtml-link-1.mod&amp;start=1">xhtml-link-1.mod</a>
<a href="/codesearch?hl=en&amp;q=show:bXaQlrD4pCE:Tr7_LGRdAts:VEGPZoyijx4&amp;sa=N&amp;ct=rd&amp;cs_p=http://users.skynet.be/mgueury/mozilla/tidy_08x_source.zip&amp;cs_f=mozilla_tidy_source/tidy_extension/xpi/sgml-lib/REC-xhtml-basic-20001219/xhtml-list-1.mod&amp;start=1">xhtml-list-1.mod</a>
<a href="/codesearch?hl=en&amp;q=show:9DEDZKpJc80:Tr7_LGRdAts:aq9jzz9TEUw&amp;sa=N&amp;ct=rd&amp;cs_p=http://users.skynet.be/mgueury/mozilla/tidy_08x_source.zip&amp;cs_f=mozilla_tidy_source/tidy_extension/xpi/sgml-lib/REC-xhtml-basic-20001219/xhtml-meta-1.mod&amp;start=1">xhtml-meta-1.mod</a>
<a href="/codesearch?hl=en&amp;q=show:ZbCQMcyG1Ck:Tr7_LGRdAts:daifoYKp1j0&amp;sa=N&amp;ct=rd&amp;cs_p=http://users.skynet.be/mgueury/mozilla/tidy_08x_source.zip&amp;cs_f=mozilla_tidy_source/tidy_extension/xpi/sgml-lib/REC-xhtml-basic-20001219/xhtml-notations-1.mod&amp;start=1">xhtml-notations-1.mod</a>
<a href="/codesearch?hl=en&amp;q=show:WRQhNwJRf-4:Tr7_LGRdAts:XcfrN3S345I&amp;sa=N&amp;ct=rd&amp;cs_p=http://users.skynet.be/mgueury/mozilla/tidy_08x_source.zip&amp;cs_f=mozilla_tidy_source/tidy_extension/xpi/sgml-lib/REC-xhtml-basic-20001219/xhtml-object-1.mod&amp;start=1">xhtml-object-1.mod</a>
<a href="/codesearch?hl=en&amp;q=show:78CmIqcvndQ:Tr7_LGRdAts:D0pFcrWrzSs&amp;sa=N&amp;ct=rd&amp;cs_p=http://users.skynet.be/mgueury/mozilla/tidy_08x_source.zip&amp;cs_f=mozilla_tidy_source/tidy_extension/xpi/sgml-lib/REC-xhtml-basic-20001219/xhtml-param-1.mod&amp;start=1">xhtml-param-1.mod</a>
<a href="/codesearch?hl=en&amp;q=show:czO8DoqlpXs:Tr7_LGRdAts:wcIyDtUCXHw&amp;sa=N&amp;ct=rd&amp;cs_p=http://users.skynet.be/mgueury/mozilla/tidy_08x_source.zip&amp;cs_f=mozilla_tidy_source/tidy_extension/xpi/sgml-lib/REC-xhtml-basic-20001219/xhtml-qname-1.mod&amp;start=1">xhtml-qname-1.mod</a>
<a href="/codesearch?hl=en&amp;q=show:pkLWHQzXsS0:Tr7_LGRdAts:BUqxDR-vgpg&amp;sa=N&amp;ct=rd&amp;cs_p=http://users.skynet.be/mgueury/mozilla/tidy_08x_source.zip&amp;cs_f=mozilla_tidy_source/tidy_extension/xpi/sgml-lib/REC-xhtml-basic-20001219/xhtml-special.ent&amp;start=1">xhtml-special.ent</a>
<a href="/codesearch?hl=en&amp;q=show:GML1woJrJOo:Tr7_LGRdAts:1Sk2c5RSGEo&amp;sa=N&amp;ct=rd&amp;cs_p=http://users.skynet.be/mgueury/mozilla/tidy_08x_source.zip&amp;cs_f=mozilla_tidy_source/tidy_extension/xpi/sgml-lib/REC-xhtml-basic-20001219/xhtml-struct-1.mod&amp;start=1">xhtml-struct-1.mod</a>
<a href="/codesearch?hl=en&amp;q=show:lFa60dodxKo:Tr7_LGRdAts:-E8o-jqXyLI&amp;sa=N&amp;ct=rd&amp;cs_p=http://users.skynet.be/mgueury/mozilla/tidy_08x_source.zip&amp;cs_f=mozilla_tidy_source/tidy_extension/xpi/sgml-lib/REC-xhtml-basic-20001219/xhtml-symbol.ent&amp;start=1">xhtml-symbol.ent</a>
<a href="/codesearch?hl=en&amp;q=show:ivbceWBC3BQ:Tr7_LGRdAts:NMcsdFT7hYQ&amp;sa=N&amp;ct=rd&amp;cs_p=http://users.skynet.be/mgueury/mozilla/tidy_08x_source.zip&amp;cs_f=mozilla_tidy_source/tidy_extension/xpi/sgml-lib/REC-xhtml-basic-20001219/xhtml-text-1.mod&amp;start=1">xhtml-text-1.mod</a>
</pre></td><td>&nbsp;&nbsp;&nbsp;&nbsp;</td><td align=left valign=top width=100%><pre><span id=l1>&lt;!-- ...................................................................... --&gt;
</span><span id=l2>&lt;!-- XHTML Inline Phrasal Module  ......................................... --&gt;
</span><span id=l3>&lt;!-- file: xhtml-inlphras-1.mod
</span><span id=l4>
</span><span id=l5>     This is XHTML, a reformulation of HTML as a modular XML application.
</span><span id=l6>     Copyright 1998-2000 W3C (MIT, INRIA, Keio), All Rights Reserved.
</span><span id=l7>     Revision: xhtml-inlphras-1.mod,v 1.1 2001/05/10 08:41:58 gerald Exp SMI
</span><span id=l8>
</span><span id=l9>     This DTD module is identified by the PUBLIC and SYSTEM identifiers:
</span><span id=l10>
</span><span id=l11>       PUBLIC &quot;-//W3C//ELEMENTS XHTML Inline Phrasal 1.0//EN&quot;
</span><span id=l12>       SYSTEM &quot;http://www.w3.org/TR/xhtml-modulatization/DTD/xhtml-inlphras-1.mod&quot;
</span><span id=l13>
</span><span id=l14>     Revisions:
</span><span id=l15>     (none)
</span><span id=l16>     ....................................................................... --&gt;
</span><span id=l17>
</span><span id=l18>&lt;!-- Inline Phrasal
</span><span id=l19>
</span><span id=l20>        abbr, acronym, cite, code, dfn, em, kbd, q, samp, strong, var
</span><span id=l21>
</span><span id=l22>     This module declares the elements and their attributes used to
</span><span id=l23>     support inline-level phrasal markup.
</span><span id=l24>--&gt;
</span><span id=l25>
</span><span id=l26>&lt;!ENTITY % abbr.element  &quot;INCLUDE&quot; &gt;
</span><span id=l27>&lt;![%abbr.element;[
</span><span id=l28>&lt;!ENTITY % abbr.content
</span><span id=l29>     &quot;( #PCDATA | %Inline.mix; )*&quot;
</span><span id=l30>&gt;
</span><span id=l31>&lt;!ENTITY % abbr.qname  &quot;abbr&quot; &gt;
</span><span id=l32>&lt;!ELEMENT %abbr.qname;  %abbr.content; &gt;
</span><span id=l33>&lt;!-- end of abbr.element --&gt;]]&gt;
</span><span id=l34>
</span><span id=l35>&lt;!ENTITY % abbr.attlist  &quot;INCLUDE&quot; &gt;
</span><span id=l36>&lt;![%abbr.attlist;[
</span><span id=l37>&lt;!ATTLIST %abbr.qname;
</span><span id=l38>      %Common.attrib;
</span><span id=l39>&gt;
</span><span id=l40>&lt;!-- end of abbr.attlist --&gt;]]&gt;
</span><span id=l41>
</span><span id=l42>&lt;!ENTITY % acronym.element  &quot;INCLUDE&quot; &gt;
</span><span id=l43>&lt;![%acronym.element;[
</span><span id=l44>&lt;!ENTITY % acronym.content
</span><span id=l45>     &quot;( #PCDATA | %Inline.mix; )*&quot;
</span><span id=l46>&gt;
</span><span id=l47>&lt;!ENTITY % acronym.qname  &quot;acronym&quot; &gt;
</span><span id=l48>&lt;!ELEMENT %acronym.qname;  %acronym.content; &gt;
</span><span id=l49>&lt;!-- end of acronym.element --&gt;]]&gt;
</span><span id=l50>
</span><span id=l51>&lt;!ENTITY % acronym.attlist  &quot;INCLUDE&quot; &gt;
</span><span id=l52>&lt;![%acronym.attlist;[
</span><span id=l53>&lt;!ATTLIST %acronym.qname;
</span><span id=l54>      %Common.attrib;
</span><span id=l55>&gt;
</span><span id=l56>&lt;!-- end of acronym.attlist --&gt;]]&gt;
</span><span id=l57>
</span><span id=l58>&lt;!ENTITY % cite.element  &quot;INCLUDE&quot; &gt;
</span><span id=l59>&lt;![%cite.element;[
</span><span id=l60>&lt;!ENTITY % cite.content
</span><span id=l61>     &quot;( #PCDATA | %Inline.mix; )*&quot;
</span><span id=l62>&gt;
</span><span id=l63>&lt;!ENTITY % cite.qname  &quot;cite&quot; &gt;
</span><span id=l64>&lt;!ELEMENT %cite.qname;  %cite.content; &gt;
</span><span id=l65>&lt;!-- end of cite.element --&gt;]]&gt;
</span><span id=l66>
</span><span id=l67>&lt;!ENTITY % cite.attlist  &quot;INCLUDE&quot; &gt;
</span><span id=l68>&lt;![%cite.attlist;[
</span><span id=l69>&lt;!ATTLIST %cite.qname;
</span><span id=l70>      %Common.attrib;
</span><span id=l71>&gt;
</span><span id=l72>&lt;!-- end of cite.attlist --&gt;]]&gt;
</span><span id=l73>
</span><span id=l74>&lt;!ENTITY % code.element  &quot;INCLUDE&quot; &gt;
</span><span id=l75>&lt;![%code.element;[
</span><span id=l76>&lt;!ENTITY % code.content
</span><span id=l77>     &quot;( #PCDATA | %Inline.mix; )*&quot;
</span><span id=l78>&gt;
</span><span id=l79>&lt;!ENTITY % code.qname  &quot;code&quot; &gt;
</span><span id=l80>&lt;!ELEMENT %code.qname;  %code.content; &gt;
</span><span id=l81>&lt;!-- end of code.element --&gt;]]&gt;
</span><span id=l82>
</span><span id=l83>&lt;!ENTITY % code.attlist  &quot;INCLUDE&quot; &gt;
</span><span id=l84>&lt;![%code.attlist;[
</span><span id=l85>&lt;!ATTLIST %code.qname;
</span><span id=l86>      %Common.attrib;
</span><span id=l87>&gt;
</span><span id=l88>&lt;!-- end of code.attlist --&gt;]]&gt;
</span><span id=l89>
</span><span id=l90>&lt;!ENTITY % dfn.element  &quot;INCLUDE&quot; &gt;
</span><span id=l91>&lt;![%dfn.element;[
</span><span id=l92>&lt;!ENTITY % dfn.content
</span><span id=l93>     &quot;( #PCDATA | %Inline.mix; )*&quot;
</span><span id=l94>&gt;
</span><span id=l95>&lt;!ENTITY % dfn.qname  &quot;dfn&quot; &gt;
</span><span id=l96>&lt;!ELEMENT %dfn.qname;  %dfn.content; &gt;
</span><span id=l97>&lt;!-- end of dfn.element --&gt;]]&gt;
</span><span id=l98>
</span><span id=l99>&lt;!ENTITY % dfn.attlist  &quot;INCLUDE&quot; &gt;
</span><span id=l100>&lt;![%dfn.attlist;[
</span><span id=l101>&lt;!ATTLIST %dfn.qname;
</span><span id=l102>      %Common.attrib;
</span><span id=l103>&gt;
</span><span id=l104>&lt;!-- end of dfn.attlist --&gt;]]&gt;
</span><span id=l105>
</span><span id=l106>&lt;!ENTITY % em.element  &quot;INCLUDE&quot; &gt;
</span><span id=l107>&lt;![%em.element;[
</span><span id=l108>&lt;!ENTITY % em.content
</span><span id=l109>     &quot;( #PCDATA | %Inline.mix; )*&quot;
</span><span id=l110>&gt;
</span><span id=l111>&lt;!ENTITY % em.qname  &quot;em&quot; &gt;
</span><span id=l112>&lt;!ELEMENT %em.qname;  %em.content; &gt;
</span><span id=l113>&lt;!-- end of em.element --&gt;]]&gt;
</span><span id=l114>
</span><span id=l115>&lt;!ENTITY % em.attlist  &quot;INCLUDE&quot; &gt;
</span><span id=l116>&lt;![%em.attlist;[
</span><span id=l117>&lt;!ATTLIST %em.qname;
</span><span id=l118>      %Common.attrib;
</span><span id=l119>&gt;
</span><span id=l120>&lt;!-- end of em.attlist --&gt;]]&gt;
</span><span id=l121>
</span><span id=l122>&lt;!ENTITY % kbd.element  &quot;INCLUDE&quot; &gt;
</span><span id=l123>&lt;![%kbd.element;[
</span><span id=l124>&lt;!ENTITY % kbd.content
</span><span id=l125>     &quot;( #PCDATA | %Inline.mix; )*&quot;
</span><span id=l126>&gt;
</span><span id=l127>&lt;!ENTITY % kbd.qname  &quot;kbd&quot; &gt;
</span><span id=l128>&lt;!ELEMENT %kbd.qname;  %kbd.content; &gt;
</span><span id=l129>&lt;!-- end of kbd.element --&gt;]]&gt;
</span><span id=l130>
</span><span id=l131>&lt;!ENTITY % kbd.attlist  &quot;INCLUDE&quot; &gt;
</span><span id=l132>&lt;![%kbd.attlist;[
</span><span id=l133>&lt;!ATTLIST %kbd.qname;
</span><span id=l134>      %Common.attrib;
</span><span id=l135>&gt;
</span><span id=l136>&lt;!-- end of kbd.attlist --&gt;]]&gt;
</span><span id=l137>
</span><span id=l138>&lt;!ENTITY % q.element  &quot;INCLUDE&quot; &gt;
</span><span id=l139>&lt;![%q.element;[
</span><span id=l140>&lt;!ENTITY % q.content
</span><span id=l141>     &quot;( #PCDATA | %Inline.mix; )*&quot;
</span><span id=l142>&gt;
</span><span id=l143>&lt;!ENTITY % q.qname  &quot;q&quot; &gt;
</span><span id=l144>&lt;!ELEMENT %q.qname;  %q.content; &gt;
</span><span id=l145>&lt;!-- end of q.element --&gt;]]&gt;
</span><span id=l146>
</span><span id=l147>&lt;!ENTITY % q.attlist  &quot;INCLUDE&quot; &gt;
</span><span id=l148>&lt;![%q.attlist;[
</span><span id=l149>&lt;!ATTLIST %q.qname;
</span><span id=l150>      %Common.attrib;
</span><span id=l151>      cite         %URI.datatype;           #IMPLIED
</span><span id=l152>&gt;
</span><span id=l153>&lt;!-- end of q.attlist --&gt;]]&gt;
</span><span id=l154>
</span><span id=l155>&lt;!ENTITY % samp.element  &quot;INCLUDE&quot; &gt;
</span><span id=l156>&lt;![%samp.element;[
</span><span id=l157>&lt;!ENTITY % samp.content
</span><span id=l158>     &quot;( #PCDATA | %Inline.mix; )*&quot;
</span><span id=l159>&gt;
</span><span id=l160>&lt;!ENTITY % samp.qname  &quot;samp&quot; &gt;
</span><span id=l161>&lt;!ELEMENT %samp.qname;  %samp.content; &gt;
</span><span id=l162>&lt;!-- end of samp.element --&gt;]]&gt;
</span><span id=l163>
</span><span id=l164>&lt;!ENTITY % samp.attlist  &quot;INCLUDE&quot; &gt;
</span><span id=l165>&lt;![%samp.attlist;[
</span><span id=l166>&lt;!ATTLIST %samp.qname;
</span><span id=l167>      %Common.attrib;
</span><span id=l168>&gt;
</span><span id=l169>&lt;!-- end of samp.attlist --&gt;]]&gt;
</span><span id=l170>
</span><span id=l171>&lt;!ENTITY % strong.element  &quot;INCLUDE&quot; &gt;
</span><span id=l172>&lt;![%strong.element;[
</span><span id=l173>&lt;!ENTITY % strong.content
</span><span id=l174>     &quot;( #PCDATA | %Inline.mix; )*&quot;
</span><span id=l175>&gt;
</span><span id=l176>&lt;!ENTITY % strong.qname  &quot;strong&quot; &gt;
</span><span id=l177>&lt;!ELEMENT %strong.qname;  %strong.content; &gt;
</span><span id=l178>&lt;!-- end of strong.element --&gt;]]&gt;
</span><span id=l179>
</span><span id=l180>&lt;!ENTITY % strong.attlist  &quot;INCLUDE&quot; &gt;
</span><span id=l181>&lt;![%strong.attlist;[
</span><span id=l182>&lt;!ATTLIST %strong.qname;
</span><span id=l183>      %Common.attrib;
</span><span id=l184>&gt;
</span><span id=l185>&lt;!-- end of strong.attlist --&gt;]]&gt;
</span><span id=l186>
</span><span id=l187>&lt;!ENTITY % var.element  &quot;INCLUDE&quot; &gt;
</span><span id=l188>&lt;![%var.element;[
</span><span id=l189>&lt;!ENTITY % var.content
</span><span id=l190>     &quot;( #PCDATA | %Inline.mix; )*&quot;
</span><span id=l191>&gt;
</span><span id=l192>&lt;!ENTITY % var.qname  &quot;var&quot; &gt;
</span><span id=l193>&lt;!ELEMENT %var.qname;  %var.content; &gt;
</span><span id=l194>&lt;!-- end of var.element --&gt;]]&gt;
</span><span id=l195>
</span><span id=l196>&lt;!ENTITY % var.attlist  &quot;INCLUDE&quot; &gt;
</span><span id=l197>&lt;![%var.attlist;[
</span><span id=l198>&lt;!ATTLIST %var.qname;
</span><span id=l199>      %Common.attrib;
</span><span id=l200>&gt;
</span><span id=l201>&lt;!-- end of var.attlist --&gt;]]&gt;
</span><span id=l202>
</span><span id=l203>&lt;!-- end of xhtml-inlphras-1.mod --&gt;
</span></pre></td></tr></table><table cellspacing=0 cellpadding=0 border=0 width=100%><tr height=1 bgcolor=#000000><td bgcolor=#000000 colspan=3></td></tr><tr height=10><td></td></tr><tr><td><font size=-1><code class=fn>mozilla_tidy_source/tidy_extension/xpi/sgml-lib/REC-xhtml-basic-20001219/xhtml-inlphras-1.mod</code> from<br><span class="a"><a href="codesearch/url?hl=en&ct=rpc&url=http://users.skynet.be/mgueury/mozilla/tidy_08x_source.zip&usg=AFQjCNFecLonw5eEXUaOOFUc28sq6tFk9w">http://users.skynet.be/mgueury/mozilla/tidy_08x_source.zip</a></span> - <span class="a">Unknown License</span><br><br></font></tr></tr></table></body></html>