<html><head><meta http-equiv="content-type" content="text/html; charset=UTF-8"><title>css-validator/html/parser/dtds/strict_nores.dtd - Google Code Search</title><style><!--
body {background-color:white;color:black;font-family:Arial, sans-serif;margin:8px;margin-top:3px}
.j{white-space:-moz-pre-wrap;	white-space:-pre-wrap;	white-space:-o-pre-wrap;	word-wrap:break-word;	margin-top:4px;margin-bottom:4px;border:1px solid silver;background-color:#f5f5f5;padding:0.5em;width:85%;color:#222}
#title {border-top:1px solid #36c;background-color:#e5ecf9;margin:0;padding:0;padding-top:1px;padding-bottom:1px;padding-left:3px;margin-top:5px}
.expl {font-size:small;margin-left:2em;margin-right:2em}
.f {font-size:small;margin-bottom:1.5em}
.hl{font-weight:bold;color:#000}
.h{margin-top:1em;margin-bottom:0px}
.k {background-color:#36c}
.a,.a a{font-size:small;color:green}
a:active{color:#f00}a:link{color:#00c}a:visited{color:#551a8b}a.s,.s a{font-size:small;color:#77c}.a,.a a{font-size:small;color:green}.i, .i:link {color:#a90a08;font-size:small}
.n .i {font-size:10pt;font-weight:bold}
.n a {font-size:10pt;color:#000}
.b a {font-size:12pt;color:#00c;font-weight:bold}
code {color: #007000; font-family:"bogus font here",monospace; font-size: 100%;}
code.fn {color: #007000; font-family:"bogus font here",monospace; font-size: 100%;}
div.n {margin-top:1ex}
img{border:0}
.chl {background:#ffa}
.cchl {background:#aff}
.cc {color:#060}
.input_table tr td {vertical-align:top;}--></style>
<script type="text/javascript">
<!--
function sf(){}
// --></script></head><body bgcolor=#ffffff onload="sf()"><table cellspacing=0 cellpadding=0 border=0 width=100%><tr><td align=left valign=top><a href="/codesearch"><img src="http://www.google.com/intl/en/images/codesearch_logo_sm.gif" width=150 height=55 alt="" border=0 vspace=12></a></td><td width=10></td><td align=left><font size=-1>This is Google's cached copy of <code class=fn>css-validator/html/parser/dtds/strict_nores.dtd</code> from<br><span class="a"><a href="codesearch/url?hl=en&ct=rpc&url=http://dist.bsdlab.org/w3c-css-validator-20041005.tar.gz&usg=AFQjCNEqwSYiWNNGk1CKTrmvkS7D1e_9Ow">http://dist.bsdlab.org/w3c-css-validator-20041005.tar.gz</a></span> <br><br><i>Google is neither affiliated with the authors of this page nor responsible for its content.</i></font></td></tr><tr height=10><td colspan=3></td></tr><tr height=1 bgcolor=#000000><td bgcolor=#000000 colspan=3></td></tr></table><br><table cellspacing=0 cellpadding=0 border=0 width=100%><tr><td align=left valign=top colspan=4><pre><a href="/codesearch?hl=en&amp;q=show:fF28ayWXe7o:w7Os5kngbIk&amp;sa=N&amp;ct=rdp&amp;cs_p=http://dist.bsdlab.org">http://dist.bsdlab.org</a>/<a href="/codesearch?hl=en&amp;q=show:5alBq7nswjc:sI315g-v8pM&amp;sa=N&amp;ct=rdp&amp;cs_p=http://dist.bsdlab.org/w3c-css-validator-20041005.tar.gz">w3c-css-validator-20041005.tar.gz</a>/<a href="/codesearch?hl=en&amp;q=show:Qa-3L8e8-C0:-GHOfc3mkfE&amp;sa=N&amp;ct=rdp&amp;cs_p=http://dist.bsdlab.org/w3c-css-validator-20041005.tar.gz&amp;cs_f=css-validator">css-validator</a>/<a href="/codesearch?hl=en&amp;q=show:zsHhIayi0_g:hp1hT9l9r3U&amp;sa=N&amp;ct=rdp&amp;cs_p=http://dist.bsdlab.org/w3c-css-validator-20041005.tar.gz&amp;cs_f=css-validator/html">html</a>/<a href="/codesearch?hl=en&amp;q=show:RCKjMj_ZsCI:MTiLsfsxwCg&amp;sa=N&amp;ct=rdp&amp;cs_p=http://dist.bsdlab.org/w3c-css-validator-20041005.tar.gz&amp;cs_f=css-validator/html/parser">parser</a>/<a href="/codesearch?hl=en&amp;q=show:mLwh_dy0ZbY:nU2uN60hsgg&amp;sa=N&amp;ct=rdp&amp;cs_p=http://dist.bsdlab.org/w3c-css-validator-20041005.tar.gz&amp;cs_f=css-validator/html/parser/dtds">dtds</a>/</pre></td></tr><tr><td>&nbsp;&nbsp;&nbsp;&nbsp;</td><td align=left valign=top><pre><a href="/codesearch?hl=en&amp;q=show:Tvkeg6YYEtE:mLwh_dy0ZbY:0GszkuaoVZQ&amp;sa=N&amp;ct=rd&amp;cs_p=http://dist.bsdlab.org/w3c-css-validator-20041005.tar.gz&amp;cs_f=css-validator/html/parser/dtds/HTML4.decl&amp;start=1">HTML4.decl</a>
<a href="/codesearch?hl=en&amp;q=show:3EZJemra3Gs:mLwh_dy0ZbY:4SeMD1N_sjk&amp;sa=N&amp;ct=rd&amp;cs_p=http://dist.bsdlab.org/w3c-css-validator-20041005.tar.gz&amp;cs_f=css-validator/html/parser/dtds/HTMLlat1.ent&amp;start=1">HTMLlat1.ent</a>
<a href="/codesearch?hl=en&amp;q=show:M5spgZiHwjM:mLwh_dy0ZbY:EX3IWbwzOiY&amp;sa=N&amp;ct=rd&amp;cs_p=http://dist.bsdlab.org/w3c-css-validator-20041005.tar.gz&amp;cs_f=css-validator/html/parser/dtds/HTMLmisc.ent&amp;start=1">HTMLmisc.ent</a>
<a href="/codesearch?hl=en&amp;q=show:BYEztAYZvkA:mLwh_dy0ZbY:o8BHXIAvdv4&amp;sa=N&amp;ct=rd&amp;cs_p=http://dist.bsdlab.org/w3c-css-validator-20041005.tar.gz&amp;cs_f=css-validator/html/parser/dtds/HTMLspecial.ent&amp;start=1">HTMLspecial.ent</a>
<a href="/codesearch?hl=en&amp;q=show:oynVIcdFvlk:mLwh_dy0ZbY:wJ682qZQJ8I&amp;sa=N&amp;ct=rd&amp;cs_p=http://dist.bsdlab.org/w3c-css-validator-20041005.tar.gz&amp;cs_f=css-validator/html/parser/dtds/HTMLsym.ent&amp;start=1">HTMLsym.ent</a>
<a href="/codesearch?hl=en&amp;q=show:p2OKXjCNUw8:mLwh_dy0ZbY:q6DxInnQ4N8&amp;sa=N&amp;ct=rd&amp;cs_p=http://dist.bsdlab.org/w3c-css-validator-20041005.tar.gz&amp;cs_f=css-validator/html/parser/dtds/HTMLsymbol.ent&amp;start=1">HTMLsymbol.ent</a>
<a href="/codesearch?hl=en&amp;q=show:Bfc6tFEUjSU:mLwh_dy0ZbY:SpZ7hyGqEyk&amp;sa=N&amp;ct=rd&amp;cs_p=http://dist.bsdlab.org/w3c-css-validator-20041005.tar.gz&amp;cs_f=css-validator/html/parser/dtds/ISOlat1.ent&amp;start=1">ISOlat1.ent</a>
<a href="/codesearch?hl=en&amp;q=show:Lb_PFq0ux1w:mLwh_dy0ZbY:LTRFyadQXbY&amp;sa=N&amp;ct=rd&amp;cs_p=http://dist.bsdlab.org/w3c-css-validator-20041005.tar.gz&amp;cs_f=css-validator/html/parser/dtds/ISOlat1.sgml&amp;start=1">ISOlat1.sgml</a>
<a href="/codesearch?hl=en&amp;q=show:lXAqbhJeeUQ:mLwh_dy0ZbY:vBuwb15DcrA&amp;sa=N&amp;ct=rd&amp;cs_p=http://dist.bsdlab.org/w3c-css-validator-20041005.tar.gz&amp;cs_f=css-validator/html/parser/dtds/cougar.dtd&amp;start=1">cougar.dtd</a>
<a href="/codesearch?hl=en&amp;q=show:YivtZBc45hE:mLwh_dy0ZbY:_7A38BQdzcA&amp;sa=N&amp;ct=rd&amp;cs_p=http://dist.bsdlab.org/w3c-css-validator-20041005.tar.gz&amp;cs_f=css-validator/html/parser/dtds/frameset.dtd&amp;start=1">frameset.dtd</a>
<a href="/codesearch?hl=en&amp;q=show:U7JzOzg1N1Y:mLwh_dy0ZbY:63jKjlCTvAc&amp;sa=N&amp;ct=rd&amp;cs_p=http://dist.bsdlab.org/w3c-css-validator-20041005.tar.gz&amp;cs_f=css-validator/html/parser/dtds/html2-0.dtd&amp;start=1">html2-0.dtd</a>
<a href="/codesearch?hl=en&amp;q=show:pgPLmD9lZ2E:mLwh_dy0ZbY:EWBWLA96cSc&amp;sa=N&amp;ct=rd&amp;cs_p=http://dist.bsdlab.org/w3c-css-validator-20041005.tar.gz&amp;cs_f=css-validator/html/parser/dtds/html2-0s.dtd&amp;start=1">html2-0s.dtd</a>
<a href="/codesearch?hl=en&amp;q=show:jem46KsJI58:mLwh_dy0ZbY:AucAeMOnpu4&amp;sa=N&amp;ct=rd&amp;cs_p=http://dist.bsdlab.org/w3c-css-validator-20041005.tar.gz&amp;cs_f=css-validator/html/parser/dtds/html2-1.dtd&amp;start=1">html2-1.dtd</a>
<a href="/codesearch?hl=en&amp;q=show:GXRINXIwtmE:mLwh_dy0ZbY:Fxpb4Xl9qT4&amp;sa=N&amp;ct=rd&amp;cs_p=http://dist.bsdlab.org/w3c-css-validator-20041005.tar.gz&amp;cs_f=css-validator/html/parser/dtds/html2-1s.dtd&amp;start=1">html2-1s.dtd</a>
<a href="/codesearch?hl=en&amp;q=show:4ysUlqCqNas:mLwh_dy0ZbY:U7xT2B28xa0&amp;sa=N&amp;ct=rd&amp;cs_p=http://dist.bsdlab.org/w3c-css-validator-20041005.tar.gz&amp;cs_f=css-validator/html/parser/dtds/html2-net.dtd&amp;start=1">html2-net.dtd</a>
<a href="/codesearch?hl=en&amp;q=show:W60BxcwbL2U:mLwh_dy0ZbY:jEacxmBKWQU&amp;sa=N&amp;ct=rd&amp;cs_p=http://dist.bsdlab.org/w3c-css-validator-20041005.tar.gz&amp;cs_f=css-validator/html/parser/dtds/html2-s.dtd&amp;start=1">html2-s.dtd</a>
<a href="/codesearch?hl=en&amp;q=show:HOVCFA72moE:mLwh_dy0ZbY:cGw90rwv0S0&amp;sa=N&amp;ct=rd&amp;cs_p=http://dist.bsdlab.org/w3c-css-validator-20041005.tar.gz&amp;cs_f=css-validator/html/parser/dtds/html2.dtd&amp;start=1">html2.dtd</a>
<a href="/codesearch?hl=en&amp;q=show:rQzRSS-O9BA:mLwh_dy0ZbY:hiW4OGuJcbA&amp;sa=N&amp;ct=rd&amp;cs_p=http://dist.bsdlab.org/w3c-css-validator-20041005.tar.gz&amp;cs_f=css-validator/html/parser/dtds/html2.sgml&amp;start=1">html2.sgml</a>
<a href="/codesearch?hl=en&amp;q=show:iSnF-311XL8:mLwh_dy0ZbY:GrxeCdCQ4iE&amp;sa=N&amp;ct=rd&amp;cs_p=http://dist.bsdlab.org/w3c-css-validator-20041005.tar.gz&amp;cs_f=css-validator/html/parser/dtds/html3.dtd&amp;start=1">html3.dtd</a>
<a href="/codesearch?hl=en&amp;q=show:0sYd7dI6wzY:mLwh_dy0ZbY:3OvEIAujvIg&amp;sa=N&amp;ct=rd&amp;cs_p=http://dist.bsdlab.org/w3c-css-validator-20041005.tar.gz&amp;cs_f=css-validator/html/parser/dtds/html32.dtd&amp;start=1">html32.dtd</a>
<a href="/codesearch?hl=en&amp;q=show:c0P4LXQ-rHg:mLwh_dy0ZbY:RtpOB08hmUM&amp;sa=N&amp;ct=rd&amp;cs_p=http://dist.bsdlab.org/w3c-css-validator-20041005.tar.gz&amp;cs_f=css-validator/html/parser/dtds/html32.dtd.COOL&amp;start=1">html32.dtd.COOL</a>
<a href="/codesearch?hl=en&amp;q=show:0sYd7dI6wzY:mLwh_dy0ZbY:cr1d5Ncd0Qc&amp;sa=N&amp;ct=rd&amp;cs_p=http://dist.bsdlab.org/w3c-css-validator-20041005.tar.gz&amp;cs_f=css-validator/html/parser/dtds/html32.dtd.ORIG&amp;start=1">html32.dtd.ORIG</a>
<a href="/codesearch?hl=en&amp;q=show:IU9CqXC-U5Y:mLwh_dy0ZbY:xq4qMx_LfQY&amp;sa=N&amp;ct=rd&amp;cs_p=http://dist.bsdlab.org/w3c-css-validator-20041005.tar.gz&amp;cs_f=css-validator/html/parser/dtds/html4.dtd&amp;start=1">html4.dtd</a>
<a href="/codesearch?hl=en&amp;q=show:_Ad4uk81Ig0:mLwh_dy0ZbY:eFB6JmyZKkc&amp;sa=N&amp;ct=rd&amp;cs_p=http://dist.bsdlab.org/w3c-css-validator-20041005.tar.gz&amp;cs_f=css-validator/html/parser/dtds/july96-HTML.dtd&amp;start=1">july96-HTML.dtd</a>
<a href="/codesearch?hl=en&amp;q=show:_Ad4uk81Ig0:mLwh_dy0ZbY:gWU3Y4TDXLE&amp;sa=N&amp;ct=rd&amp;cs_p=http://dist.bsdlab.org/w3c-css-validator-20041005.tar.gz&amp;cs_f=css-validator/html/parser/dtds/july96.dtd&amp;start=1">july96.dtd</a>
<a href="/codesearch?hl=en&amp;q=show:hsf8lt92VMs:mLwh_dy0ZbY:volcQQtTlWI&amp;sa=N&amp;ct=rd&amp;cs_p=http://dist.bsdlab.org/w3c-css-validator-20041005.tar.gz&amp;cs_f=css-validator/html/parser/dtds/lat1html.ent&amp;start=1">lat1html.ent</a>
<a href="/codesearch?hl=en&amp;q=show:Et1DGLISJfs:mLwh_dy0ZbY:FSfAsOn2eHk&amp;sa=N&amp;ct=rd&amp;cs_p=http://dist.bsdlab.org/w3c-css-validator-20041005.tar.gz&amp;cs_f=css-validator/html/parser/dtds/loose.dtd&amp;start=1">loose.dtd</a>
<a href="/codesearch?hl=en&amp;q=show:_aHKzsg1NDc:mLwh_dy0ZbY:lU2nI-WwXLQ&amp;sa=N&amp;ct=rd&amp;cs_p=http://dist.bsdlab.org/w3c-css-validator-20041005.tar.gz&amp;cs_f=css-validator/html/parser/dtds/loose_nores.dtd&amp;start=1">loose_nores.dtd</a>
<a href="/codesearch?hl=en&amp;q=show:2uomOwBTRCY:mLwh_dy0ZbY:YwIVcz37HBM&amp;sa=N&amp;ct=rd&amp;cs_p=http://dist.bsdlab.org/w3c-css-validator-20041005.tar.gz&amp;cs_f=css-validator/html/parser/dtds/public.map&amp;start=1">public.map</a>
<a href="/codesearch?hl=en&amp;q=show:4MkrzyjUNPA:mLwh_dy0ZbY:_H0MW_x6N8M&amp;sa=N&amp;ct=rd&amp;cs_p=http://dist.bsdlab.org/w3c-css-validator-20041005.tar.gz&amp;cs_f=css-validator/html/parser/dtds/strict.dtd&amp;start=1">strict.dtd</a>
<b>strict_nores.dtd</b>
</pre></td><td>&nbsp;&nbsp;&nbsp;&nbsp;</td><td align=left valign=top width=100%><pre><span id=l1>&lt;!--
</span><span id=l2>    This is HTML 4.0 Strict DTD, which excludes the presentation
</span><span id=l3>    attributes and elements that W3C expects to phase out as
</span><span id=l4>    support for style sheets matures. Authors should use the Strict
</span><span id=l5>    DTD when possible, but may use the Transitional DTD when support
</span><span id=l6>    for presentation attribute and elements is required.
</span><span id=l7>
</span><span id=l8>    HTML 4.0 includes mechanisms for style sheets, scripting,
</span><span id=l9>    embedding objects, improved support for right to left and mixed
</span><span id=l10>    direction text, and enhancements to forms for improved
</span><span id=l11>    accessibility for people with disabilities.
</span><span id=l12>
</span><span id=l13>          Draft: $Date: 2002/03/13 19:59:20 $
</span><span id=l14>
</span><span id=l15>          Authors:
</span><span id=l16>              Dave Raggett &lt;dsr@w3.org&gt;
</span><span id=l17>              Arnaud Le Hors &lt;lehors@w3.org&gt;
</span><span id=l18>              Ian Jacobs &lt;ij@w3.org&gt;
</span><span id=l19>
</span><span id=l20>    Further information about HTML 4.0 is available at:
</span><span id=l21>
</span><span id=l22>        http://www.w3.org/TR/REC-html40
</span><span id=l23>--&gt;
</span><span id=l24>&lt;!--
</span><span id=l25>    Typical usage:
</span><span id=l26>
</span><span id=l27>    &lt;!DOCTYPE HTML PUBLIC &quot;-//W3C//DTD HTML 4.0//EN&quot;
</span><span id=l28>            &quot;http://www.w3.org/TR/REC-html40/strict.dtd&quot;&gt;
</span><span id=l29>    &lt;html&gt;
</span><span id=l30>    &lt;head&gt;
</span><span id=l31>    ...
</span><span id=l32>    &lt;/head&gt;
</span><span id=l33>    &lt;body&gt;
</span><span id=l34>    ...
</span><span id=l35>    &lt;/body&gt;
</span><span id=l36>    &lt;/html&gt;
</span><span id=l37>
</span><span id=l38>    The URI used as a system identifier with the public identifier allows
</span><span id=l39>    the user agent to download the DTD and entity sets as needed.
</span><span id=l40>
</span><span id=l41>    The FPI for the Transitional HTML 4.0 DTD is:
</span><span id=l42>
</span><span id=l43>        &quot;-//W3C//DTD HTML 4.0 Transitional//EN&quot;
</span><span id=l44>
</span><span id=l45>    and its URI is:
</span><span id=l46>
</span><span id=l47>        http://www.w3.org/TR/REC-html40/loose.dtd
</span><span id=l48>
</span><span id=l49>    If you are writing a document that includes frames, use
</span><span id=l50>    the following FPI:
</span><span id=l51>
</span><span id=l52>        &quot;-//W3C//DTD HTML 4.0 Frameset//EN&quot;
</span><span id=l53>
</span><span id=l54>    with the URI:
</span><span id=l55>
</span><span id=l56>        http://www.w3.org/TR/REC-html40/frameset.dtd
</span><span id=l57>
</span><span id=l58>    The following URIs are supported in relation to HTML 4.0
</span><span id=l59>
</span><span id=l60>    &quot;http://www.w3.org/TR/REC-html40/strict.dtd&quot; (Strict DTD)
</span><span id=l61>    &quot;http://www.w3.org/TR/REC-html40/loose.dtd&quot; (Loose DTD)
</span><span id=l62>    &quot;http://www.w3.org/TR/REC-html40/frameset.dtd&quot; (Frameset DTD)
</span><span id=l63>    &quot;http://www.w3.org/TR/REC-html40/HTMLlat1.ent&quot; (Latin-1 entities)
</span><span id=l64>    &quot;http://www.w3.org/TR/REC-html40/HTMLsymbol.ent&quot; (Symbol entities)
</span><span id=l65>    &quot;http://www.w3.org/TR/REC-html40/HTMLspecial.ent&quot; (Special entities)
</span><span id=l66>
</span><span id=l67>    These URIs point to the latest version of each file. To reference
</span><span id=l68>    this specific revision use the following URIs:
</span><span id=l69>
</span><span id=l70>    &quot;http://www.w3.org/TR/1998/REC-html40-19980424/strict.dtd&quot;
</span><span id=l71>    &quot;http://www.w3.org/TR/1998/REC-html40-19980424/loose.dtd&quot;
</span><span id=l72>    &quot;http://www.w3.org/TR/1998/REC-html40-19980424/frameset.dtd&quot;
</span><span id=l73>    &quot;http://www.w3.org/TR/1998/REC-html40-19980424/HTMLlat1.ent&quot;
</span><span id=l74>    &quot;http://www.w3.org/TR/1998/REC-html40-19980424/HTMLsymbol.ent&quot;
</span><span id=l75>    &quot;http://www.w3.org/TR/1998/REC-html40-19980424/HTMLspecial.ent&quot;
</span><span id=l76>
</span><span id=l77>--&gt;
</span><span id=l78>
</span><span id=l79>&lt;!--================== Imported Names ====================================--&gt;
</span><span id=l80>
</span><span id=l81>&lt;!ENTITY % ContentType &quot;CDATA&quot;
</span><span id=l82>    -- media type, as per [RFC2045]
</span><span id=l83>    --&gt;
</span><span id=l84>
</span><span id=l85>&lt;!ENTITY % ContentTypes &quot;CDATA&quot;
</span><span id=l86>    -- comma-separated list of media types, as per [RFC2045]
</span><span id=l87>    --&gt;
</span><span id=l88>
</span><span id=l89>&lt;!ENTITY % Charset &quot;CDATA&quot;
</span><span id=l90>    -- a character encoding, as per [RFC2045]
</span><span id=l91>    --&gt;
</span><span id=l92>
</span><span id=l93>&lt;!ENTITY % Charsets &quot;CDATA&quot;
</span><span id=l94>    -- a space separated list of character encodings, as per [RFC2045]
</span><span id=l95>    --&gt;
</span><span id=l96>
</span><span id=l97>&lt;!ENTITY % LanguageCode &quot;NAME&quot;
</span><span id=l98>    -- a language code, as per [RFC1766]
</span><span id=l99>    --&gt;
</span><span id=l100>
</span><span id=l101>&lt;!ENTITY % Character &quot;CDATA&quot;
</span><span id=l102>    -- a single character from [ISO10646]
</span><span id=l103>    --&gt;
</span><span id=l104>
</span><span id=l105>&lt;!ENTITY % LinkTypes &quot;CDATA&quot;
</span><span id=l106>    -- space-separated list of link types
</span><span id=l107>    --&gt;
</span><span id=l108>
</span><span id=l109>&lt;!ENTITY % MediaDesc &quot;CDATA&quot;
</span><span id=l110>    -- single or comma-separated list of media descriptors
</span><span id=l111>    --&gt;
</span><span id=l112>
</span><span id=l113>&lt;!ENTITY % URI &quot;CDATA&quot;
</span><span id=l114>    -- a Uniform Resource Identifier,
</span><span id=l115>       see [URI]
</span><span id=l116>    --&gt;
</span><span id=l117>
</span><span id=l118>&lt;!ENTITY % Datetime &quot;CDATA&quot; -- date and time information. ISO date format --&gt;
</span><span id=l119>
</span><span id=l120>
</span><span id=l121>&lt;!ENTITY % Script &quot;CDATA&quot; -- script expression --&gt;
</span><span id=l122>
</span><span id=l123>&lt;!ENTITY % StyleSheet &quot;CDATA&quot; -- style sheet data --&gt;
</span><span id=l124>
</span><span id=l125>
</span><span id=l126>
</span><span id=l127>&lt;!ENTITY % Text &quot;CDATA&quot;&gt;
</span><span id=l128>
</span><span id=l129>
</span><span id=l130>&lt;!-- Parameter Entities --&gt;
</span><span id=l131>
</span><span id=l132>&lt;!ENTITY % head.misc &quot;SCRIPT|STYLE|META|LINK|OBJECT&quot; -- repeatable head elements --&gt;
</span><span id=l133>
</span><span id=l134>&lt;!ENTITY % heading &quot;H1|H2|H3|H4|H5|H6&quot;&gt;
</span><span id=l135>
</span><span id=l136>&lt;!ENTITY % list &quot;UL | OL&quot;&gt;
</span><span id=l137>
</span><span id=l138>&lt;!ENTITY % preformatted &quot;PRE&quot;&gt;
</span><span id=l139>
</span><span id=l140>
</span><span id=l141>&lt;!--================ Character mnemonic entities =========================--&gt;
</span><span id=l142>
</span><span id=l143>&lt;!ENTITY % HTMLlat1 PUBLIC
</span><span id=l144>   &quot;-//W3C//ENTITIES Latin1//EN//HTML&quot;
</span><span id=l145>   &quot;http://www.w3.org/TR/1998/REC-html40-19980424/HTMLlat1.ent&quot;&gt;
</span><span id=l146>%HTMLlat1;
</span><span id=l147>
</span><span id=l148>&lt;!ENTITY % HTMLsymbol PUBLIC
</span><span id=l149>   &quot;-//W3C//ENTITIES Symbols//EN//HTML&quot;
</span><span id=l150>   &quot;http://www.w3.org/TR/1998/REC-html40-19980424/HTMLsymbol.ent&quot;&gt;
</span><span id=l151>%HTMLsymbol;
</span><span id=l152>
</span><span id=l153>&lt;!ENTITY % HTMLspecial PUBLIC
</span><span id=l154>   &quot;-//W3C//ENTITIES Special//EN//HTML&quot;
</span><span id=l155>   &quot;http://www.w3.org/TR/1998/REC-html40-19980424/HTMLspecial.ent&quot;&gt;
</span><span id=l156>%HTMLspecial;
</span><span id=l157>&lt;!--=================== Generic Attributes ===============================--&gt;
</span><span id=l158>
</span><span id=l159>&lt;!ENTITY % coreattrs
</span><span id=l160> &quot;id          ID             #IMPLIED  -- document-wide unique id --
</span><span id=l161>  class       CDATA          #IMPLIED  -- space separated list of classes --
</span><span id=l162>  style       %StyleSheet;   #IMPLIED  -- associated style info --
</span><span id=l163>  title       %Text;         #IMPLIED  -- advisory title/amplification --&quot;
</span><span id=l164>  &gt;
</span><span id=l165>
</span><span id=l166>&lt;!ENTITY % i18n
</span><span id=l167> &quot;lang        %LanguageCode; #IMPLIED  -- language code --
</span><span id=l168>  dir         (ltr|rtl)      #IMPLIED  -- direction for weak/neutral text --&quot;
</span><span id=l169>  &gt;
</span><span id=l170>
</span><span id=l171>&lt;!ENTITY % events
</span><span id=l172> &quot;onclick     %Script;       #IMPLIED  -- a pointer button was clicked --
</span><span id=l173>  ondblclick  %Script;       #IMPLIED  -- a pointer button was double clicked--
</span><span id=l174>  onmousedown %Script;       #IMPLIED  -- a pointer button was pressed down --
</span><span id=l175>  onmouseup   %Script;       #IMPLIED  -- a pointer button was released --
</span><span id=l176>  onmouseover %Script;       #IMPLIED  -- a pointer was moved onto --
</span><span id=l177>  onmousemove %Script;       #IMPLIED  -- a pointer was moved within --
</span><span id=l178>  onmouseout  %Script;       #IMPLIED  -- a pointer was moved away --
</span><span id=l179>  onkeypress  %Script;       #IMPLIED  -- a key was pressed and released --
</span><span id=l180>  onkeydown   %Script;       #IMPLIED  -- a key was pressed down --
</span><span id=l181>  onkeyup     %Script;       #IMPLIED  -- a key was released --&quot;
</span><span id=l182>  &gt;
</span><span id=l183>
</span><span id=l184>
</span><span id=l185>&lt;!ENTITY % attrs &quot;%coreattrs; %i18n; %events;&quot;&gt;
</span><span id=l186>
</span><span id=l187>
</span><span id=l188>&lt;!--=================== Text Markup ======================================--&gt;
</span><span id=l189>
</span><span id=l190>&lt;!ENTITY % fontstyle
</span><span id=l191> &quot;TT | I | B | BIG | SMALL&quot;&gt;
</span><span id=l192>
</span><span id=l193>&lt;!ENTITY % phrase &quot;EM | STRONG | DFN | CODE |
</span><span id=l194>                   SAMP | KBD | VAR | CITE | ABBR | ACRONYM&quot; &gt;
</span><span id=l195>
</span><span id=l196>&lt;!ENTITY % special
</span><span id=l197>   &quot;A | IMG | OBJECT | BR | SCRIPT | MAP | Q | SUB | SUP | SPAN | BDO&quot;&gt;
</span><span id=l198>
</span><span id=l199>&lt;!ENTITY % formctrl &quot;INPUT | SELECT | TEXTAREA | LABEL | BUTTON&quot;&gt;
</span><span id=l200>
</span><span id=l201>&lt;!-- %inline; covers inline or &quot;text-level&quot; elements --&gt;
</span><span id=l202>&lt;!ENTITY % inline &quot;#PCDATA | %fontstyle; | %phrase; | %special; | %formctrl;&quot;&gt;
</span><span id=l203>
</span><span id=l204>&lt;!ELEMENT (%fontstyle;|%phrase;) - - (%inline;)*&gt;
</span><span id=l205>&lt;!ATTLIST (%fontstyle;|%phrase;)
</span><span id=l206>  %attrs;                              -- %coreattrs, %i18n, %events --
</span><span id=l207>  &gt;
</span><span id=l208>
</span><span id=l209>&lt;!ELEMENT (SUB|SUP) - - (%inline;)*    -- subscript, superscript --&gt;
</span><span id=l210>&lt;!ATTLIST (SUB|SUP)
</span><span id=l211>  %attrs;                              -- %coreattrs, %i18n, %events --
</span><span id=l212>  &gt;
</span><span id=l213>
</span><span id=l214>&lt;!ELEMENT SPAN - - (%inline;)*         -- generic language/style container --&gt;
</span><span id=l215>&lt;!ATTLIST SPAN
</span><span id=l216>  %attrs;                              -- %coreattrs, %i18n, %events --
</span><span id=l217>  &gt;
</span><span id=l218>
</span><span id=l219>&lt;!ELEMENT BDO - - (%inline;)*          -- I18N BiDi over-ride --&gt;
</span><span id=l220>&lt;!ATTLIST BDO
</span><span id=l221>  %coreattrs;                          -- id, class, style, title --
</span><span id=l222>  lang        %LanguageCode; #IMPLIED  -- language code --
</span><span id=l223>  dir         (ltr|rtl)      #REQUIRED -- directionality --
</span><span id=l224>  &gt;
</span><span id=l225>
</span><span id=l226>
</span><span id=l227>&lt;!ELEMENT BR - O EMPTY                 -- forced line break --&gt;
</span><span id=l228>&lt;!ATTLIST BR
</span><span id=l229>  %coreattrs;                          -- id, class, style, title --
</span><span id=l230>  &gt;
</span><span id=l231>
</span><span id=l232>&lt;!--================== HTML content models ===============================--&gt;
</span><span id=l233>
</span><span id=l234>&lt;!--
</span><span id=l235>    HTML has two basic content models:
</span><span id=l236>
</span><span id=l237>        %inline;     character level elements and text strings
</span><span id=l238>        %block;      block-like elements e.g. paragraphs and lists
</span><span id=l239>--&gt;
</span><span id=l240>
</span><span id=l241>&lt;!ENTITY % block
</span><span id=l242>     &quot;P | %heading; | %list; | %preformatted; | DL | DIV | NOSCRIPT |
</span><span id=l243>      BLOCKQUOTE | FORM | HR | TABLE | FIELDSET | ADDRESS&quot;&gt;
</span><span id=l244>
</span><span id=l245>&lt;!ENTITY % flow &quot;%block; | %inline;&quot;&gt;
</span><span id=l246>
</span><span id=l247>&lt;!--=================== Document Body ====================================--&gt;
</span><span id=l248>
</span><span id=l249>&lt;!ELEMENT BODY O O (%block;|SCRIPT)+ +(INS|DEL) -- document body --&gt;
</span><span id=l250>&lt;!ATTLIST BODY
</span><span id=l251>  %attrs;                              -- %coreattrs, %i18n, %events --
</span><span id=l252>  onload          %Script;   #IMPLIED  -- the document has been loaded --
</span><span id=l253>  onunload        %Script;   #IMPLIED  -- the document has been removed --
</span><span id=l254>  &gt;
</span><span id=l255>
</span><span id=l256>&lt;!ELEMENT ADDRESS - - (%inline;)* -- information on author --&gt;
</span><span id=l257>&lt;!ATTLIST ADDRESS
</span><span id=l258>  %attrs;                              -- %coreattrs, %i18n, %events --
</span><span id=l259>  &gt;
</span><span id=l260>
</span><span id=l261>&lt;!ELEMENT DIV - - (%flow;)*            -- generic language/style container --&gt;
</span><span id=l262>&lt;!ATTLIST DIV
</span><span id=l263>  %attrs;                              -- %coreattrs, %i18n, %events --
</span><span id=l264>  &gt;
</span><span id=l265>
</span><span id=l266>
</span><span id=l267>&lt;!--================== The Anchor Element ================================--&gt;
</span><span id=l268>
</span><span id=l269>&lt;!ENTITY % Shape &quot;(rect|circle|poly|default)&quot;&gt;
</span><span id=l270>&lt;!ENTITY % Coords &quot;CDATA&quot; -- comma separated list of lengths --&gt;
</span><span id=l271>
</span><span id=l272>&lt;!ELEMENT A - - (%inline;)* -(A)       -- anchor --&gt;
</span><span id=l273>&lt;!ATTLIST A
</span><span id=l274>  %attrs;                              -- %coreattrs, %i18n, %events --
</span><span id=l275>  charset     %Charset;      #IMPLIED  -- char encoding of linked resource --
</span><span id=l276>  type        %ContentType;  #IMPLIED  -- advisory content type --
</span><span id=l277>  name        CDATA          #IMPLIED  -- named link end --
</span><span id=l278>  href        %URI;          #IMPLIED  -- URI for linked resource --
</span><span id=l279>  hreflang    %LanguageCode; #IMPLIED  -- language code --
</span><span id=l280>  rel         %LinkTypes;    #IMPLIED  -- forward link types --
</span><span id=l281>  rev         %LinkTypes;    #IMPLIED  -- reverse link types --
</span><span id=l282>  accesskey   %Character;    #IMPLIED  -- accessibility key character --
</span><span id=l283>  shape       %Shape;        rect      -- for use with client-side image maps --
</span><span id=l284>  coords      %Coords;       #IMPLIED  -- for use with client-side image maps --
</span><span id=l285>  tabindex    NUMBER         #IMPLIED  -- position in tabbing order --
</span><span id=l286>  onfocus     %Script;       #IMPLIED  -- the element got the focus --
</span><span id=l287>  onblur      %Script;       #IMPLIED  -- the element lost the focus --
</span><span id=l288>  &gt;
</span><span id=l289>
</span><span id=l290>&lt;!--================== Client-side image maps ============================--&gt;
</span><span id=l291>
</span><span id=l292>&lt;!-- These can be placed in the same document or grouped in a
</span><span id=l293>     separate document although this isn&#39;t yet widely supported --&gt;
</span><span id=l294>
</span><span id=l295>&lt;!ELEMENT MAP - - ((%block;)+ | AREA+) -- client-side image map --&gt;
</span><span id=l296>&lt;!ATTLIST MAP
</span><span id=l297>  %attrs;                              -- %coreattrs, %i18n, %events --
</span><span id=l298>  name        CDATA          #REQUIRED -- for reference by usemap --
</span><span id=l299>  &gt;
</span><span id=l300>
</span><span id=l301>&lt;!ELEMENT AREA - O EMPTY               -- client-side image map area --&gt;
</span><span id=l302>&lt;!ATTLIST AREA
</span><span id=l303>  %attrs;                              -- %coreattrs, %i18n, %events --
</span><span id=l304>  shape       %Shape;        rect      -- controls interpretation of coords --
</span><span id=l305>  coords      %Coords;       #IMPLIED  -- comma separated list of lengths --
</span><span id=l306>  href        %URI;          #IMPLIED  -- URI for linked resource --
</span><span id=l307>  nohref      (nohref)       #IMPLIED  -- this region has no action --
</span><span id=l308>  alt         %Text;         #REQUIRED -- short description --
</span><span id=l309>  tabindex    NUMBER         #IMPLIED  -- position in tabbing order --
</span><span id=l310>  accesskey   %Character;    #IMPLIED  -- accessibility key character --
</span><span id=l311>  onfocus     %Script;       #IMPLIED  -- the element got the focus --
</span><span id=l312>  onblur      %Script;       #IMPLIED  -- the element lost the focus --
</span><span id=l313>  &gt;
</span><span id=l314>
</span><span id=l315>&lt;!--================== The LINK Element ==================================--&gt;
</span><span id=l316>
</span><span id=l317>&lt;!--
</span><span id=l318>  Relationship values can be used in principle:
</span><span id=l319>
</span><span id=l320>   a) for document specific toolbars/menus when used
</span><span id=l321>      with the LINK element in document head e.g.
</span><span id=l322>        start, contents, previous, next, index, end, help
</span><span id=l323>   b) to link to a separate style sheet (rel=stylesheet)
</span><span id=l324>   c) to make a link to a script (rel=script)
</span><span id=l325>   d) by stylesheets to control how collections of
</span><span id=l326>      html nodes are rendered into printed documents
</span><span id=l327>   e) to make a link to a printable version of this document
</span><span id=l328>      e.g. a postscript or pdf version (rel=alternate media=print)
</span><span id=l329>--&gt;
</span><span id=l330>
</span><span id=l331>&lt;!ELEMENT LINK - O EMPTY               -- a media-independent link --&gt;
</span><span id=l332>&lt;!ATTLIST LINK
</span><span id=l333>  %attrs;                              -- %coreattrs, %i18n, %events --
</span><span id=l334>  charset     %Charset;      #IMPLIED  -- char encoding of linked resource --
</span><span id=l335>  href        %URI;          #IMPLIED  -- URI for linked resource --
</span><span id=l336>  hreflang    %LanguageCode; #IMPLIED  -- language code --
</span><span id=l337>  type        %ContentType;  #IMPLIED  -- advisory content type --
</span><span id=l338>  rel         %LinkTypes;    #IMPLIED  -- forward link types --
</span><span id=l339>  rev         %LinkTypes;    #IMPLIED  -- reverse link types --
</span><span id=l340>  media       %MediaDesc;    #IMPLIED  -- for rendering on these media --
</span><span id=l341>  &gt;
</span><span id=l342>
</span><span id=l343>&lt;!--=================== Images ===========================================--&gt;
</span><span id=l344>
</span><span id=l345>&lt;!-- Length defined in strict DTD for cellpadding/cellspacing --&gt;
</span><span id=l346>&lt;!ENTITY % Length &quot;CDATA&quot; -- nn for pixels or nn% for percentage length --&gt;
</span><span id=l347>&lt;!ENTITY % MultiLength &quot;CDATA&quot; -- pixel, percentage, or relative --&gt;
</span><span id=l348>
</span><span id=l349>&lt;!ENTITY % MultiLengths &quot;CDATA&quot; -- comma-separated list of MultiLength --&gt;
</span><span id=l350>
</span><span id=l351>&lt;!ENTITY % Pixels &quot;CDATA&quot; -- integer representing length in pixels --&gt;
</span><span id=l352>
</span><span id=l353>
</span><span id=l354>&lt;!-- To avoid problems with text-only UAs as well as
</span><span id=l355>   to make image content understandable and navigable
</span><span id=l356>   to users of non-visual UAs, you need to provide
</span><span id=l357>   a description with ALT, and avoid server-side image maps --&gt;
</span><span id=l358>&lt;!ELEMENT IMG - O EMPTY                -- Embedded image --&gt;
</span><span id=l359>&lt;!ATTLIST IMG
</span><span id=l360>  %attrs;                              -- %coreattrs, %i18n, %events --
</span><span id=l361>  src         %URI;          #REQUIRED -- URI of image to embed --
</span><span id=l362>  alt         %Text;         #REQUIRED -- short description --
</span><span id=l363>  longdesc    %URI;          #IMPLIED  -- link to long description
</span><span id=l364>                                          (complements alt) --
</span><span id=l365>  height      %Length;       #IMPLIED  -- override height --
</span><span id=l366>  width       %Length;       #IMPLIED  -- override width --
</span><span id=l367>  usemap      %URI;          #IMPLIED  -- use client-side image map --
</span><span id=l368>  ismap       (ismap)        #IMPLIED  -- use server-side image map --
</span><span id=l369>  &gt;
</span><span id=l370>
</span><span id=l371>&lt;!-- USEMAP points to a MAP element which may be in this document
</span><span id=l372>  or an external document, although the latter is not widely supported --&gt;
</span><span id=l373>
</span><span id=l374>&lt;!--==================== OBJECT ======================================--&gt;
</span><span id=l375>&lt;!--
</span><span id=l376>  OBJECT is used to embed objects as part of HTML pages
</span><span id=l377>  PARAM elements should precede other content. SGML mixed content
</span><span id=l378>  model technicality precludes specifying this formally ...
</span><span id=l379>--&gt;
</span><span id=l380>
</span><span id=l381>&lt;!ELEMENT OBJECT - - (PARAM | %flow;)*
</span><span id=l382> -- generic embedded object --&gt;
</span><span id=l383>&lt;!ATTLIST OBJECT
</span><span id=l384>  %attrs;                              -- %coreattrs, %i18n, %events --
</span><span id=l385>  declare     (declare)      #IMPLIED  -- declare but don&#39;t instantiate flag --
</span><span id=l386>  classid     %URI;          #IMPLIED  -- identifies an implementation --
</span><span id=l387>  codebase    %URI;          #IMPLIED  -- base URI for classid, data, archive--
</span><span id=l388>  data        %URI;          #IMPLIED  -- reference to object&#39;s data --
</span><span id=l389>  type        %ContentType;  #IMPLIED  -- content type for data --
</span><span id=l390>  codetype    %ContentType;  #IMPLIED  -- content type for code --
</span><span id=l391>  archive     %URI;          #IMPLIED  -- space separated archive list --
</span><span id=l392>  standby     %Text;         #IMPLIED  -- message to show while loading --
</span><span id=l393>  height      %Length;       #IMPLIED  -- override height --
</span><span id=l394>  width       %Length;       #IMPLIED  -- override width --
</span><span id=l395>  usemap      %URI;          #IMPLIED  -- use client-side image map --
</span><span id=l396>  name        CDATA          #IMPLIED  -- submit as part of form --
</span><span id=l397>  tabindex    NUMBER         #IMPLIED  -- position in tabbing order --
</span><span id=l398>  &gt;
</span><span id=l399>
</span><span id=l400>&lt;!ELEMENT PARAM - O EMPTY              -- named property value --&gt;
</span><span id=l401>&lt;!ATTLIST PARAM
</span><span id=l402>  id          ID             #IMPLIED  -- document-wide unique id --
</span><span id=l403>  name        CDATA          #REQUIRED -- property name --
</span><span id=l404>  value       CDATA          #IMPLIED  -- property value --
</span><span id=l405>  valuetype   (DATA|REF|OBJECT) DATA   -- How to interpret value --
</span><span id=l406>  type        %ContentType;  #IMPLIED  -- content type for value
</span><span id=l407>                                          when valuetype=ref --
</span><span id=l408>  &gt;
</span><span id=l409>
</span><span id=l410>
</span><span id=l411>&lt;!--=================== Horizontal Rule ==================================--&gt;
</span><span id=l412>
</span><span id=l413>&lt;!ELEMENT HR - O EMPTY -- horizontal rule --&gt;
</span><span id=l414>&lt;!ATTLIST HR
</span><span id=l415>  %coreattrs;                          -- id, class, style, title --
</span><span id=l416>  %events;
</span><span id=l417>  &gt;
</span><span id=l418>
</span><span id=l419>&lt;!--=================== Paragraphs =======================================--&gt;
</span><span id=l420>
</span><span id=l421>&lt;!ELEMENT P - O (%inline;)*            -- paragraph --&gt;
</span><span id=l422>&lt;!ATTLIST P
</span><span id=l423>  %attrs;                              -- %coreattrs, %i18n, %events --
</span><span id=l424>  &gt;
</span><span id=l425>
</span><span id=l426>&lt;!--=================== Headings =========================================--&gt;
</span><span id=l427>
</span><span id=l428>&lt;!--
</span><span id=l429>  There are six levels of headings from H1 (the most important)
</span><span id=l430>  to H6 (the least important).
</span><span id=l431>--&gt;
</span><span id=l432>
</span><span id=l433>&lt;!ELEMENT (%heading;)  - - (%inline;)* -- heading --&gt;
</span><span id=l434>&lt;!ATTLIST (%heading;)
</span><span id=l435>  %attrs;                              -- %coreattrs, %i18n, %events --
</span><span id=l436>  &gt;
</span><span id=l437>
</span><span id=l438>&lt;!--=================== Preformatted Text ================================--&gt;
</span><span id=l439>
</span><span id=l440>&lt;!-- excludes markup for images and changes in font size --&gt;
</span><span id=l441>&lt;!ENTITY % pre.exclusion &quot;IMG|OBJECT|BIG|SMALL|SUB|SUP&quot;&gt;
</span><span id=l442>
</span><span id=l443>&lt;!ELEMENT PRE - - (%inline;)* -(%pre.exclusion;) -- preformatted text --&gt;
</span><span id=l444>&lt;!ATTLIST PRE
</span><span id=l445>  %attrs;                              -- %coreattrs, %i18n, %events --
</span><span id=l446>  &gt;
</span><span id=l447>
</span><span id=l448>&lt;!--===================== Inline Quotes ==================================--&gt;
</span><span id=l449>
</span><span id=l450>&lt;!ELEMENT Q - - (%inline;)*            -- short inline quotation --&gt;
</span><span id=l451>&lt;!ATTLIST Q
</span><span id=l452>  %attrs;                              -- %coreattrs, %i18n, %events --
</span><span id=l453>  cite        %URI;          #IMPLIED  -- URI for source document or msg --
</span><span id=l454>  &gt;
</span><span id=l455>
</span><span id=l456>&lt;!--=================== Block-like Quotes ================================--&gt;
</span><span id=l457>
</span><span id=l458>&lt;!ELEMENT BLOCKQUOTE - - (%block;|SCRIPT)+ -- long quotation --&gt;
</span><span id=l459>&lt;!ATTLIST BLOCKQUOTE
</span><span id=l460>  %attrs;                              -- %coreattrs, %i18n, %events --
</span><span id=l461>  cite        %URI;          #IMPLIED  -- URI for source document or msg --
</span><span id=l462>  &gt;
</span><span id=l463>
</span><span id=l464>&lt;!--=================== Inserted/Deleted Text ============================--&gt;
</span><span id=l465>
</span><span id=l466>
</span><span id=l467>&lt;!-- INS/DEL are handled by inclusion on BODY --&gt;
</span><span id=l468>&lt;!ELEMENT (INS|DEL) - - (%flow;)*      -- inserted text, deleted text --&gt;
</span><span id=l469>&lt;!ATTLIST (INS|DEL)
</span><span id=l470>  %attrs;                              -- %coreattrs, %i18n, %events --
</span><span id=l471>  cite        %URI;          #IMPLIED  -- info on reason for change --
</span><span id=l472>  datetime    %Datetime;     #IMPLIED  -- date and time of change --
</span><span id=l473>  &gt;
</span><span id=l474>
</span><span id=l475>&lt;!--=================== Lists ============================================--&gt;
</span><span id=l476>
</span><span id=l477>&lt;!-- definition lists - DT for term, DD for its definition --&gt;
</span><span id=l478>
</span><span id=l479>&lt;!ELEMENT DL - - (DT|DD)+              -- definition list --&gt;
</span><span id=l480>&lt;!ATTLIST DL
</span><span id=l481>  %attrs;                              -- %coreattrs, %i18n, %events --
</span><span id=l482>  &gt;
</span><span id=l483>
</span><span id=l484>&lt;!ELEMENT DT - O (%inline;)*           -- definition term --&gt;
</span><span id=l485>&lt;!ELEMENT DD - O (%flow;)*             -- definition description --&gt;
</span><span id=l486>&lt;!ATTLIST (DT|DD)
</span><span id=l487>  %attrs;                              -- %coreattrs, %i18n, %events --
</span><span id=l488>  &gt;
</span><span id=l489>
</span><span id=l490>
</span><span id=l491>&lt;!ELEMENT OL - - (LI)+                 -- ordered list --&gt;
</span><span id=l492>&lt;!ATTLIST OL
</span><span id=l493>  %attrs;                              -- %coreattrs, %i18n, %events --
</span><span id=l494>  &gt;
</span><span id=l495>
</span><span id=l496>&lt;!-- Unordered Lists (UL) bullet styles --&gt;
</span><span id=l497>&lt;!ELEMENT UL - - (LI)+                 -- unordered list --&gt;
</span><span id=l498>&lt;!ATTLIST UL
</span><span id=l499>  %attrs;                              -- %coreattrs, %i18n, %events --
</span><span id=l500>  &gt;
</span><span id=l501>
</span><span id=l502>
</span><span id=l503>
</span><span id=l504>&lt;!ELEMENT LI - O (%flow;)*             -- list item --&gt;
</span><span id=l505>&lt;!ATTLIST LI
</span><span id=l506>  %attrs;                              -- %coreattrs, %i18n, %events --
</span><span id=l507>  &gt;
</span><span id=l508>
</span><span id=l509>&lt;!--================ Forms ===============================================--&gt;
</span><span id=l510>&lt;!ELEMENT FORM - - (%block;|SCRIPT)+ -(FORM) -- interactive form --&gt;
</span><span id=l511>&lt;!ATTLIST FORM
</span><span id=l512>  %attrs;                              -- %coreattrs, %i18n, %events --
</span><span id=l513>  action      %URI;          #REQUIRED -- server-side form handler --
</span><span id=l514>  method      (GET|POST)     GET       -- HTTP method used to submit the form--
</span><span id=l515>  enctype     %ContentType;  &quot;application/x-www-form-urlencoded&quot;
</span><span id=l516>  onsubmit    %Script;       #IMPLIED  -- the form was submitted --
</span><span id=l517>  onreset     %Script;       #IMPLIED  -- the form was reset --
</span><span id=l518>  accept-charset %Charsets;  #IMPLIED  -- list of supported charsets --
</span><span id=l519>  &gt;
</span><span id=l520>
</span><span id=l521>&lt;!-- Each label must not contain more than ONE field --&gt;
</span><span id=l522>&lt;!ELEMENT LABEL - - (%inline;)* -(LABEL) -- form field label text --&gt;
</span><span id=l523>&lt;!ATTLIST LABEL
</span><span id=l524>  %attrs;                              -- %coreattrs, %i18n, %events --
</span><span id=l525>  for         IDREF          #IMPLIED  -- matches field ID value --
</span><span id=l526>  accesskey   %Character;    #IMPLIED  -- accessibility key character --
</span><span id=l527>  onfocus     %Script;       #IMPLIED  -- the element got the focus --
</span><span id=l528>  onblur      %Script;       #IMPLIED  -- the element lost the focus --
</span><span id=l529>  &gt;
</span><span id=l530>
</span><span id=l531>&lt;!ENTITY % InputType
</span><span id=l532>  &quot;(TEXT | PASSWORD | CHECKBOX |
</span><span id=l533>    RADIO | SUBMIT | RESET |
</span><span id=l534>    FILE | HIDDEN | IMAGE | BUTTON)&quot;
</span><span id=l535>   &gt;
</span><span id=l536>
</span><span id=l537>&lt;!-- attribute name required for all but submit &amp; reset --&gt;
</span><span id=l538>&lt;!ELEMENT INPUT - O EMPTY              -- form control --&gt;
</span><span id=l539>&lt;!ATTLIST INPUT
</span><span id=l540>  %attrs;                              -- %coreattrs, %i18n, %events --
</span><span id=l541>  type        %InputType;    TEXT      -- what kind of widget is needed --
</span><span id=l542>  name        CDATA          #IMPLIED  -- submit as part of form --
</span><span id=l543>  value       CDATA          #IMPLIED  -- required for radio and checkboxes --
</span><span id=l544>  checked     (checked)      #IMPLIED  -- for radio buttons and check boxes --
</span><span id=l545>  disabled    (disabled)     #IMPLIED  -- unavailable in this context --
</span><span id=l546>  readonly    (readonly)     #IMPLIED  -- for text and passwd --
</span><span id=l547>  size        CDATA          #IMPLIED  -- specific to each type of field --
</span><span id=l548>  maxlength   NUMBER         #IMPLIED  -- max chars for text fields --
</span><span id=l549>  src         %URI;          #IMPLIED  -- for fields with images --
</span><span id=l550>  alt         CDATA          #IMPLIED  -- short description --
</span><span id=l551>  usemap      %URI;          #IMPLIED  -- use client-side image map --
</span><span id=l552>  tabindex    NUMBER         #IMPLIED  -- position in tabbing order --
</span><span id=l553>  accesskey   %Character;    #IMPLIED  -- accessibility key character --
</span><span id=l554>  onfocus     %Script;       #IMPLIED  -- the element got the focus --
</span><span id=l555>  onblur      %Script;       #IMPLIED  -- the element lost the focus --
</span><span id=l556>  onselect    %Script;       #IMPLIED  -- some text was selected --
</span><span id=l557>  onchange    %Script;       #IMPLIED  -- the element value was changed --
</span><span id=l558>  accept      %ContentTypes; #IMPLIED  -- list of MIME types for file upload --
</span><span id=l559>  &gt;
</span><span id=l560>
</span><span id=l561>&lt;!ELEMENT SELECT - - (OPTGROUP|OPTION)+ -- option selector --&gt;
</span><span id=l562>&lt;!ATTLIST SELECT
</span><span id=l563>  %attrs;                              -- %coreattrs, %i18n, %events --
</span><span id=l564>  name        CDATA          #IMPLIED  -- field name --
</span><span id=l565>  size        NUMBER         #IMPLIED  -- rows visible --
</span><span id=l566>  multiple    (multiple)     #IMPLIED  -- default is single selection --
</span><span id=l567>  disabled    (disabled)     #IMPLIED  -- unavailable in this context --
</span><span id=l568>  tabindex    NUMBER         #IMPLIED  -- position in tabbing order --
</span><span id=l569>  onfocus     %Script;       #IMPLIED  -- the element got the focus --
</span><span id=l570>  onblur      %Script;       #IMPLIED  -- the element lost the focus --
</span><span id=l571>  onchange    %Script;       #IMPLIED  -- the element value was changed --
</span><span id=l572>  &gt;
</span><span id=l573>
</span><span id=l574>&lt;!ELEMENT OPTGROUP - - (OPTION)+ -- option group --&gt;
</span><span id=l575>&lt;!ATTLIST OPTGROUP
</span><span id=l576>  %attrs;                              -- %coreattrs, %i18n, %events --
</span><span id=l577>  disabled    (disabled)     #IMPLIED  -- unavailable in this context --
</span><span id=l578>  label       %Text;         #REQUIRED -- for use in hierarchical menus --
</span><span id=l579>  &gt;
</span><span id=l580>
</span><span id=l581>&lt;!ELEMENT OPTION - O (#PCDATA)         -- selectable choice --&gt;
</span><span id=l582>&lt;!ATTLIST OPTION
</span><span id=l583>  %attrs;                              -- %coreattrs, %i18n, %events --
</span><span id=l584>  selected    (selected)     #IMPLIED
</span><span id=l585>  disabled    (disabled)     #IMPLIED  -- unavailable in this context --
</span><span id=l586>  label       %Text;         #IMPLIED  -- for use in hierarchical menus --
</span><span id=l587>  value       CDATA          #IMPLIED  -- defaults to element content --
</span><span id=l588>  &gt;
</span><span id=l589>
</span><span id=l590>&lt;!ELEMENT TEXTAREA - - (#PCDATA)       -- multi-line text field --&gt;
</span><span id=l591>&lt;!ATTLIST TEXTAREA
</span><span id=l592>  %attrs;                              -- %coreattrs, %i18n, %events --
</span><span id=l593>  name        CDATA          #IMPLIED
</span><span id=l594>  rows        NUMBER         #REQUIRED
</span><span id=l595>  cols        NUMBER         #REQUIRED
</span><span id=l596>  disabled    (disabled)     #IMPLIED  -- unavailable in this context --
</span><span id=l597>  readonly    (readonly)     #IMPLIED
</span><span id=l598>  tabindex    NUMBER         #IMPLIED  -- position in tabbing order --
</span><span id=l599>  accesskey   %Character;    #IMPLIED  -- accessibility key character --
</span><span id=l600>  onfocus     %Script;       #IMPLIED  -- the element got the focus --
</span><span id=l601>  onblur      %Script;       #IMPLIED  -- the element lost the focus --
</span><span id=l602>  onselect    %Script;       #IMPLIED  -- some text was selected --
</span><span id=l603>  onchange    %Script;       #IMPLIED  -- the element value was changed --
</span><span id=l604>  &gt;
</span><span id=l605>
</span><span id=l606>&lt;!--
</span><span id=l607>  #PCDATA is to solve the mixed content problem,
</span><span id=l608>  per specification only whitespace is allowed there!
</span><span id=l609> --&gt;
</span><span id=l610>&lt;!ELEMENT FIELDSET - - (#PCDATA,LEGEND,(%flow;)*) -- form control group --&gt;
</span><span id=l611>&lt;!ATTLIST FIELDSET
</span><span id=l612>  %attrs;                              -- %coreattrs, %i18n, %events --
</span><span id=l613>  &gt;
</span><span id=l614>
</span><span id=l615>&lt;!ELEMENT LEGEND - - (%inline;)*       -- fieldset legend --&gt;
</span><span id=l616>&lt;!ENTITY % LAlign &quot;(top|bottom|left|right)&quot;&gt;
</span><span id=l617>
</span><span id=l618>&lt;!ATTLIST LEGEND
</span><span id=l619>  %attrs;                              -- %coreattrs, %i18n, %events --
</span><span id=l620>  accesskey   %Character;    #IMPLIED  -- accessibility key character --
</span><span id=l621>  &gt;
</span><span id=l622>
</span><span id=l623>&lt;!ELEMENT BUTTON - -
</span><span id=l624>     (%flow;)* -(A|%formctrl;|FORM|FIELDSET)
</span><span id=l625>     -- push button --&gt;
</span><span id=l626>&lt;!ATTLIST BUTTON
</span><span id=l627>  %attrs;                              -- %coreattrs, %i18n, %events --
</span><span id=l628>  name        CDATA          #IMPLIED
</span><span id=l629>  value       CDATA          #IMPLIED  -- sent to server when submitted --
</span><span id=l630>  type        (button|submit|reset) submit -- for use as form button --
</span><span id=l631>  disabled    (disabled)     #IMPLIED  -- unavailable in this context --
</span><span id=l632>  tabindex    NUMBER         #IMPLIED  -- position in tabbing order --
</span><span id=l633>  accesskey   %Character;    #IMPLIED  -- accessibility key character --
</span><span id=l634>  onfocus     %Script;       #IMPLIED  -- the element got the focus --
</span><span id=l635>  onblur      %Script;       #IMPLIED  -- the element lost the focus --
</span><span id=l636>  &gt;
</span><span id=l637>
</span><span id=l638>&lt;!--======================= Tables =======================================--&gt;
</span><span id=l639>
</span><span id=l640>&lt;!-- IETF HTML table standard, see [RFC1942] --&gt;
</span><span id=l641>
</span><span id=l642>&lt;!--
</span><span id=l643> The BORDER attribute sets the thickness of the frame around the
</span><span id=l644> table. The default units are screen pixels.
</span><span id=l645>
</span><span id=l646> The FRAME attribute specifies which parts of the frame around
</span><span id=l647> the table should be rendered. The values are not the same as
</span><span id=l648> CALS to avoid a name clash with the VALIGN attribute.
</span><span id=l649>
</span><span id=l650> The value &quot;border&quot; is included for backwards compatibility with
</span><span id=l651> &lt;TABLE BORDER&gt; which yields frame=border and border=implied
</span><span id=l652> For &lt;TABLE BORDER=1&gt; you get border=1 and frame=implied. In this
</span><span id=l653> case, it is appropriate to treat this as frame=border for backwards
</span><span id=l654> compatibility with deployed browsers.
</span><span id=l655>--&gt;
</span><span id=l656>&lt;!ENTITY % TFrame &quot;(void|above|below|hsides|lhs|rhs|vsides|box|border)&quot;&gt;
</span><span id=l657>
</span><span id=l658>&lt;!--
</span><span id=l659> The RULES attribute defines which rules to draw between cells:
</span><span id=l660>
</span><span id=l661> If RULES is absent then assume:
</span><span id=l662>     &quot;none&quot; if BORDER is absent or BORDER=0 otherwise &quot;all&quot;
</span><span id=l663>--&gt;
</span><span id=l664>
</span><span id=l665>&lt;!ENTITY % TRules &quot;(none | groups | rows | cols | all)&quot;&gt;
</span><span id=l666>
</span><span id=l667>&lt;!-- horizontal placement of table relative to document --&gt;
</span><span id=l668>&lt;!ENTITY % TAlign &quot;(left|center|right)&quot;&gt;
</span><span id=l669>
</span><span id=l670>&lt;!-- horizontal alignment attributes for cell contents --&gt;
</span><span id=l671>&lt;!ENTITY % cellhalign
</span><span id=l672>  &quot;align      (left|center|right|justify|char) #IMPLIED
</span><span id=l673>   char       %Character;    #IMPLIED  -- alignment char, e.g. char=&#39;:&#39; --
</span><span id=l674>   charoff    %Length;       #IMPLIED  -- offset for alignment char --&quot;
</span><span id=l675>  &gt;
</span><span id=l676>
</span><span id=l677>&lt;!-- vertical alignment attributes for cell contents --&gt;
</span><span id=l678>&lt;!ENTITY % cellvalign
</span><span id=l679>  &quot;valign     (top|middle|bottom|baseline) #IMPLIED&quot;
</span><span id=l680>  &gt;
</span><span id=l681>
</span><span id=l682>&lt;!ELEMENT TABLE - -
</span><span id=l683>     (CAPTION?, (COL*|COLGROUP*), THEAD?, TFOOT?, TBODY+)&gt;
</span><span id=l684>&lt;!ELEMENT CAPTION  - - (%inline;)*     -- table caption --&gt;
</span><span id=l685>&lt;!ELEMENT THEAD    - O (TR)+           -- table header --&gt;
</span><span id=l686>&lt;!ELEMENT TFOOT    - O (TR)+           -- table footer --&gt;
</span><span id=l687>&lt;!ELEMENT TBODY    O O (TR)+           -- table body --&gt;
</span><span id=l688>&lt;!ELEMENT COLGROUP - O (col)*          -- table column group --&gt;
</span><span id=l689>&lt;!ELEMENT COL      - O EMPTY           -- table column --&gt;
</span><span id=l690>&lt;!ELEMENT TR       - O (TH|TD)+        -- table row --&gt;
</span><span id=l691>&lt;!ELEMENT (TH|TD)  - O (%flow;)*       -- table header cell, table data cell--&gt;
</span><span id=l692>
</span><span id=l693>&lt;!ATTLIST TABLE                        -- table element --
</span><span id=l694>  %attrs;                              -- %coreattrs, %i18n, %events --
</span><span id=l695>  summary     %Text;         #IMPLIED  -- purpose/structure for speech output--
</span><span id=l696>  width       %Length;       #IMPLIED  -- table width --
</span><span id=l697>  border      %Pixels;       #IMPLIED  -- controls frame width around table --
</span><span id=l698>  frame       %TFrame;       #IMPLIED  -- which parts of frame to render --
</span><span id=l699>  rules       %TRules;       #IMPLIED  -- rulings between rows and cols --
</span><span id=l700>  cellspacing %Length;       #IMPLIED  -- spacing between cells --
</span><span id=l701>  cellpadding %Length;       #IMPLIED  -- spacing within cells --
</span><span id=l702>  &gt;
</span><span id=l703>
</span><span id=l704>&lt;!ENTITY % CAlign &quot;(top|bottom|left|right)&quot;&gt;
</span><span id=l705>
</span><span id=l706>&lt;!ATTLIST CAPTION
</span><span id=l707>  %attrs;                              -- %coreattrs, %i18n, %events --
</span><span id=l708>  &gt;
</span><span id=l709>
</span><span id=l710>&lt;!--
</span><span id=l711>COLGROUP groups a set of COL elements. It allows you to group
</span><span id=l712>several semantically related columns together.
</span><span id=l713>--&gt;
</span><span id=l714>&lt;!ATTLIST COLGROUP
</span><span id=l715>  %attrs;                              -- %coreattrs, %i18n, %events --
</span><span id=l716>  span        NUMBER         1         -- default number of columns in group --
</span><span id=l717>  width       %MultiLength;  #IMPLIED  -- default width for enclosed COLs --
</span><span id=l718>  %cellhalign;                         -- horizontal alignment in cells --
</span><span id=l719>  %cellvalign;                         -- vertical alignment in cells --
</span><span id=l720>  &gt;
</span><span id=l721>
</span><span id=l722>&lt;!--
</span><span id=l723> COL elements define the alignment properties for cells in
</span><span id=l724> one or more columns.
</span><span id=l725>
</span><span id=l726> The WIDTH attribute specifies the width of the columns, e.g.
</span><span id=l727>
</span><span id=l728>     width=64        width in screen pixels
</span><span id=l729>     width=0.5*      relative width of 0.5
</span><span id=l730>
</span><span id=l731> The SPAN attribute causes the attributes of one
</span><span id=l732> COL element to apply to more than one column.
</span><span id=l733>--&gt;
</span><span id=l734>&lt;!ATTLIST COL                          -- column groups and properties --
</span><span id=l735>  %attrs;                              -- %coreattrs, %i18n, %events --
</span><span id=l736>  span        NUMBER         1         -- COL attributes affect N columns --
</span><span id=l737>  width       %MultiLength;  #IMPLIED  -- column width specification --
</span><span id=l738>  %cellhalign;                         -- horizontal alignment in cells --
</span><span id=l739>  %cellvalign;                         -- vertical alignment in cells --
</span><span id=l740>  &gt;
</span><span id=l741>
</span><span id=l742>&lt;!--
</span><span id=l743>    Use THEAD to duplicate headers when breaking table
</span><span id=l744>    across page boundaries, or for static headers when
</span><span id=l745>    TBODY sections are rendered in scrolling panel.
</span><span id=l746>
</span><span id=l747>    Use TFOOT to duplicate footers when breaking table
</span><span id=l748>    across page boundaries, or for static footers when
</span><span id=l749>    TBODY sections are rendered in scrolling panel.
</span><span id=l750>
</span><span id=l751>    Use multiple TBODY sections when rules are needed
</span><span id=l752>    between groups of table rows.
</span><span id=l753>--&gt;
</span><span id=l754>&lt;!ATTLIST (THEAD|TBODY|TFOOT)          -- table section --
</span><span id=l755>  %attrs;                              -- %coreattrs, %i18n, %events --
</span><span id=l756>  %cellhalign;                         -- horizontal alignment in cells --
</span><span id=l757>  %cellvalign;                         -- vertical alignment in cells --
</span><span id=l758>  &gt;
</span><span id=l759>
</span><span id=l760>&lt;!ATTLIST TR                           -- table row --
</span><span id=l761>  %attrs;                              -- %coreattrs, %i18n, %events --
</span><span id=l762>  %cellhalign;                         -- horizontal alignment in cells --
</span><span id=l763>  %cellvalign;                         -- vertical alignment in cells --
</span><span id=l764>  &gt;
</span><span id=l765>
</span><span id=l766>
</span><span id=l767>&lt;!-- Scope is simpler than axes attribute for common tables --&gt;
</span><span id=l768>&lt;!ENTITY % Scope &quot;(row|col|rowgroup|colgroup)&quot;&gt;
</span><span id=l769>
</span><span id=l770>&lt;!-- TH is for headers, TD for data, but for cells acting as both use TD --&gt;
</span><span id=l771>&lt;!ATTLIST (TH|TD)                      -- header or data cell --
</span><span id=l772>  %attrs;                              -- %coreattrs, %i18n, %events --
</span><span id=l773>  abbr        %Text;         #IMPLIED  -- abbreviation for header cell --
</span><span id=l774>  axis        CDATA          #IMPLIED  -- names groups of related headers--
</span><span id=l775>  headers     IDREFS         #IMPLIED  -- list of id&#39;s for header cells --
</span><span id=l776>  scope       %Scope;        #IMPLIED  -- scope covered by header cells --
</span><span id=l777>  rowspan     NUMBER         1         -- number of rows spanned by cell --
</span><span id=l778>  colspan     NUMBER         1         -- number of cols spanned by cell --
</span><span id=l779>  %cellhalign;                         -- horizontal alignment in cells --
</span><span id=l780>  %cellvalign;                         -- vertical alignment in cells --
</span><span id=l781>  &gt;
</span><span id=l782>
</span><span id=l783>
</span><span id=l784>&lt;!--================ Document Head =======================================--&gt;
</span><span id=l785>&lt;!-- %head.misc; defined earlier on as &quot;SCRIPT|STYLE|META|LINK|OBJECT&quot; --&gt;
</span><span id=l786>&lt;!ENTITY % head.content &quot;TITLE &amp; BASE?&quot;&gt;
</span><span id=l787>
</span><span id=l788>&lt;!ELEMENT HEAD O O (%head.content;) +(%head.misc;) -- document head --&gt;
</span><span id=l789>&lt;!ATTLIST HEAD
</span><span id=l790>  %i18n;                               -- lang, dir --
</span><span id=l791>  profile     %URI;          #IMPLIED  -- named dictionary of meta info --
</span><span id=l792>  &gt;
</span><span id=l793>
</span><span id=l794>&lt;!-- The TITLE element is not considered part of the flow of text.
</span><span id=l795>       It should be displayed, for example as the page header or
</span><span id=l796>       window title. Exactly one title is required per document.
</span><span id=l797>    --&gt;
</span><span id=l798>&lt;!ELEMENT TITLE - - (#PCDATA) -(%head.misc;) -- document title --&gt;
</span><span id=l799>&lt;!ATTLIST TITLE %i18n&gt;
</span><span id=l800>
</span><span id=l801>
</span><span id=l802>&lt;!ELEMENT BASE - O EMPTY               -- document base URI --&gt;
</span><span id=l803>&lt;!ATTLIST BASE
</span><span id=l804>  href        %URI;          #REQUIRED -- URI that acts as base URI --
</span><span id=l805>  &gt;
</span><span id=l806>
</span><span id=l807>&lt;!ELEMENT META - O EMPTY               -- generic metainformation --&gt;
</span><span id=l808>&lt;!ATTLIST META
</span><span id=l809>  %i18n;                               -- lang, dir, for use with content --
</span><span id=l810>  http-equiv  NAME           #IMPLIED  -- HTTP response header name  --
</span><span id=l811>  name        NAME           #IMPLIED  -- metainformation name --
</span><span id=l812>  content     CDATA          #REQUIRED -- associated information --
</span><span id=l813>  scheme      CDATA          #IMPLIED  -- select form of content --
</span><span id=l814>  &gt;
</span><span id=l815>
</span><span id=l816>&lt;!ELEMENT STYLE - - %StyleSheet        -- style info --&gt;
</span><span id=l817>&lt;!ATTLIST STYLE
</span><span id=l818>  %i18n;                               -- lang, dir, for use with title --
</span><span id=l819>  type        %ContentType;  #REQUIRED -- content type of style language --
</span><span id=l820>  media       %MediaDesc;    #IMPLIED  -- designed for use with these media --
</span><span id=l821>  title       %Text;         #IMPLIED  -- advisory title --
</span><span id=l822>  &gt;
</span><span id=l823>
</span><span id=l824>&lt;!ELEMENT SCRIPT - - %Script;          -- script statements --&gt;
</span><span id=l825>&lt;!ATTLIST SCRIPT
</span><span id=l826>  charset     %Charset;      #IMPLIED  -- char encoding of linked resource --
</span><span id=l827>  type        %ContentType;  #REQUIRED -- content type of script language --
</span><span id=l828>  src         %URI;          #IMPLIED  -- URI for an external script --
</span><span id=l829>  defer       (defer)        #IMPLIED  -- UA may defer execution of script --
</span><span id=l830>  &gt;
</span><span id=l831>
</span><span id=l832>&lt;!ELEMENT NOSCRIPT - - (%block;)+
</span><span id=l833>  -- alternate content container for non script-based rendering --&gt;
</span><span id=l834>&lt;!ATTLIST NOSCRIPT
</span><span id=l835>  %attrs;                              -- %coreattrs, %i18n, %events --
</span><span id=l836>  &gt;
</span><span id=l837>
</span><span id=l838>&lt;!--================ Document Structure ==================================--&gt;
</span><span id=l839>&lt;!ENTITY % html.content &quot;HEAD, BODY&quot;&gt;
</span><span id=l840>
</span><span id=l841>&lt;!ELEMENT HTML O O (%html.content;)    -- document root element --&gt;
</span><span id=l842>&lt;!ATTLIST HTML
</span><span id=l843>  %i18n;                               -- lang, dir --
</span><span id=l844>  &gt;
</span></pre></td></tr></table><table cellspacing=0 cellpadding=0 border=0 width=100%><tr height=1 bgcolor=#000000><td bgcolor=#000000 colspan=3></td></tr><tr height=10><td></td></tr><tr><td><font size=-1><code class=fn>css-validator/html/parser/dtds/strict_nores.dtd</code> from<br><span class="a"><a href="codesearch/url?hl=en&ct=rpc&url=http://dist.bsdlab.org/w3c-css-validator-20041005.tar.gz&usg=AFQjCNEqwSYiWNNGk1CKTrmvkS7D1e_9Ow">http://dist.bsdlab.org/w3c-css-validator-20041005.tar.gz</a></span> - <span class="a">Unknown License</span><br><br></font></tr></tr></table></body></html>