<?xml version="1.0" encoding="UTF-8"?>
<!DOCTYPE html PUBLIC "-//W3C//DTD XHTML 1.0 Transitional//EN"
	"http://www.w3.org/TR/xhtml1/DTD/xhtml1-transitional.dtd">
<html xmlns="http://www.w3.org/1999/xhtml" xml:lang="en" lang="en"><!-- InstanceBegin template="/Templates/master.dwt" codeOutsideHTMLIsLocked="true" -->
<head>

<meta http-equiv="Content-Type" content="text/html; charset=UTF-8" />
<meta http-equiv="Content-Language" content="en-us" />

<meta name="robots" content="noodp" />

<!-- Master Template Version: 2.31 -->
<!-- InstanceParam name="0=default,1=portal,2=home" type="number" value="0" -->
<!-- InstanceParam name="columns" type="number" value="2" -->
<!-- InstanceParam name="locale" type="text" value="en_us" -->
<!-- InstanceParam name="dropdown,pod,tab,tree,map" type="text" value="rel,dropdown,pod" -->

<link rel="icon" href="/favicon.ico" type="image/x-icon" />  
<link rel="shortcut icon" href="/favicon.ico" type="image/x-icon" />

<script type="text/javascript" src="http://wwwimages.adobe.com/www.adobe.com/lib/com.adobe/_all.js"></script>
<link type="text/css" rel="stylesheet" href="http://wwwimages.adobe.com/www.adobe.com/lib/com.adobe/template/screen.css" media="screen" charset="utf-8" />
<link type="text/css" rel="stylesheet" href="http://wwwimages.adobe.com/www.adobe.com/lib/com.adobe/template/print.css" media="print" charset="utf-8" />
<script type="text/javascript" src="http://wwwimages.adobe.com/www.adobe.com/lib/com.adobe/template/fixH1Size.js"></script>
<script type="text/javascript" src="http://wwwimages.adobe.com/www.adobe.com/lib/com.adobe/template/gnavOverflowFix.js"></script>


<script type="text/javascript">adobe.Dwt.require("rel","user","swf","dropdown","pod");</script>

<!-- InstanceBeginEditable name="head" -->
<title>Adobe XMP: Adding intelligence to media</title>
<!-- InstanceEndEditable -->
</head>
<body>
<!--googleoff: index--><a href="/help/accessibility.html" tabindex="1" id="accesslink">Accessibility</a><!--googleon: index-->
<!--googleoff: index-->
<!--$Revision: 1.46.2.5 $-->
<form id="globalnav-search" class="en" name="globalnav-search" method="get" action="/go/gnav_search" accept-charset="utf-8">
	<dl id="globalnav" class="clear-after">
		<dt id="adobe-logo"><a href="/">Adobe</a></dt>
		<dd id="site-search">
			<input type="hidden" name="loc" value="en_us" />
			<input title="Search for..." type="text" id="search-input" name="term" />
			<script type="text/javascript">
				// <![CDATA[
				adobe.InputTitleOverlay.init("search-input");
				// ]]>
			</script>
		</dd>
		<dd id="user-menu">
			<ul id="user-menu-list" class="pipe compact">
				<li id="greeting" style="display:none"><a>Welcome <span id="screenName"></span></a></li>
				<li id="account" style="background-image: none"><a href="/cfusion/membership/index.cfm?loc=en_us&nl=1">Your account</a></li>
				<li id="signout" style="display:none"><a href="/cfusion/membership/logout.cfm">Sign out</a></li>
				<li id="globalnav-cart"><a href="/go/gn_cart" class="icon-replace cart">Your cart</a></li>
				<li id="help"><a href="/go/gn_contact">Contact</a></li>
				<li id="international"><a href="/go/gn_intl">United States (Change)</a></li>
			</ul>
			<script type="text/javascript">
				// <![CDATA[
				var greeting = document.getElementById('greeting'),
screenName = document.getElementById('screenName'),
accountLink = document.getElementById('account'),
signout = document.getElementById('signout');

if(greeting && signout && screenName) {					
	var screenNameValue = adobe.Cookie.get("SCREENNAME"),
	rememberMe = adobe.Cookie.get('RMID'),
	authenticAdobeId = adobe.Cookie.get('AUID');
	
	if(screenNameValue) {
		registerOnReady(function() {
			screenName.innerHTML = screenNameValue;
		});
	}
	
	if(rememberMe) {
		greeting.style.display="";
		accountLink.style.backgroundImage = "";
	}
	
	if(authenticAdobeId) {
		greeting.style.display="";
		signout.style.display="";
		accountLink.style.backgroundImage = "";
	}
}
				// ]]>
			</script>
		</dd>
		<dd id="site-menu">
			<ul id="site-menu-dropdown" class="d-dropdown compact">
				<li><a class="dropdown-tab" href="/">Home</a></li>
				<li><a class="dropdown-tab" href="/go/gn_sol">Solutions</a>
					<dl class="dropdown-pane">
						<dt>Industries</dt>
                        <dd><a href="/go/gntray_ind_broadcast_media">Broadcast and media</a></dd>
						<dd><a href="/go/gntray_ind_education">Education</a></dd>
						<dd><a href="/go/gntray_ind_finance">Financial services</a></dd>
						<dd><a href="/go/gntray_ind_govt">Government</a></dd>
						<dd><a href="/go/gntray_ind_manufacturing">Manufacturing</a></dd>
						<dd><a href="/go/gntray_ind_telecommunications">Telecommunications</a></dd>
						<dt class="divide">Solutions</dt>
						<dd><a href="/go/gntray_sol_consumer_photo_video">Consumer photo and video</a></dd>
						<dd><a href="/go/gntray_sol_mobile">Mobile</a></dd>
						<dd><a href="/go/gntray_sol_print_publishing">Print publishing</a></dd>
						<dd><a href="/go/gntray_sol_pro_photography">Pro photography</a></dd>
                        <dd><a href="/go/gntray_sol_professionalvideo">Professional video</a></dd>
						<dd><a href="/go/gntray_sol_ria">Rich Internet applications</a></dd>
						<dd><a href="/go/gntray_sol_elearning">Training and eLearning</a></dd>
						<dd><a href="/go/gntray_sol_web_conferencing">Web conferencing</a></dd>
						<dd><a href="/go/gntray_sol_web_publishing">Web publishing</a></dd>
						<dt class="divide last-title"><a href="/go/gntray_sol_more">All industries and solutions &#8250;</a></dt>
					</dl>
				</li>
				<li><a class="dropdown-tab" href="/go/gn_prod">Products</a>
					<ul class="dropdown-pane">
						<li><a href="/go/gntray_prod_acrobat_connect_pro_home">Acrobat Connect</a></li>
						<li><a href="/go/gntray_prod_acrobat_family_home">Acrobat family</a></li>
						<li><a href="/go/gntray_prod_after_effects_home">After Effects</a></li>
						<li><a href="/go/gntray_prod_coldfusion_home">ColdFusion</a></li>
						<li><a href="/go/gntray_prod_creative_suite_family_home">Creative Suite family</a></li>
						<li><a href="/go/gntray_prod_dreamweaver_home">Dreamweaver</a></li>
						<li><a href="/go/gntray_prod_flash_home">Flash</a></li>
						<li><a href="/go/gntray_prod_flex_home">Flex</a></li>
						<li><a href="/go/gntray_prod_illustrator_home">Illustrator</a></li>
						<li><a href="/go/gntray_prod_indesign_home">InDesign</a></li>
						<li><a href="/go/gntray_prod_livecycle_home">LiveCycle ES</a></li>
						<li><a href="/go/gntray_prod_mobile_devices_home">Mobile products</a></li>
						<li><a href="/go/gntray_prod_photoshop_family_home">Photoshop family</a></li>
						<li><a href="/go/gntray_prod_premiere_home">Adobe Premiere</a></li>
						<li><a href="/go/gntray_prod_scene7_ondemand_home" target="mm_window">Scene7 OnDemand</a></li>
						<li class="divide"><a href="/go/gntray_prod_products">All products &#8250;</a></li>
					</ul>
				</li>
				<li><a class="dropdown-tab" href="/go/gn_supp">Support</a>
					<ul class="dropdown-pane">
						<li><a href="/go/gn_supp_support">Support home</a></li>
						<li><a href="/go/gntray_supp_cs_home">Customer Service</a></li>
						<li><a href="/go/gntray_supp_kb">Knowledgebase</a></li>
						<li><a href="/go/gntray_supp_books">Books</a></li>
						<li><a href="/go/gntray_supp_train_home">Training and certification</a></li>
						<li><a href="/go/gntray_supp_programs">Support programs</a></li>
						<li><a href="/go/gntray_supp_forums_home">Forums</a></li>
						<li><a href="/go/gntray_supp_documentation">Documentation</a></li>
						<li><a href="/go/gntray_supp_updates">Updates</a></li>
						<li class="divide"><a href="/go/gntray_supp_more">More &#8250;</a></li>
					</ul>
				</li>
				<li><a class="dropdown-tab" href="/go/gn_comm">Communities</a>
					<dl class="dropdown-pane">
						<dt>By user</dt>
						<dd><a href="/go/gntray_comm_designers">Designers</a></dd>
						<dd><a href="/go/gntray_comm_devnet">Developers</a></dd>
						<dd><a href="/go/gntray_comm_educators">Educators</a></dd>
						<dd><a href="/go/gntray_comm_partners">Partners</a></dd>
						<dt class="divide">By resource</dt>
						<dd><a href="/go/gntray_comm_labs" target="mm_window">Adobe Labs</a></dd>
						<dd><a href="/go/gntray_comm_forums">Forums</a></dd>
						<dd><a href="/go/gntray_comm_exchange_home">Exchange</a></dd>
						<dd><a href="/go/gntray_comm_blogs" target="mm_window">Blogs</a></dd>
						<dd><a href="/go/gntray_comm_xd" target="mm_window">Experience Design</a></dd>
					</dl>
				</li>
				<li><a class="dropdown-tab" href="/go/gn_comp">Company</a>
					<ul class="dropdown-pane">
						<li><a href="/go/gntray_comp_aboutadobe">About Adobe</a></li>
						<li><a href="/go/gntray_comp_press">Press</a></li>
						<li><a href="/go/gntray_comp_investor_relations">Investor Relations</a></li>
						<li><a href="/go/gntray_comp_community_affairs">Corporate Affairs</a></li>
						<li><a href="/go/gntray_comp_careers">Careers</a></li>
						<li><a href="/go/gntray_comp_showcase">Showcase</a></li>
						<li><a href="/go/gntray_comp_events">Events</a></li>
						<li><a href="/go/gntray_comp_contact_adobe">Contact Adobe</a></li>
						<li><a href="/go/gntray_comp_become_affiliate">Become an affiliate</a></li>
						<li class="divide"><a href="/go/gntray_comp_company_more">More &#8250;</a></li>
					</ul>
				</li>
				<li><a class="dropdown-tab" href="/go/gn_dl">Downloads</a>
					<ul class="dropdown-pane">
						<li><a href="/go/gntray_dl_downloads">Downloads home</a></li>
						<li><a href="/go/gntray_dl_trialdownloads">Trial downloads</a></li>
						<li><a href="/go/gntray_dl_updates">Updates</a></li>
						<li><a href="/go/gntray_dl_exchange">Exchange</a></li>
						<li><a href="/go/gntray_dl_get_reader">Get Adobe Reader</a></li>
						<li><a href="/go/gntray_dl_getflashplayer">Get Flash Player</a></li>
						<li class="divide"><a href="/go/gntray_dl_more">More &#8250;</a></li>
					</ul>
				</li>
				<li><a href="/go/gn_store" class="dropdown-tab">Store</a>
					<ul class="dropdown-pane">
						<li><a href="/go/gntray_store">Store home</a></li>
						<li><a href="/go/gntray_store_software">Software</a></li>
						<li><a href="/go/gntray_store_fonts">Fonts</a></li>
						<li><a href="/go/gntray_store_books">Books</a></li>
						<li><a href="/go/gntray_store_programs">Support programs</a></li>	
						<li><a href="/go/gntray_store_your_hist">Your account</a></li>
						<li><a href="/go/gntray_store_mvlp">Volume licensing</a></li>
                        <li><a href="/go/gntray_store_offers">Store offers</a></li>
						<li class="divide"><a href="/go/gntray_store_purchase_options">Other ways to buy &#8250;</a></li>
					</ul>
				</li>
			</ul>
		</dd>
	</dl>
<noscript>
<div id="globalnav-noscript">You may not have everything you need to view certain sections of Adobe.com. Please see our <a href="/go/gn_sitereqs">site requirements</a>.</div>
</noscript>
</form>
<!--googleon: index-->


<div id="layoutLogic" class="L0">
	<div id="L0C1" class="pod p0 nw columns-2-Abb-A"><div class="ne"><div class="se"><div class="sw"><div class="n"><div class="s"><div class="w"><div id="L0C1-body" class="pod-body e"><!-- InstanceBeginEditable name="c1 content" -->
		<ol id="depthpath" class="path menu">
			<li><a href="/">Home</a></li>
			<li><a href="/products/">Products</a></li>
		</ol>
		<h1 class="extensiblemetadataplatform">Extensible Metadata Platform (XMP)</h1>
		<h2>Adding intelligence to media</h2>
		
        <div class="pullout-right right-wrap">
	<p class="pullout-item"><img src="/products/xmp/images/xmp_tm.gif" alt="XMP logo" /></p>
	
	<p>As any content or production professional knows, developing a workflow that actually works can be a major challenge. Keeping track of important files and assets at each stage is critical. Effective file management is an important and necessary part of the creative process, but the available tools have never been adequate.</p>
	
	<p>Adobe's Extensible Metadata Platform (XMP) is a labeling technology that allows you to embed data about a file, known as metadata, into the file itself. With XMP, desktop applications and back-end publishing systems gain a common method for capturing, sharing, and leveraging this valuable metadata — opening the door for more efficient job processing, workflow automation, and rights management, among many other possibilities. With XMP, Adobe has taken the “heavy lifting” out of metadata integration, offering content creators an easy way to embed meaningful information about their projects and providing industry partners with standards-based building blocks to develop optimized workflow solutions.</p>
	
<p><a href="/products/xmp/overview.html">Find out more: What is XMP?</a></p>


<p class="clip-sides"><img src="/products/xmp/images/xmpquote.gif" alt="Quote: XMP is an important piece that brings the Semantic Web closer to realization" /></p>


<div class="columns-2-AB-A">
	
	<h3>Key benefits</h3>
	
	<ul>
          <li>Enables creation of "smart assets" that retain context when passed across multiple file formats, software applications, devices, and databases</li>
          <li>Enables flexible search and retrieval of rich media across diverse file formats and databases</li>
          <li>Extends the content lifecycle by being able to find and repurpose source files across multiple versions and renditions</li>
          <li>Built-in XMP support within Adobe applications fosters metadata capture and exchange for improved workflow and increased production efficiency</li>
          <li>Based on open standards and implemented as a common metadata interchange platform across Adobe products as well as those of workflow partners</li>
        </ul>
		
</div><!-- End Column AB-A -->


<div class="columns-2-AB-B">
<h3>Highlights</h3>

<h4><a href="/products/xmp/standards.html">Standards groups powered by XMP</a></h4>
<p>See the growing list of standards groups that are using XMP as their basis.</p>

<h4>Metadata for Creative Professionals</h4>

<p>Get your files organized using metadata. Learn how the XMP features in the Creative Suite can help you keep your project organized and on track.</p>

<p><a class="icon pdf-file" title="" href="/products/xmp/pdfs/xmp_creativepros.pdf" target="_blank">Read PDF <span class="stamp-fileinfo">(PDF,  2.5M)</span></a></p>

<h4>7 Steps to understanding XMP Metadata</h4>

<p>Creative professionals know that organizing and retrieving files is an important aspect of any project. Adobe's powerful metadata language, XMP, can help.</p>

<p><a href="/products/xmp/vector/xmp.html" rel="_popup 770x550 scrollbars">View <span class="stamp-fileinfo">(SWF)</span></a></p>


</div><!-- End Column AB-B -->
<br class="clear-both" />


</div>
		
	<!-- InstanceEndEditable --></div></div></div></div></div></div></div></div>
	<div id="L0C2" class="columns-2-Abb-bb"><!-- InstanceBeginEditable name="c2 content" -->
<div class="dyn-pod p2">
<dl class="side-menu">
  <dt>
    <a href="/products/xmp/" title="XMP home">XMP home</a>
  </dt>
          <dt>XMP information</dt> 

          <dd>
    <a href="/products/xmp/overview.html" title="Overview">Overview</a>
  </dd>

          <dd>
    <a href="/products/xmp" title="In depth">In depth</a>
  </dd>

          <dd>
    <a href="/products/xmp/related.html" title="Related applications">Related applications</a>
  </dd>

  <dd>
    <a href="/products/xmp/customerstories.html" title="Customer comments">Customer comments</a>
  </dd>
        
          <dd>
    <a href="/products/xmp/reviews.html" title="Reviews and news">Reviews and news</a>
  </dd>

          <dd>
    <a href="/products/xmp/partners.html" title="XMP partners">XMP partners</a>
  </dd>
        
         
          <dd>
    <a href="/products/xmp/standards.html" title="XMP and standards">XMP and standards</a>
  </dd>

          <dd>
    <a href="/events/main.jsp" title="Events and seminars">Events and seminars</a>
  </dd>

          
          <dt>Downloads</dt>

          <dd>
    <a href="/devnet/xmp/" title="XMP SDK">XMP SDK</a>
  </dd>

          <dd>
    <a href="/products/xmp/custompanel.html" title="Custom File Info panels">Custom File Info panels</a>
  </dd>
  
  <dt>Support</dt>

          <dd>
    <a href="http://www.adobeforums.com/cgi-bin/webx?14@@.ef3ec0f" title="User forums">User forums </a>
  </dd>

          <dd>
    <a href="http://support.adobe.com/devsup/devsup.nsf/xmpkb.htm" title="Developer support">Developer support</a>
  </dd>
  
   <dd>
    <a href="http://partners.adobe.com/public/developer/main.html" title="Developer support">Developer resources</a>
  </dd>

        </dl>
      
    
 
</div>	
	<!-- InstanceEndEditable --></div><br class="clear-both" />
</div>
<!--googleoff: index--><!-- global footer $Revision: 1.36.6.2 $ -->
<div id="globalfooter">
	<ul class="pipe menu">
		<li><a href="/go/gftray_foot_aboutadobe">Company</a></li>
		<li><a href="/go/gftray_foot_privacy_security">Online Privacy Policy</a></li>
		<li><a href="/go/gftray_foot_terms">Terms of Use</a></li>
		<li><a href="/go/gftray_foot_contact_adobe">Contact us</a></li>
		<li><a href="/go/gftray_foot_accessibility">Accessibility</a></li>
		<li><a href="/go/gftray_foot_report_piracy">Report piracy</a></li>
		<li><a href="/go/gftray_foot_permissions_trademarks">Permissions and trademarks</a></li>
		<li><a href="/go/gftray_foot_product_license_agreements">Product license agreements</a></li>
		<li>
		<script language="javascript" type="text/javascript" charset="windows-1252" src="/ubi/feedback/oo_engine.js"></script>
		<script language="javascript" type="text/javascript" charset="windows-1252">
			O_GoT('Send feedback');
		</script>
		<noscript><a href="/go/gftray_foot_feedback">Send feedback</a></noscript></li>
	</ul>
	<div class="pullout-right right-125"> 
		<p class="pullout-item"><a href="/go/gftray_foot_truste" target="_blank"><img src="/images/globalnav/eufinalmark.gif" alt="Reviewed by TRUSTe: site privacy statement" width="116" height="41" id="trustelogo" /></a></p>		
		<p id="copyright">Copyright &#169; 2007 Adobe Systems Incorporated. <a href="/go/gftray_all_rights_reserved">All rights reserved</a>.</p>
		<p id="terms">Use of this website signifies your agreement to the <a href="/go/gftray_foot_terms">Terms of Use</a> and <a href="/go/gftray_foot_privacy_security">Online Privacy Policy (updated 03-30-2007)</a>.</p>
		<p id="searchengine">Search powered by <a href="http://www.google.com/" target="new" class="icon-replace googlelogo">Powered by Google</a></p>
	</div>
</div>
<!--googleon: index-->


<!-- InstanceBeginEditable name="analytics" -->
<div style="display: none;"><!-- SiteCatalyst code version: G.6.
Copyright 2002 Omniture, Inc. More info available at
http://www.omniture.com --><script language="JavaScript" type="text/javascript"><!--
var s_code=' '//--></script>
<script language="JavaScript" src="/uber/js/omniture_s_code.js" type="text/javascript"></script>
<script language="JavaScript" type="text/javascript"><!--
var s_accountName;
var s_docHost = window.location.hostname.toLowerCase();
var s_docURL = window.location.pathname.toLowerCase();

if (!!window.adobe) {
  var sc_iFrame=adobe.Cookie.get("adobe.omniture.save");
}
if (!!sc_iFrame && (sc_iFrame.indexOf("initialLoad") != -1) && (s_docURL.indexOf("/ssi/iframe/") != -1))  {
}
else {
if ((s_docHost.indexOf(".dev.adobe.") != -1) || (s_docHost.indexOf("stage.") != -1) || (s_docHost.indexOf("staging.") != -1) || (s_docHost.indexOf(".sea.adobe") != -1)) {  s_accountName="mxadobetest";
}
else {
  s_accountName="mxmacromedia";
}
if (s_docURL.indexOf("/devnet/") != -1) {
  s_channel="DevNet";
}
else if (s_docHost.indexOf("help.adobe.com") != -1) {
  s_channel="Support Help.adobe.com";
}
else if (s_docHost.indexOf("kb.adobe.com") != -1) {
  s_channel="Support Knowledgebase";
  if (s_docURL.indexOf("searchentry.do") != -1) {
  	try {
		var SearchStringValue = adobe.Element.getElementsByClassName($("simple-options"),"input","textfield")[0].value;
		var s_prop11=SearchStringValue.toLowerCase();
	} catch (ex) { 
	}
  }
  else if (s_docURL.indexOf("microsite.do") != -1) {
     var s_pageName = document.URL.toLowerCase();
     if (s_pageName.indexOf(';') != -1) {
       s_pageName=s_pageName.substring(0,s_pageName.indexOf(';'));
     }
  }
}
else if (s_docURL.indexOf("/designcenter/") != -1) {
  s_channel="Adobe Design Center";
  s_hier1="ADC";
  if (s_docURL.indexOf("/articles/") != -1) {
    mymetatags = document.getElementsByTagName("meta");
	s_hier1=s_hier1+",Tutorials";
	var adc_Title=s_docURL;
	var adc_Products="";
	var adc_Topics="";
	var adc_Type="";
	for (i=0;i < mymetatags.length;i++)  {
		if (mymetatags[i].getAttribute("name") == "product") {
		   if (mymetatags[i].getAttribute("content").indexOf("[product") == -1)
		     adc_Products=(adc_Products=="")?';'+mymetatags[i].getAttribute("content"):adc_Products+',;'+mymetatags[i].getAttribute("content"); 
		}
		else if (mymetatags[i].getAttribute("name") == "topic") {
			adc_Topics=(adc_Topics=="")?mymetatags[i].getAttribute("content"):adc_Topics+','+mymetatags[i].getAttribute("content");
		}
		else if (mymetatags[i].getAttribute("name") == "columntype") {
			adc_Type=mymetatags[i].getAttribute("content");
		}
	}
	var s_eVar22=adc_Title;
	if (adc_Type != "") var s_eVar23=adc_Type;
	if (adc_Topics != "") var s_eVar24=adc_Topics;
	if (adc_Products != "") {
	  var s_products=adc_Products;
	  var s_events="event12";
	}
   }
   else if (s_docURL.indexOf("/designcenter/gallery/") != -1) {
     s_hier1=s_hier1+",Gallery";
   }
   else if (s_docURL.indexOf("/designcenter/thinktank/") != -1) {
     s_hier1=s_hier1+",Think Tank";
   }
   else if (s_docURL.indexOf("/designcenter/dialogbox/") != -1) {
     s_hier1=s_hier1+",Dialog Box";
   }      
}
var s_wd=window,s_tm=new Date;if(s_code!=' '){s_code=s_dc(
s_accountName);if(s_code)document.write(s_code)}else
document.write('<im'+'g src="http://192.168.112.2O7.net/b/ss/'+s_accountName+'/1/F.3-fb/s'+s_tm.getTime()+'?[AQB]'
+'&pageName='+escape(s_wd.s_pageName?s_wd.s_pageName:(s_wd.pageName?s_wd.pageName:''))
+'&server='+escape(s_wd.s_server?s_wd.s_server:(s_wd.server?s_wd.server:''))
+'&ch='+escape(s_wd.s_channel?s_wd.s_channel:(s_wd.channel?s_wd.channel:''))
+'&[AQE]" height="1" width="1" border="0" alt="" />');
}
function sendAnalyticsEvent(str){var ns=s_accountName;if(str!=null)ns+=","+str;void(s_gs(ns));}
function sendLinkEvent(accnt,lnkname,type){
accnt=s_accountName;s_linkType=type;s_lnk=true;s_linkName=lnkname;void(s_gs(accnt));}
//--></script><noscript><img
src="http://192.168.112.2O7.net/b/ss/mxmacromedia/1/F.3-XELvs"
height="1" width="1" border="0" alt="" /></noscript><!--/DO NOT REMOVE/-->
<!-- End SiteCatalyst code version: G.6. -->
</div><!-- InstanceEndEditable -->
<img id="flash_pixel" name="flash_pixel" src="/images/pixel.gif" width="1" height="1" alt="" />
</body>
<!-- InstanceEnd --></html>
