<!DOCTYPE HTML PUBLIC "-//W3C//DTD HTML 4.01 Transitional//EN">
<html lang="ja">
<head>

<meta http-equiv="content-language" content="ja">
<meta http-equiv="content-type" content="text/html; charset=shift_jis">
<meta http-equiv="content-style-type" content="text/css">
<meta http-equiv="content-script-type" content="text/javascript">
<meta name="description" content="iモード対応HTMLのオリジナル証明書について、制作者向けの情報をご説明します。">
<meta name="keywords" content="HTML,オリジナル証明書,タグ,属性,i-mode,iモード,アイモード,imode,作成,作り方">
<title>iモード対応HTMLタグ一覧 : オリジナル証明書 | サービス・機能 | NTTドコモ</title>
<link rel="stylesheet" type="text/css" media="screen,print" href="/css/screen.css">
<link rel="stylesheet" type="text/css" media="print" href="/css/common/print.css">
<script type="text/javascript" src="/js/common/common.js"></script>

</head>


<body>


<div id="contentswrap">
















<!-- ===== begin header ===== -->
<div id="headerwrap">

<!-- ヘッダー -->
<div id="header">
<p id="logo"><a href="http://www.nttdocomo.co.jp/" name="top" id="top"><img src="/images/header/logo.gif" alt="NTT DoCoMo" width="87" height="45"></a></p>
<div class="rmv">
<p><a href="#contenttop">ナビゲーションをスキップ</a></p>
<h2>グローバルナビゲーション</h2>
</div>
<ul id="font"><li class="font">文字サイズの変更</li><li class="font-icon"><a href="#" onclick="setDcmFontStyle('f_s');return false;"><img src="/images/header/font_small_off.gif" alt="小" width="15" height="15" name="s_img"></a></li><li class="font-icon"><a href="#" onclick="setDcmFontStyle('default');return false;"><img src="/images/header/font_middle_on.gif" alt="中" width="15" height="15" name="m_img"></a></li><li class="font-icon"><a href="#" onclick="setDcmFontStyle('f_b');return false;"><img src="/images/header/font_big_off.gif" alt="大" width="15" height="15" name="b_img"></a></li></ul>
<!-- 以下改行は含めないでください -->
<ul><li class="first"><a href="http://www.nttdocomo.co.jp/support/shop/">ドコモショップ</a></li><li><a href="http://www.nttdocomo.co.jp/support/inquiry/">お問い合わせ</a></li><li class="blank"><a href="http://www.mydocomo.com/web/top/" target="_blank"><span class="rmv">（別ウインドウが開きます）</span>My DoCoMo ログイン</a></li><li><a href="http://www.nttdocomo.co.jp/sitemap/">サイトマップ</a></li><li id="hn-search"><form action="http://search.nttdocomo.co.jp/query.html" name="siteSearch" id="siteSearch" method="GET"><div class="rmv">サイト内検索</div><div><input type="hidden" name="col" value="dcmall"><input type="hidden" name="charset" value="shift_jis"><input type="text" size="18" name="qt" value="" class="query"><input type="submit" value="検索" class="submit"></div></form></li></ul>
<!-- 以上改行は含めないでください -->
</div><!-- /#header -->
<!-- /ヘッダー -->

<!-- グローバルナビゲーション -->
<div id="globalnav">
<ul>
<li id="gn-home"><a href="http://www.nttdocomo.co.jp/">ホーム</a></li>
<li id="gn-product"><a href="http://www.nttdocomo.co.jp/product/">製品</a></li>
<li id="gn-service"><a href="http://www.nttdocomo.co.jp/service/" class="on">サービス・機能</a></li>
<li id="gn-charge"><a href="http://www.nttdocomo.co.jp/charge/">料金・割引</a></li>
<li id="gn-support"><a href="http://www.nttdocomo.co.jp/support/">お客様サポート</a></li>
</ul>
</div><!-- /#globalnav -->
<!-- /グローバルナビゲーション -->

</div><!-- /#headerwrap -->
<!-- ===== /end header ===== -->
















<!-- ===== begin main paragraph ===== -->
<div id="mainwrap" class="clear">

<!-- 左コラム (本文含む) -->
<div id="leftcol">






<!-- パン屑リスト およびページタイトル　-->
<div id="topcol">

<!-- パン屑リスト -->
<div id="breadcrumb">
<p><span class="rmv">現在のページは</span><a href="/">ホーム</a><img src="/images/common/partition_breadcrumb.gif" alt="の中の" width="5" height="8" ><a href="/service/">サービス・機能</a><img src="/images/common/partition_breadcrumb.gif" alt="の中の" width="5" height="8" ><a href="/service/imode/">iモード</a><img src="/images/common/partition_breadcrumb.gif" alt="の中の" width="5" height="8" ><a href="/service/imode/make/">作ろうiモードコンテンツ</a><img src="/images/common/partition_breadcrumb.gif" alt="の中の" width="5" height="8" ><a href="/service/imode/make/content/">知りたいiモード技術情報を選ぶ</a><img src="/images/common/partition_breadcrumb.gif" alt="の中の" width="5" height="8" ><a href="/service/imode/make/content/html/">HTML</a><img src="/images/common/partition_breadcrumb.gif" alt="の中の" width="5" height="8" >iモード対応HTMLタグ一覧<span class="rmv">のページです。</span></p>
</div>
<!-- /パン屑リスト -->

<!-- ページタイトル -->
<div id="pagetitle">
<h1 class="title"><a name="contenttop" id="contenttop">iモード対応HTMLタグ一覧</a></h1>
</div>
<!-- /ページタイトル -->

</div><!-- /#toplevcol -->
<!-- /パン屑リスト およびページタイトル　-->







<div id="maincol">
<!-- ===== 本文はここから始まっています。 ===== -->

<div class="section clear">
<p class="blet-link-left fright txt"><a href="index.html">iモード対応HTMLタグ一覧</a>へ</p>
</div>

<!-- ================================================ h2-s11 ================================================  -->
<div class="boxArea">
<div class="wrap">
<div class="section">


<!-- セクション大見出し  -->
<div class="titlept01">
<div class="bluept01">
<h2 class="title">オリジナル証明書</h2>
</div>
</div>
<!-- /セクション大見出し  -->

<p class="txt">対応機種ではオリジナル証明書を利用することが可能です。</p>

<!-- セクション中見出し -->
<div class="titlept02">
<div class="bluept01">
<h3 class="title">対応機種</h3>
</div>
</div>
<!-- /セクション中見出し -->

<p class="txt">F903i、D903i、F903iX HIGH-SPEED、D903iTV</p>


<!-- セクション中見出し -->
<div class="titlept02">
<div class="bluept01">
<h3 class="title">配信方法</h3>
</div>
</div>
<!-- /セクション中見出し -->

<p class="txt">&lt;A&gt;で指定し、利用します。</p>



<p class="txt">オリジナル証明書の詳細は<img src="/images/mark/blet_popup.gif" alt="" width="12" height="12" class="icon"><a href="http://www.docomo.biz/html/product/firstpass/certificate.html" target="_blank"><span class="rmv">（別ウインドウが開きます）</span>FirstPass（NTT ドコモビジネスオンライン）</a>をご参照ください。</p>




</div><!-- /.section -->
</div><!-- /.wrap -->
</div><!-- /.boxArea -->
<!-- ================================================ /h2-s11 ================================================  -->




<!-- ===== /本文はここで終わっています。 ===== -->
</div><!-- /#maincol -->

</div><!-- /#leftcol -->
<!-- /左コラム -->
















<!-- 右コラム (ローカルナビゲーション含む) -->
<div id="rightcol">


<!-- ======= ローカルナビゲーション ======= -->
<div id="localnav"><h2 class="rmv">ローカルナビゲーション</h2>
<ul><li><span><a href="/service/">サービス・機能</a></span></li><li><span><a href="/service/imode/">iモード</a></span></li><li><span><a href="/service/imode/make/">作ろうiモードコンテンツ</a></span></li><li><span><a href="/service/imode/make/content/">知りたいiモード技術情報を選ぶ</a></span></li><li><span><a href="/service/imode/make/content/html/">HTML</a></span><ul><li><a href="/service/imode/make/content/html/notice/">iモード対応コンテンツ作成時の留意点</a></li><li><a href="/service/imode/make/content/html/version/">iモード対応HTMLのバージョン</a></li><li><a href="/service/imode/make/content/html/useragent/">ユーザエージェント</a></li><li><a href="/service/imode/make/content/html/tag/" class="on">iモード対応HTMLタグ一覧</a></li><li><a href="/service/imode/make/content/html/tool/">iモードHTMLシミュレータ</a></li><li><a href="/service/imode/make/content/html/tool2/">iモードHTMLシミュレータII</a></li></ul></li></ul></div><!-- ======= /ローカルナビゲーション ======= -->






</div><!-- rightcol -->
<!-- /右コラム (ローカルナビゲーション含む) -->











</div><!-- /mainwrap -->
<!-- ===== /end main paragraph ===== -->
















<!-- ===== begin page top ===== -->
<div id="pagetop" class="clear">
<p class="btn-pagetop"><a href="#top">このページのトップへ</a></p>
</div>
<!-- ===== /end page top ===== -->
















<!-- ===== begin footer ===== -->
<div id="footerwrap">
<h2 class="rmv">フッターナビゲーション</h2>
<!-- フッターナビゲーション -->
<div id="footernav" class="clear">
<!-- 以下改行は含めないでください -->
<ul class="clear"><li class="first"><a href="http://www.nttdocomo.co.jp/corporate/">企業情報</a></li><li><a href="http://www.nttdocomo.co.jp/corporate/ir/">株主・投資家情報</a></li><li><a href="http://www.nttdocomo.co.jp/utility/privacy/">お客様の個人情報に関するプライバシーポリシー</a></li><li><a href="http://www.nttdocomo.co.jp/utility/term/">サイトご利用にあたって</a></li></ul>
<!-- 以上改行は含めないでください -->
</div>
<!-- /フッターナビゲーション -->
<!-- フッターテキスト -->
<div class="info">
<p>他地域の情報はこちらから<img src="/images/mark/arrow_right_normal.gif" alt="" width="12" height="12" class="icon"><a href="http://www.nttdocomo.co.jp/utility/group/index.html">地域各社ホームページ</a></p>
</div><!-- /.info -->
<!-- /フッターテキスト -->
<div id="footer" class="clear">
<p class="copyright"><span>&copy; 2007 NTT DoCoMo, Inc. All Rights Reserved.</span></p>
<p class="logo-docomo2"><a href="http://docomo2.jp/top.html" target="_blank"><span>DoCoMo 2.0（フラッシュサイト）（別ウインドウが開きます）</span></a></p>
</div>
</div>
<!-- ===== /end footer ===== -->










</div><!-- /contentswrap -->



</body>
</html>