<!-- ...................................................................... -->
<!-- XHTML Server-side Image Map Module  .................................. -->
<!-- file: xhtml-ssismap-1.mod

     This is XHTML, a reformulation of HTML as a modular XML application.
     Copyright 1998-2000 W3C (MIT, INRIA, Keio), All Rights Reserved.
     Revision: $Id: xhtml-ssismap-1.mod,v 1.10 2000/10/16 21:15:23 radams Exp $ SMI

     This DTD module is identified by the PUBLIC and SYSTEM identifiers:

       PUBLIC "-//W3C//ELEMENTS XHTML Server-side Image Maps 1.0//EN"
       SYSTEM "http://www.w3.org/TR/xhtml-modulatization/DTD/xhtml-ssismap-1.mod"

     Revisions:
     (none)
     ....................................................................... -->

<!-- Server-side Image Maps

     This adds the 'ismap' attribute to the img element to 
     support server-side processing of a user selection.
-->

<!ATTLIST %img.qname;
      ismap        ( ismap )                #IMPLIED
>

<!-- end of xhtml-ssismap-1.mod -->
