<!-- ============================================
     ::DATATOOL:: Generated from "pubmed.asn"
     ::DATATOOL:: by application DATATOOL version 1.8.1
     ::DATATOOL:: on 01/18/2007 23:07:18
     ============================================ -->

<!-- ============================================ -->
<!-- This section is mapped from module "NCBI-PubMed"
================================================= -->

<!--
$Revision: 6.0 $
**********************************************************************

  PUBMED data definitions

**********************************************************************
-->

<!-- Elements used by other modules:
          Pubmed-entry,
          Pubmed-url -->

<!-- Elements referenced from other modules:
          PubMedId FROM NCBI-Biblio,
          Medline-entry FROM NCBI-Medline -->
<!-- ============================================ -->

<!--
 a PubMed entry
 PUBMED records must include the PubMedId
-->
<!ELEMENT Pubmed-entry (
        Pubmed-entry_pmid, 
        Pubmed-entry_medent?, 
        Pubmed-entry_publisher?, 
        Pubmed-entry_urls?, 
        Pubmed-entry_pubid?)>

<!ELEMENT Pubmed-entry_pmid (PubMedId)>

<!ELEMENT Pubmed-entry_medent (Medline-entry)> <!-- Medline entry information -->

<!ELEMENT Pubmed-entry_publisher (#PCDATA)> <!-- Publisher name -->

<!ELEMENT Pubmed-entry_urls (Pubmed-url*)> <!-- List of URL to publisher cite -->

<!ELEMENT Pubmed-entry_pubid (#PCDATA)> <!-- Publisher's article identifier -->


<!ELEMENT Pubmed-url (
        Pubmed-url_location?, 
        Pubmed-url_url)>

<!ELEMENT Pubmed-url_location (#PCDATA)> <!-- Location code -->

<!ELEMENT Pubmed-url_url (#PCDATA)> <!-- Selected URL for location -->

