<html><head><meta http-equiv="content-type" content="text/html; charset=UTF-8"><title>mozilla_tidy_source/tidy_extension/xpi/sgml-lib/sgml.dtd - Google Code Search</title><style><!--
body {background-color:white;color:black;font-family:Arial, sans-serif;margin:8px;margin-top:3px}
.j{white-space:-moz-pre-wrap;	white-space:-pre-wrap;	white-space:-o-pre-wrap;	word-wrap:break-word;	margin-top:4px;margin-bottom:4px;border:1px solid silver;background-color:#f5f5f5;padding:0.5em;width:85%;color:#222;}
#title {border-top:1px solid #36c;background-color:#e5ecf9;margin:0;padding:0;padding-top:1px;padding-bottom:1px;padding-left:3px;margin-top:5px}
.expl {font-size:small;margin-left:2em;margin-right:2em}
.f {font-size:small;margin-bottom:1.5em}
.hl{font-weight:bold;color:#000}
.h{margin-top:1em;margin-bottom:0px}
.k {background-color:#36c}
.a,.a a{font-size:small;color:green}
a:active{color:#f00}a:link{color:#00c}a:visited{color:#551a8b}a.s,.s a{font-size:small;color:#77c}.a,.a a{font-size:small;color:green}.i, .i:link {color:#a90a08;font-size:small}
.n .i {font-size:10pt;font-weight:bold}
.n a {font-size:10pt;color:#000}
.b a {font-size:12pt;color:#00c;font-weight:bold}
code {color: #007000; font-family:"bogus font here",monospace; font-size: 100%;}
code.fn {color: #007000; font-family:"bogus font here",monospace; font-size: 100%;}
div.n {margin-top:1ex}
img{border:0}
.chl {background:#ffa}
.cchl {background:#aff}
.cclhl {background:#e8f4f7;display:block}
.cc {color:#060}
.input_table tr td {vertical-align:top;}--></style>
<script type="text/javascript">
<!--
function sf(){}
// --></script></head><body bgcolor=#ffffff onload="sf()"><table cellspacing=0 cellpadding=0 border=0 width=100%><tr><td align=left valign=top><a href="/codesearch"><img src="http://www.google.com/intl/en/images/codesearch_logo_sm.gif" width=150 height=55 alt="" border=0 vspace=12></a></td><td width=10></td><td align=left><font size=-1>This is Google's cached copy of <code class=fn>mozilla_tidy_source/tidy_extension/xpi/sgml-lib/sgml.dtd</code> from<br><span class="a"><a href="codesearch/url?hl=en&ct=rpc&url=http://users.skynet.be/mgueury/mozilla/tidy_08x_source.zip&usg=AFQjCNFecLonw5eEXUaOOFUc28sq6tFk9w">http://users.skynet.be/mgueury/mozilla/tidy_08x_source.zip</a></span> <br><br><i>Google is neither affiliated with the authors of this page nor responsible for its content.</i></font></td></tr><tr height=10><td colspan=3></td></tr><tr height=1 bgcolor=#000000><td bgcolor=#000000 colspan=3></td></tr></table><br><table cellspacing=0 cellpadding=0 border=0 width=100%><tr><td align=left valign=top colspan=4><pre><a href="/codesearch?hl=en&amp;q=show:eU0EuvDRNYs:rwEtmQFIluY&amp;sa=N&amp;ct=rdp&amp;cs_p=http://users.skynet.be">http://users.skynet.be</a>/<a href="/codesearch?hl=en&amp;q=show:ozOXaw3a1qs:9alDXuevGD0&amp;sa=N&amp;ct=rdp&amp;cs_p=http://users.skynet.be&amp;cs_f=mgueury">mgueury</a>/<a href="/codesearch?hl=en&amp;q=show:uVx3IdDidwk:10M3ZSfbaYE&amp;sa=N&amp;ct=rdp&amp;cs_p=http://users.skynet.be&amp;cs_f=mgueury/mozilla">mozilla</a>/<a href="/codesearch?hl=en&amp;q=show:SM_R3GbDAfQ:QZXoFApwGAQ&amp;sa=N&amp;ct=rdp&amp;cs_p=http://users.skynet.be/mgueury/mozilla/tidy_08x_source.zip">tidy_08x_source.zip</a>/<a href="/codesearch?hl=en&amp;q=show:cAjNKJVA3LA:9nQINOx9IOg&amp;sa=N&amp;ct=rdp&amp;cs_p=http://users.skynet.be/mgueury/mozilla/tidy_08x_source.zip&amp;cs_f=mozilla_tidy_source">mozilla_tidy_source</a>/<a href="/codesearch?hl=en&amp;q=show:g09kpcc7uto:B4HgLtyn-7M&amp;sa=N&amp;ct=rdp&amp;cs_p=http://users.skynet.be/mgueury/mozilla/tidy_08x_source.zip&amp;cs_f=mozilla_tidy_source/tidy_extension">tidy_extension</a>/<a href="/codesearch?hl=en&amp;q=show:r65OzAw_92c:vxcNSgIQcGA&amp;sa=N&amp;ct=rdp&amp;cs_p=http://users.skynet.be/mgueury/mozilla/tidy_08x_source.zip&amp;cs_f=mozilla_tidy_source/tidy_extension/xpi">xpi</a>/<a href="/codesearch?hl=en&amp;q=show:48MxNM6690U:GGuOTYL7VNc&amp;sa=N&amp;ct=rdp&amp;cs_p=http://users.skynet.be/mgueury/mozilla/tidy_08x_source.zip&amp;cs_f=mozilla_tidy_source/tidy_extension/xpi/sgml-lib">sgml-lib</a>/</pre></td></tr><tr><td>&nbsp;&nbsp;&nbsp;&nbsp;</td><td align=left valign=top><pre><a href="/codesearch?hl=en&amp;q=show:u8QMrvhmnbE:nqQx4-Tpt8Q&amp;sa=N&amp;ct=rdl&amp;cs_p=http://users.skynet.be/mgueury/mozilla/tidy_08x_source.zip&amp;cs_f=mozilla_tidy_source/tidy_extension/xpi/sgml-lib/IETF">IETF</a>/
<a href="/codesearch?hl=en&amp;q=show:rgaj5sS1TBA:VcwHrDqfmRk&amp;sa=N&amp;ct=rdl&amp;cs_p=http://users.skynet.be/mgueury/mozilla/tidy_08x_source.zip&amp;cs_f=mozilla_tidy_source/tidy_extension/xpi/sgml-lib/ISO-HTML">ISO-HTML</a>/
<a href="/codesearch?hl=en&amp;q=show:mp-rJA5pYRE:v9Ln1PsHi74&amp;sa=N&amp;ct=rdl&amp;cs_p=http://users.skynet.be/mgueury/mozilla/tidy_08x_source.zip&amp;cs_f=mozilla_tidy_source/tidy_extension/xpi/sgml-lib/REC-MathML2-20031021">REC-MathML2-20031021</a>/
<a href="/codesearch?hl=en&amp;q=show:jcxnbixfJGs:HIo7fYpfiig&amp;sa=N&amp;ct=rdl&amp;cs_p=http://users.skynet.be/mgueury/mozilla/tidy_08x_source.zip&amp;cs_f=mozilla_tidy_source/tidy_extension/xpi/sgml-lib/REC-SVG-20010904">REC-SVG-20010904</a>/
<a href="/codesearch?hl=en&amp;q=show:S8eTIIojN24:pvHQyba3WbY&amp;sa=N&amp;ct=rdl&amp;cs_p=http://users.skynet.be/mgueury/mozilla/tidy_08x_source.zip&amp;cs_f=mozilla_tidy_source/tidy_extension/xpi/sgml-lib/REC-SVG11-20030114">REC-SVG11-20030114</a>/
<a href="/codesearch?hl=en&amp;q=show:oGAK3J0CRF4:BDooHrecmQI&amp;sa=N&amp;ct=rdl&amp;cs_p=http://users.skynet.be/mgueury/mozilla/tidy_08x_source.zip&amp;cs_f=mozilla_tidy_source/tidy_extension/xpi/sgml-lib/REC-html32-19970114">REC-html32-19970114</a>/
<a href="/codesearch?hl=en&amp;q=show:WqaphDX4SuY:GuCRRNsHzKQ&amp;sa=N&amp;ct=rdl&amp;cs_p=http://users.skynet.be/mgueury/mozilla/tidy_08x_source.zip&amp;cs_f=mozilla_tidy_source/tidy_extension/xpi/sgml-lib/REC-html40-19980424">REC-html40-19980424</a>/
<a href="/codesearch?hl=en&amp;q=show:JSDEPD3tHPM:_x1Vjq49Dug&amp;sa=N&amp;ct=rdl&amp;cs_p=http://users.skynet.be/mgueury/mozilla/tidy_08x_source.zip&amp;cs_f=mozilla_tidy_source/tidy_extension/xpi/sgml-lib/REC-html401-19991224">REC-html401-19991224</a>/
<a href="/codesearch?hl=en&amp;q=show:RKvo8EG-9pA:6EmoxHTZ_F0&amp;sa=N&amp;ct=rdl&amp;cs_p=http://users.skynet.be/mgueury/mozilla/tidy_08x_source.zip&amp;cs_f=mozilla_tidy_source/tidy_extension/xpi/sgml-lib/REC-smil-19980615">REC-smil-19980615</a>/
<a href="/codesearch?hl=en&amp;q=show:0ZAEl36fVHY:OadxlrdZC24&amp;sa=N&amp;ct=rdl&amp;cs_p=http://users.skynet.be/mgueury/mozilla/tidy_08x_source.zip&amp;cs_f=mozilla_tidy_source/tidy_extension/xpi/sgml-lib/REC-smil20-20050107">REC-smil20-20050107</a>/
<a href="/codesearch?hl=en&amp;q=show:Tr7_LGRdAts:3tK5YBO_TXk&amp;sa=N&amp;ct=rdl&amp;cs_p=http://users.skynet.be/mgueury/mozilla/tidy_08x_source.zip&amp;cs_f=mozilla_tidy_source/tidy_extension/xpi/sgml-lib/REC-xhtml-basic-20001219">REC-xhtml-basic-20001219</a>/
<a href="/codesearch?hl=en&amp;q=show:Nx5GxckzvAc:PCPs8aQDQDw&amp;sa=N&amp;ct=rdl&amp;cs_p=http://users.skynet.be/mgueury/mozilla/tidy_08x_source.zip&amp;cs_f=mozilla_tidy_source/tidy_extension/xpi/sgml-lib/REC-xhtml1-20020801">REC-xhtml1-20020801</a>/
<a href="/codesearch?hl=en&amp;q=show:fZkBSvVQAUE:ed0wQeLDatg&amp;sa=N&amp;ct=rdl&amp;cs_p=http://users.skynet.be/mgueury/mozilla/tidy_08x_source.zip&amp;cs_f=mozilla_tidy_source/tidy_extension/xpi/sgml-lib/REC-xhtml11-20010531">REC-xhtml11-20010531</a>/
<a href="/codesearch?hl=en&amp;q=show:ex54JKAh-t8:48MxNM6690U:C4DYdXt30W4&amp;sa=N&amp;ct=rd&amp;cs_p=http://users.skynet.be/mgueury/mozilla/tidy_08x_source.zip&amp;cs_f=mozilla_tidy_source/tidy_extension/xpi/sgml-lib/sgml.dcl&amp;start=1">sgml.dcl</a>
<b>sgml.dtd</b>
<a href="/codesearch?hl=en&amp;q=show:c_qRc88U4M4:48MxNM6690U:pexuSJPwkxM&amp;sa=N&amp;ct=rd&amp;cs_p=http://users.skynet.be/mgueury/mozilla/tidy_08x_source.zip&amp;cs_f=mozilla_tidy_source/tidy_extension/xpi/sgml-lib/sgml.soc&amp;start=1">sgml.soc</a>
<a href="/codesearch?hl=en&amp;q=show:m97IFGl2MXI:48MxNM6690U:69_Q-ELTnis&amp;sa=N&amp;ct=rd&amp;cs_p=http://users.skynet.be/mgueury/mozilla/tidy_08x_source.zip&amp;cs_f=mozilla_tidy_source/tidy_extension/xpi/sgml-lib/spec.dtd&amp;start=1">spec.dtd</a>
<a href="/codesearch?hl=en&amp;q=show:7_urHYJYdgg:48MxNM6690U:vSNKkaFSG6k&amp;sa=N&amp;ct=rd&amp;cs_p=http://users.skynet.be/mgueury/mozilla/tidy_08x_source.zip&amp;cs_f=mozilla_tidy_source/tidy_extension/xpi/sgml-lib/xhtml-math-svg-flat-20020809.dtd&amp;start=1">xhtml-math-svg-flat-20020809.dtd</a>
<a href="/codesearch?hl=en&amp;q=show:HUMOj5eFkWU:48MxNM6690U:hjalhPWYYTM&amp;sa=N&amp;ct=rd&amp;cs_p=http://users.skynet.be/mgueury/mozilla/tidy_08x_source.zip&amp;cs_f=mozilla_tidy_source/tidy_extension/xpi/sgml-lib/xml.dcl&amp;start=1">xml.dcl</a>
<a href="/codesearch?hl=en&amp;q=show:RjAiCO2hzew:48MxNM6690U:-p59WSeoAJM&amp;sa=N&amp;ct=rd&amp;cs_p=http://users.skynet.be/mgueury/mozilla/tidy_08x_source.zip&amp;cs_f=mozilla_tidy_source/tidy_extension/xpi/sgml-lib/xml.dtd&amp;start=1">xml.dtd</a>
<a href="/codesearch?hl=en&amp;q=show:ra1U5NzhLf4:48MxNM6690U:sN7I8-uxZOw&amp;sa=N&amp;ct=rd&amp;cs_p=http://users.skynet.be/mgueury/mozilla/tidy_08x_source.zip&amp;cs_f=mozilla_tidy_source/tidy_extension/xpi/sgml-lib/xml.soc&amp;start=1">xml.soc</a>
</pre></td><td>&nbsp;&nbsp;&nbsp;&nbsp;</td><td align=left valign=top width=100%><pre><span id=l1>&lt;!--
</span><span id=l2>    This is the HTML 4.01 Transitional DTD, which includes
</span><span id=l3>    presentation attributes and elements that W3C expects to phase out
</span><span id=l4>    as support for style sheets matures. Authors should use the Strict
</span><span id=l5>    DTD when possible, but may use the Transitional DTD when support
</span><span id=l6>    for presentation attribute and elements is required.
</span><span id=l7>
</span><span id=l8>    HTML 4 includes mechanisms for style sheets, scripting,
</span><span id=l9>    embedding objects, improved support for right to left and mixed
</span><span id=l10>    direction text, and enhancements to forms for improved
</span><span id=l11>    accessibility for people with disabilities.
</span><span id=l12>
</span><span id=l13>          Draft: $Date: 2005/02/04 13:20:31 $
</span><span id=l14>
</span><span id=l15>          Authors:
</span><span id=l16>              Dave Raggett &lt;dsr@w3.org&gt;
</span><span id=l17>              Arnaud Le Hors &lt;lehors@w3.org&gt;
</span><span id=l18>              Ian Jacobs &lt;ij@w3.org&gt;
</span><span id=l19>
</span><span id=l20>    Further information about HTML 4.01 is available at:
</span><span id=l21>
</span><span id=l22>        http://www.w3.org/TR/1999/REC-html401-19991224
</span><span id=l23>
</span><span id=l24>
</span><span id=l25>    The HTML 4.01 specification includes additional
</span><span id=l26>    syntactic constraints that cannot be expressed within
</span><span id=l27>    the DTDs.
</span><span id=l28>
</span><span id=l29>--&gt;
</span><span id=l30>&lt;!ENTITY % HTML.Version &quot;-//W3C//DTD SGML Fallback//EN&quot;
</span><span id=l31>  -- Typical usage:
</span><span id=l32>
</span><span id=l33>    &lt;!DOCTYPE HTML PUBLIC &quot;-//W3C//DTD HTML 4.01 Transitional//EN&quot;
</span><span id=l34>            &quot;http://www.w3.org/TR/html4/loose.dtd&quot;&gt;
</span><span id=l35>    &lt;html&gt;
</span><span id=l36>    &lt;head&gt;
</span><span id=l37>    ...
</span><span id=l38>    &lt;/head&gt;
</span><span id=l39>    &lt;body&gt;
</span><span id=l40>    ...
</span><span id=l41>    &lt;/body&gt;
</span><span id=l42>    &lt;/html&gt;
</span><span id=l43>
</span><span id=l44>    The URI used as a system identifier with the public identifier allows
</span><span id=l45>    the user agent to download the DTD and entity sets as needed.
</span><span id=l46>
</span><span id=l47>    The FPI for the Strict HTML 4.01 DTD is:
</span><span id=l48>
</span><span id=l49>        &quot;-//W3C//DTD HTML 4.01//EN&quot;
</span><span id=l50>
</span><span id=l51>    This version of the strict DTD is:
</span><span id=l52>
</span><span id=l53>        http://www.w3.org/TR/1999/REC-html401-19991224/strict.dtd
</span><span id=l54>
</span><span id=l55>    Authors should use the Strict DTD unless they need the
</span><span id=l56>    presentation control for user agents that don&#39;t (adequately)
</span><span id=l57>    support style sheets.
</span><span id=l58>
</span><span id=l59>    If you are writing a document that includes frames, use
</span><span id=l60>    the following FPI:
</span><span id=l61>
</span><span id=l62>        &quot;-//W3C//DTD HTML 4.01 Frameset//EN&quot;
</span><span id=l63>
</span><span id=l64>    This version of the frameset DTD is:
</span><span id=l65>
</span><span id=l66>        http://www.w3.org/TR/1999/REC-html401-19991224/frameset.dtd
</span><span id=l67>
</span><span id=l68>    Use the following (relative) URIs to refer to
</span><span id=l69>    the DTDs and entity definitions of this specification:
</span><span id=l70>
</span><span id=l71>    &quot;strict.dtd&quot;
</span><span id=l72>    &quot;loose.dtd&quot;
</span><span id=l73>    &quot;frameset.dtd&quot;
</span><span id=l74>    &quot;HTMLlat1.ent&quot;
</span><span id=l75>    &quot;HTMLsymbol.ent&quot;
</span><span id=l76>    &quot;HTMLspecial.ent&quot;
</span><span id=l77>
</span><span id=l78>--&gt;
</span><span id=l79>
</span><span id=l80>&lt;!--================== Imported Names ====================================--&gt;
</span><span id=l81>&lt;!-- Feature Switch for frameset documents --&gt;
</span><span id=l82>&lt;!ENTITY % HTML.Frameset &quot;IGNORE&quot;&gt;
</span><span id=l83>
</span><span id=l84>&lt;!ENTITY % ContentType &quot;CDATA&quot;
</span><span id=l85>    -- media type, as per [RFC2045]
</span><span id=l86>    --&gt;
</span><span id=l87>
</span><span id=l88>&lt;!ENTITY % ContentTypes &quot;CDATA&quot;
</span><span id=l89>    -- comma-separated list of media types, as per [RFC2045]
</span><span id=l90>    --&gt;
</span><span id=l91>
</span><span id=l92>&lt;!ENTITY % Charset &quot;CDATA&quot;
</span><span id=l93>    -- a character encoding, as per [RFC2045]
</span><span id=l94>    --&gt;
</span><span id=l95>
</span><span id=l96>&lt;!ENTITY % Charsets &quot;CDATA&quot;
</span><span id=l97>    -- a space-separated list of character encodings, as per [RFC2045]
</span><span id=l98>    --&gt;
</span><span id=l99>
</span><span id=l100>&lt;!ENTITY % LanguageCode &quot;NAME&quot;
</span><span id=l101>    -- a language code, as per [RFC1766]
</span><span id=l102>    --&gt;
</span><span id=l103>
</span><span id=l104>&lt;!ENTITY % Character &quot;CDATA&quot;
</span><span id=l105>    -- a single character from [ISO10646]
</span><span id=l106>    --&gt;
</span><span id=l107>
</span><span id=l108>&lt;!ENTITY % LinkTypes &quot;CDATA&quot;
</span><span id=l109>    -- space-separated list of link types
</span><span id=l110>    --&gt;
</span><span id=l111>
</span><span id=l112>&lt;!ENTITY % MediaDesc &quot;CDATA&quot;
</span><span id=l113>    -- single or comma-separated list of media descriptors
</span><span id=l114>    --&gt;
</span><span id=l115>
</span><span id=l116>&lt;!ENTITY % URI &quot;CDATA&quot;
</span><span id=l117>    -- a Uniform Resource Identifier,
</span><span id=l118>       see [URI]
</span><span id=l119>    --&gt;
</span><span id=l120>
</span><span id=l121>&lt;!ENTITY % Datetime &quot;CDATA&quot; -- date and time information. ISO date format --&gt;
</span><span id=l122>
</span><span id=l123>
</span><span id=l124>&lt;!ENTITY % Script &quot;CDATA&quot; -- script expression --&gt;
</span><span id=l125>
</span><span id=l126>&lt;!ENTITY % StyleSheet &quot;CDATA&quot; -- style sheet data --&gt;
</span><span id=l127>
</span><span id=l128>&lt;!ENTITY % FrameTarget &quot;CDATA&quot; -- render in this frame --&gt;
</span><span id=l129>
</span><span id=l130>
</span><span id=l131>&lt;!ENTITY % Text &quot;CDATA&quot;&gt;
</span><span id=l132>
</span><span id=l133>
</span><span id=l134>&lt;!-- Parameter Entities --&gt;
</span><span id=l135>
</span><span id=l136>&lt;!ENTITY % head.misc &quot;SCRIPT|STYLE|META|LINK|OBJECT&quot; -- repeatable head elements --&gt;
</span><span id=l137>
</span><span id=l138>&lt;!ENTITY % heading &quot;H1|H2|H3|H4|H5|H6&quot;&gt;
</span><span id=l139>
</span><span id=l140>&lt;!ENTITY % list &quot;UL | OL |  DIR | MENU&quot;&gt;
</span><span id=l141>
</span><span id=l142>&lt;!ENTITY % preformatted &quot;PRE&quot;&gt;
</span><span id=l143>
</span><span id=l144>&lt;!ENTITY % Color &quot;CDATA&quot; -- a color using sRGB: #RRGGBB as Hex values --&gt;
</span><span id=l145>
</span><span id=l146>&lt;!-- There are also 16 widely known color names with their sRGB values:
</span><span id=l147>
</span><span id=l148>    Black  = #000000    Green  = #008000
</span><span id=l149>    Silver = #C0C0C0    Lime   = #00FF00
</span><span id=l150>    Gray   = #808080    Olive  = #808000
</span><span id=l151>    White  = #FFFFFF    Yellow = #FFFF00
</span><span id=l152>    Maroon = #800000    Navy   = #000080
</span><span id=l153>    Red    = #FF0000    Blue   = #0000FF
</span><span id=l154>    Purple = #800080    Teal   = #008080
</span><span id=l155>    Fuchsia= #FF00FF    Aqua   = #00FFFF
</span><span id=l156> --&gt;
</span><span id=l157>
</span><span id=l158>&lt;!ENTITY % bodycolors &quot;
</span><span id=l159>  bgcolor     %Color;        #IMPLIED  -- document background color --
</span><span id=l160>  text        %Color;        #IMPLIED  -- document text color --
</span><span id=l161>  link        %Color;        #IMPLIED  -- color of links --
</span><span id=l162>  vlink       %Color;        #IMPLIED  -- color of visited links --
</span><span id=l163>  alink       %Color;        #IMPLIED  -- color of selected links --
</span><span id=l164>  &quot;&gt;
</span><span id=l165>
</span><span id=l166>&lt;!--================ Character mnemonic entities =========================--&gt;
</span><span id=l167>
</span><span id=l168>&lt;!ENTITY % HTMLlat1 PUBLIC
</span><span id=l169>   &quot;-//W3C//ENTITIES Latin1//EN//HTML&quot;
</span><span id=l170>   &quot;HTMLlat1.ent&quot;&gt;
</span><span id=l171>%HTMLlat1;
</span><span id=l172>
</span><span id=l173>&lt;!ENTITY % HTMLsymbol PUBLIC
</span><span id=l174>   &quot;-//W3C//ENTITIES Symbols//EN//HTML&quot;
</span><span id=l175>   &quot;HTMLsymbol.ent&quot;&gt;
</span><span id=l176>%HTMLsymbol;
</span><span id=l177>
</span><span id=l178>&lt;!ENTITY % HTMLspecial PUBLIC
</span><span id=l179>   &quot;-//W3C//ENTITIES Special//EN//HTML&quot;
</span><span id=l180>   &quot;HTMLspecial.ent&quot;&gt;
</span><span id=l181>%HTMLspecial;
</span><span id=l182>&lt;!--=================== Generic Attributes ===============================--&gt;
</span><span id=l183>
</span><span id=l184>&lt;!ENTITY % coreattrs
</span><span id=l185> &quot;id          ID             #IMPLIED  -- document-wide unique id --
</span><span id=l186>  class       CDATA          #IMPLIED  -- space-separated list of classes --
</span><span id=l187>  style       %StyleSheet;   #IMPLIED  -- associated style info --
</span><span id=l188>  title       %Text;         #IMPLIED  -- advisory title --&quot;
</span><span id=l189>  &gt;
</span><span id=l190>
</span><span id=l191>&lt;!ENTITY % i18n
</span><span id=l192> &quot;lang        %LanguageCode; #IMPLIED  -- language code --
</span><span id=l193>  dir         (ltr|rtl)      #IMPLIED  -- direction for weak/neutral text --&quot;
</span><span id=l194>  &gt;
</span><span id=l195>
</span><span id=l196>&lt;!ENTITY % events
</span><span id=l197> &quot;onclick     %Script;       #IMPLIED  -- a pointer button was clicked --
</span><span id=l198>  ondblclick  %Script;       #IMPLIED  -- a pointer button was double clicked--
</span><span id=l199>  onmousedown %Script;       #IMPLIED  -- a pointer button was pressed down --
</span><span id=l200>  onmouseup   %Script;       #IMPLIED  -- a pointer button was released --
</span><span id=l201>  onmouseover %Script;       #IMPLIED  -- a pointer was moved onto --
</span><span id=l202>  onmousemove %Script;       #IMPLIED  -- a pointer was moved within --
</span><span id=l203>  onmouseout  %Script;       #IMPLIED  -- a pointer was moved away --
</span><span id=l204>  onkeypress  %Script;       #IMPLIED  -- a key was pressed and released --
</span><span id=l205>  onkeydown   %Script;       #IMPLIED  -- a key was pressed down --
</span><span id=l206>  onkeyup     %Script;       #IMPLIED  -- a key was released --&quot;
</span><span id=l207>  &gt;
</span><span id=l208>
</span><span id=l209>&lt;!-- Reserved Feature Switch --&gt;
</span><span id=l210>&lt;!ENTITY % HTML.Reserved &quot;IGNORE&quot;&gt;
</span><span id=l211>
</span><span id=l212>&lt;!-- The following attributes are reserved for possible future use --&gt;
</span><span id=l213>&lt;![ %HTML.Reserved; [
</span><span id=l214>&lt;!ENTITY % reserved
</span><span id=l215> &quot;datasrc     %URI;          #IMPLIED  -- a single or tabular Data Source --
</span><span id=l216>  datafld     CDATA          #IMPLIED  -- the property or column name --
</span><span id=l217>  dataformatas (plaintext|html) plaintext -- text or html --&quot;
</span><span id=l218>  &gt;
</span><span id=l219>]]&gt;
</span><span id=l220>
</span><span id=l221>&lt;!ENTITY % reserved &quot;&quot;&gt;
</span><span id=l222>
</span><span id=l223>&lt;!ENTITY % attrs &quot;%coreattrs; %i18n; %events;&quot;&gt;
</span><span id=l224>
</span><span id=l225>&lt;!ENTITY % align &quot;align (left|center|right|justify)  #IMPLIED&quot;
</span><span id=l226>                   -- default is left for ltr paragraphs, right for rtl --
</span><span id=l227>  &gt;
</span><span id=l228>
</span><span id=l229>&lt;!--=================== Text Markup ======================================--&gt;
</span><span id=l230>
</span><span id=l231>&lt;!ENTITY % fontstyle
</span><span id=l232> &quot;TT | I | B | U | S | STRIKE | BIG | SMALL&quot;&gt;
</span><span id=l233>
</span><span id=l234>&lt;!ENTITY % phrase &quot;EM | STRONG | DFN | CODE |
</span><span id=l235>                   SAMP | KBD | VAR | CITE | ABBR | ACRONYM&quot; &gt;
</span><span id=l236>
</span><span id=l237>&lt;!ENTITY % special
</span><span id=l238>   &quot;A | IMG | APPLET | OBJECT | FONT | BASEFONT | BR | SCRIPT |
</span><span id=l239>    MAP | Q | SUB | SUP | SPAN | BDO | IFRAME&quot;&gt;
</span><span id=l240>
</span><span id=l241>&lt;!ENTITY % formctrl &quot;INPUT | SELECT | TEXTAREA | LABEL | BUTTON&quot;&gt;
</span><span id=l242>
</span><span id=l243>&lt;!-- %inline; covers inline or &quot;text-level&quot; elements --&gt;
</span><span id=l244>&lt;!ENTITY % inline &quot;#PCDATA | %fontstyle; | %phrase; | %special; | %formctrl;&quot;&gt;
</span><span id=l245>
</span><span id=l246>&lt;!ELEMENT (%fontstyle;|%phrase;) - - (%inline;)*&gt;
</span><span id=l247>&lt;!ATTLIST (%fontstyle;|%phrase;)
</span><span id=l248>  %attrs;                              -- %coreattrs, %i18n, %events --
</span><span id=l249>  &gt;
</span><span id=l250>
</span><span id=l251>&lt;!ELEMENT (SUB|SUP) - - (%inline;)*    -- subscript, superscript --&gt;
</span><span id=l252>&lt;!ATTLIST (SUB|SUP)
</span><span id=l253>  %attrs;                              -- %coreattrs, %i18n, %events --
</span><span id=l254>  &gt;
</span><span id=l255>
</span><span id=l256>&lt;!ELEMENT SPAN - - (%inline;)*         -- generic language/style container --&gt;
</span><span id=l257>&lt;!ATTLIST SPAN
</span><span id=l258>  %attrs;                              -- %coreattrs, %i18n, %events --
</span><span id=l259>  %reserved;			       -- reserved for possible future use --
</span><span id=l260>  &gt;
</span><span id=l261>
</span><span id=l262>&lt;!ELEMENT BDO - - (%inline;)*          -- I18N BiDi over-ride --&gt;
</span><span id=l263>&lt;!ATTLIST BDO
</span><span id=l264>  %coreattrs;                          -- id, class, style, title --
</span><span id=l265>  lang        %LanguageCode; #IMPLIED  -- language code --
</span><span id=l266>  dir         (ltr|rtl)      #REQUIRED -- directionality --
</span><span id=l267>  &gt;
</span><span id=l268>
</span><span id=l269>&lt;!ELEMENT BASEFONT - O EMPTY           -- base font size --&gt;
</span><span id=l270>&lt;!ATTLIST BASEFONT
</span><span id=l271>  id          ID             #IMPLIED  -- document-wide unique id --
</span><span id=l272>  size        CDATA          #REQUIRED -- base font size for FONT elements --
</span><span id=l273>  color       %Color;        #IMPLIED  -- text color --
</span><span id=l274>  face        CDATA          #IMPLIED  -- comma-separated list of font names --
</span><span id=l275>  &gt;
</span><span id=l276>
</span><span id=l277>&lt;!ELEMENT FONT - - (%inline;)*         -- local change to font --&gt;
</span><span id=l278>&lt;!ATTLIST FONT
</span><span id=l279>  %coreattrs;                          -- id, class, style, title --
</span><span id=l280>  %i18n;		               -- lang, dir --
</span><span id=l281>  size        CDATA          #IMPLIED  -- [+|-]nn e.g. size=&quot;+1&quot;, size=&quot;4&quot; --
</span><span id=l282>  color       %Color;        #IMPLIED  -- text color --
</span><span id=l283>  face        CDATA          #IMPLIED  -- comma-separated list of font names --
</span><span id=l284>  &gt;
</span><span id=l285>
</span><span id=l286>&lt;!ELEMENT BR - O EMPTY                 -- forced line break --&gt;
</span><span id=l287>&lt;!ATTLIST BR
</span><span id=l288>  %coreattrs;                          -- id, class, style, title --
</span><span id=l289>  clear       (left|all|right|none) none -- control of text flow --
</span><span id=l290>  &gt;
</span><span id=l291>
</span><span id=l292>&lt;!--================== HTML content models ===============================--&gt;
</span><span id=l293>
</span><span id=l294>&lt;!--
</span><span id=l295>    HTML has two basic content models:
</span><span id=l296>
</span><span id=l297>        %inline;     character level elements and text strings
</span><span id=l298>        %block;      block-like elements e.g. paragraphs and lists
</span><span id=l299>--&gt;
</span><span id=l300>
</span><span id=l301>&lt;!ENTITY % block
</span><span id=l302>     &quot;P | %heading; | %list; | %preformatted; | DL | DIV | CENTER |
</span><span id=l303>      NOSCRIPT | NOFRAMES | BLOCKQUOTE | FORM | ISINDEX | HR |
</span><span id=l304>      TABLE | FIELDSET | ADDRESS&quot;&gt;
</span><span id=l305>
</span><span id=l306>&lt;!ENTITY % flow &quot;%block; | %inline;&quot;&gt;
</span><span id=l307>
</span><span id=l308>&lt;!--=================== Document Body ====================================--&gt;
</span><span id=l309>
</span><span id=l310>&lt;!ELEMENT BODY O O (%flow;)* +(INS|DEL) -- document body --&gt;
</span><span id=l311>&lt;!ATTLIST BODY
</span><span id=l312>  %attrs;                              -- %coreattrs, %i18n, %events --
</span><span id=l313>  onload          %Script;   #IMPLIED  -- the document has been loaded --
</span><span id=l314>  onunload        %Script;   #IMPLIED  -- the document has been removed --
</span><span id=l315>  background      %URI;      #IMPLIED  -- texture tile for document
</span><span id=l316>                                          background --
</span><span id=l317>  %bodycolors;                         -- bgcolor, text, link, vlink, alink --
</span><span id=l318>  &gt;
</span><span id=l319>
</span><span id=l320>&lt;!ELEMENT ADDRESS - - ((%inline;)|P)*  -- information on author --&gt;
</span><span id=l321>&lt;!ATTLIST ADDRESS
</span><span id=l322>  %attrs;                              -- %coreattrs, %i18n, %events --
</span><span id=l323>  &gt;
</span><span id=l324>
</span><span id=l325>&lt;!ELEMENT DIV - - (%flow;)*            -- generic language/style container --&gt;
</span><span id=l326>&lt;!ATTLIST DIV
</span><span id=l327>  %attrs;                              -- %coreattrs, %i18n, %events --
</span><span id=l328>  %align;                              -- align, text alignment --
</span><span id=l329>  %reserved;                           -- reserved for possible future use --
</span><span id=l330>  &gt;
</span><span id=l331>
</span><span id=l332>&lt;!ELEMENT CENTER - - (%flow;)*         -- shorthand for DIV align=center --&gt;
</span><span id=l333>&lt;!ATTLIST CENTER
</span><span id=l334>  %attrs;                              -- %coreattrs, %i18n, %events --
</span><span id=l335>  &gt;
</span><span id=l336>
</span><span id=l337>&lt;!--================== The Anchor Element ================================--&gt;
</span><span id=l338>
</span><span id=l339>&lt;!ENTITY % Shape &quot;(rect|circle|poly|default)&quot;&gt;
</span><span id=l340>&lt;!ENTITY % Coords &quot;CDATA&quot; -- comma-separated list of lengths --&gt;
</span><span id=l341>
</span><span id=l342>&lt;!ELEMENT A - - (%inline;)* -(A)       -- anchor --&gt;
</span><span id=l343>&lt;!ATTLIST A
</span><span id=l344>  %attrs;                              -- %coreattrs, %i18n, %events --
</span><span id=l345>  charset     %Charset;      #IMPLIED  -- char encoding of linked resource --
</span><span id=l346>  type        %ContentType;  #IMPLIED  -- advisory content type --
</span><span id=l347>  name        CDATA          #IMPLIED  -- named link end --
</span><span id=l348>  href        %URI;          #IMPLIED  -- URI for linked resource --
</span><span id=l349>  hreflang    %LanguageCode; #IMPLIED  -- language code --
</span><span id=l350>  target      %FrameTarget;  #IMPLIED  -- render in this frame --
</span><span id=l351>  rel         %LinkTypes;    #IMPLIED  -- forward link types --
</span><span id=l352>  rev         %LinkTypes;    #IMPLIED  -- reverse link types --
</span><span id=l353>  accesskey   %Character;    #IMPLIED  -- accessibility key character --
</span><span id=l354>  shape       %Shape;        rect      -- for use with client-side image maps --
</span><span id=l355>  coords      %Coords;       #IMPLIED  -- for use with client-side image maps --
</span><span id=l356>  tabindex    NUMBER         #IMPLIED  -- position in tabbing order --
</span><span id=l357>  onfocus     %Script;       #IMPLIED  -- the element got the focus --
</span><span id=l358>  onblur      %Script;       #IMPLIED  -- the element lost the focus --
</span><span id=l359>  &gt;
</span><span id=l360>
</span><span id=l361>&lt;!--================== Client-side image maps ============================--&gt;
</span><span id=l362>
</span><span id=l363>&lt;!-- These can be placed in the same document or grouped in a
</span><span id=l364>     separate document although this isn&#39;t yet widely supported --&gt;
</span><span id=l365>
</span><span id=l366>&lt;!ELEMENT MAP - - ((%block;) | AREA)+ -- client-side image map --&gt;
</span><span id=l367>&lt;!ATTLIST MAP
</span><span id=l368>  %attrs;                              -- %coreattrs, %i18n, %events --
</span><span id=l369>  name        CDATA          #REQUIRED -- for reference by usemap --
</span><span id=l370>  &gt;
</span><span id=l371>
</span><span id=l372>&lt;!ELEMENT AREA - O EMPTY               -- client-side image map area --&gt;
</span><span id=l373>&lt;!ATTLIST AREA
</span><span id=l374>  %attrs;                              -- %coreattrs, %i18n, %events --
</span><span id=l375>  shape       %Shape;        rect      -- controls interpretation of coords --
</span><span id=l376>  coords      %Coords;       #IMPLIED  -- comma-separated list of lengths --
</span><span id=l377>  href        %URI;          #IMPLIED  -- URI for linked resource --
</span><span id=l378>  target      %FrameTarget;  #IMPLIED  -- render in this frame --
</span><span id=l379>  nohref      (nohref)       #IMPLIED  -- this region has no action --
</span><span id=l380>  alt         %Text;         #REQUIRED -- short description --
</span><span id=l381>  tabindex    NUMBER         #IMPLIED  -- position in tabbing order --
</span><span id=l382>  accesskey   %Character;    #IMPLIED  -- accessibility key character --
</span><span id=l383>  onfocus     %Script;       #IMPLIED  -- the element got the focus --
</span><span id=l384>  onblur      %Script;       #IMPLIED  -- the element lost the focus --
</span><span id=l385>  &gt;
</span><span id=l386>
</span><span id=l387>&lt;!--================== The LINK Element ==================================--&gt;
</span><span id=l388>
</span><span id=l389>&lt;!--
</span><span id=l390>  Relationship values can be used in principle:
</span><span id=l391>
</span><span id=l392>   a) for document specific toolbars/menus when used
</span><span id=l393>      with the LINK element in document head e.g.
</span><span id=l394>        start, contents, previous, next, index, end, help
</span><span id=l395>   b) to link to a separate style sheet (rel=stylesheet)
</span><span id=l396>   c) to make a link to a script (rel=script)
</span><span id=l397>   d) by stylesheets to control how collections of
</span><span id=l398>      html nodes are rendered into printed documents
</span><span id=l399>   e) to make a link to a printable version of this document
</span><span id=l400>      e.g. a postscript or pdf version (rel=alternate media=print)
</span><span id=l401>--&gt;
</span><span id=l402>
</span><span id=l403>&lt;!ELEMENT LINK - O EMPTY               -- a media-independent link --&gt;
</span><span id=l404>&lt;!ATTLIST LINK
</span><span id=l405>  %attrs;                              -- %coreattrs, %i18n, %events --
</span><span id=l406>  charset     %Charset;      #IMPLIED  -- char encoding of linked resource --
</span><span id=l407>  href        %URI;          #IMPLIED  -- URI for linked resource --
</span><span id=l408>  hreflang    %LanguageCode; #IMPLIED  -- language code --
</span><span id=l409>  type        %ContentType;  #IMPLIED  -- advisory content type --
</span><span id=l410>  rel         %LinkTypes;    #IMPLIED  -- forward link types --
</span><span id=l411>  rev         %LinkTypes;    #IMPLIED  -- reverse link types --
</span><span id=l412>  media       %MediaDesc;    #IMPLIED  -- for rendering on these media --
</span><span id=l413>  target      %FrameTarget;  #IMPLIED  -- render in this frame --
</span><span id=l414>  &gt;
</span><span id=l415>
</span><span id=l416>&lt;!--=================== Images ===========================================--&gt;
</span><span id=l417>
</span><span id=l418>&lt;!-- Length defined in strict DTD for cellpadding/cellspacing --&gt;
</span><span id=l419>&lt;!ENTITY % Length &quot;CDATA&quot; -- nn for pixels or nn% for percentage length --&gt;
</span><span id=l420>&lt;!ENTITY % MultiLength &quot;CDATA&quot; -- pixel, percentage, or relative --&gt;
</span><span id=l421>
</span><span id=l422>&lt;![ %HTML.Frameset; [
</span><span id=l423>&lt;!ENTITY % MultiLengths &quot;CDATA&quot; -- comma-separated list of MultiLength --&gt;
</span><span id=l424>]]&gt;
</span><span id=l425>
</span><span id=l426>&lt;!ENTITY % Pixels &quot;CDATA&quot; -- integer representing length in pixels --&gt;
</span><span id=l427>
</span><span id=l428>&lt;!ENTITY % IAlign &quot;(top|middle|bottom|left|right)&quot; -- center? --&gt;
</span><span id=l429>
</span><span id=l430>&lt;!-- To avoid problems with text-only UAs as well as
</span><span id=l431>   to make image content understandable and navigable
</span><span id=l432>   to users of non-visual UAs, you need to provide
</span><span id=l433>   a description with ALT, and avoid server-side image maps --&gt;
</span><span id=l434>&lt;!ELEMENT IMG - O EMPTY                -- Embedded image --&gt;
</span><span id=l435>&lt;!ATTLIST IMG
</span><span id=l436>  %attrs;                              -- %coreattrs, %i18n, %events --
</span><span id=l437>  src         %URI;          #REQUIRED -- URI of image to embed --
</span><span id=l438>  alt         %Text;         #REQUIRED -- short description --
</span><span id=l439>  longdesc    %URI;          #IMPLIED  -- link to long description
</span><span id=l440>                                          (complements alt) --
</span><span id=l441>  name        CDATA          #IMPLIED  -- name of image for scripting --
</span><span id=l442>  height      %Length;       #IMPLIED  -- override height --
</span><span id=l443>  width       %Length;       #IMPLIED  -- override width --
</span><span id=l444>  usemap      %URI;          #IMPLIED  -- use client-side image map --
</span><span id=l445>  ismap       (ismap)        #IMPLIED  -- use server-side image map --
</span><span id=l446>  align       %IAlign;       #IMPLIED  -- vertical or horizontal alignment --
</span><span id=l447>  border      %Pixels;       #IMPLIED  -- link border width --
</span><span id=l448>  hspace      %Pixels;       #IMPLIED  -- horizontal gutter --
</span><span id=l449>  vspace      %Pixels;       #IMPLIED  -- vertical gutter --
</span><span id=l450>  &gt;
</span><span id=l451>
</span><span id=l452>&lt;!-- USEMAP points to a MAP element which may be in this document
</span><span id=l453>  or an external document, although the latter is not widely supported --&gt;
</span><span id=l454>
</span><span id=l455>&lt;!--==================== OBJECT ======================================--&gt;
</span><span id=l456>&lt;!--
</span><span id=l457>  OBJECT is used to embed objects as part of HTML pages
</span><span id=l458>  PARAM elements should precede other content. SGML mixed content
</span><span id=l459>  model technicality precludes specifying this formally ...
</span><span id=l460>--&gt;
</span><span id=l461>
</span><span id=l462>&lt;!ELEMENT OBJECT - - (PARAM | %flow;)*
</span><span id=l463> -- generic embedded object --&gt;
</span><span id=l464>&lt;!ATTLIST OBJECT
</span><span id=l465>  %attrs;                              -- %coreattrs, %i18n, %events --
</span><span id=l466>  declare     (declare)      #IMPLIED  -- declare but don&#39;t instantiate flag --
</span><span id=l467>  classid     %URI;          #IMPLIED  -- identifies an implementation --
</span><span id=l468>  codebase    %URI;          #IMPLIED  -- base URI for classid, data, archive--
</span><span id=l469>  data        %URI;          #IMPLIED  -- reference to object&#39;s data --
</span><span id=l470>  type        %ContentType;  #IMPLIED  -- content type for data --
</span><span id=l471>  codetype    %ContentType;  #IMPLIED  -- content type for code --
</span><span id=l472>  archive     CDATA          #IMPLIED  -- space-separated list of URIs --
</span><span id=l473>  standby     %Text;         #IMPLIED  -- message to show while loading --
</span><span id=l474>  height      %Length;       #IMPLIED  -- override height --
</span><span id=l475>  width       %Length;       #IMPLIED  -- override width --
</span><span id=l476>  usemap      %URI;          #IMPLIED  -- use client-side image map --
</span><span id=l477>  name        CDATA          #IMPLIED  -- submit as part of form --
</span><span id=l478>  tabindex    NUMBER         #IMPLIED  -- position in tabbing order --
</span><span id=l479>  align       %IAlign;       #IMPLIED  -- vertical or horizontal alignment --
</span><span id=l480>  border      %Pixels;       #IMPLIED  -- link border width --
</span><span id=l481>  hspace      %Pixels;       #IMPLIED  -- horizontal gutter --
</span><span id=l482>  vspace      %Pixels;       #IMPLIED  -- vertical gutter --
</span><span id=l483>  %reserved;                           -- reserved for possible future use --
</span><span id=l484>  &gt;
</span><span id=l485>
</span><span id=l486>&lt;!ELEMENT PARAM - O EMPTY              -- named property value --&gt;
</span><span id=l487>&lt;!ATTLIST PARAM
</span><span id=l488>  id          ID             #IMPLIED  -- document-wide unique id --
</span><span id=l489>  name        CDATA          #REQUIRED -- property name --
</span><span id=l490>  value       CDATA          #IMPLIED  -- property value --
</span><span id=l491>  valuetype   (DATA|REF|OBJECT) DATA   -- How to interpret value --
</span><span id=l492>  type        %ContentType;  #IMPLIED  -- content type for value
</span><span id=l493>                                          when valuetype=ref --
</span><span id=l494>  &gt;
</span><span id=l495>
</span><span id=l496>&lt;!--=================== Java APPLET ==================================--&gt;
</span><span id=l497>&lt;!--
</span><span id=l498>  One of code or object attributes must be present.
</span><span id=l499>  Place PARAM elements before other content.
</span><span id=l500>--&gt;
</span><span id=l501>&lt;!ELEMENT APPLET - - (PARAM | %flow;)* -- Java applet --&gt;
</span><span id=l502>&lt;!ATTLIST APPLET
</span><span id=l503>  %coreattrs;                          -- id, class, style, title --
</span><span id=l504>  codebase    %URI;          #IMPLIED  -- optional base URI for applet --
</span><span id=l505>  archive     CDATA          #IMPLIED  -- comma-separated archive list --
</span><span id=l506>  code        CDATA          #IMPLIED  -- applet class file --
</span><span id=l507>  object      CDATA          #IMPLIED  -- serialized applet file --
</span><span id=l508>  alt         %Text;         #IMPLIED  -- short description --
</span><span id=l509>  name        CDATA          #IMPLIED  -- allows applets to find each other --
</span><span id=l510>  width       %Length;       #REQUIRED -- initial width --
</span><span id=l511>  height      %Length;       #REQUIRED -- initial height --
</span><span id=l512>  align       %IAlign;       #IMPLIED  -- vertical or horizontal alignment --
</span><span id=l513>  hspace      %Pixels;       #IMPLIED  -- horizontal gutter --
</span><span id=l514>  vspace      %Pixels;       #IMPLIED  -- vertical gutter --
</span><span id=l515>  &gt;
</span><span id=l516>
</span><span id=l517>&lt;!--=================== Horizontal Rule ==================================--&gt;
</span><span id=l518>
</span><span id=l519>&lt;!ELEMENT HR - O EMPTY -- horizontal rule --&gt;
</span><span id=l520>&lt;!ATTLIST HR
</span><span id=l521>  %attrs;                              -- %coreattrs, %i18n, %events --
</span><span id=l522>  align       (left|center|right) #IMPLIED
</span><span id=l523>  noshade     (noshade)      #IMPLIED
</span><span id=l524>  size        %Pixels;       #IMPLIED
</span><span id=l525>  width       %Length;       #IMPLIED
</span><span id=l526>  &gt;
</span><span id=l527>
</span><span id=l528>&lt;!--=================== Paragraphs =======================================--&gt;
</span><span id=l529>
</span><span id=l530>&lt;!ELEMENT P - O (%inline;)*            -- paragraph --&gt;
</span><span id=l531>&lt;!ATTLIST P
</span><span id=l532>  %attrs;                              -- %coreattrs, %i18n, %events --
</span><span id=l533>  %align;                              -- align, text alignment --
</span><span id=l534>  &gt;
</span><span id=l535>
</span><span id=l536>&lt;!--=================== Headings =========================================--&gt;
</span><span id=l537>
</span><span id=l538>&lt;!--
</span><span id=l539>  There are six levels of headings from H1 (the most important)
</span><span id=l540>  to H6 (the least important).
</span><span id=l541>--&gt;
</span><span id=l542>
</span><span id=l543>&lt;!ELEMENT (%heading;)  - - (%inline;)* -- heading --&gt;
</span><span id=l544>&lt;!ATTLIST (%heading;)
</span><span id=l545>  %attrs;                              -- %coreattrs, %i18n, %events --
</span><span id=l546>  %align;                              -- align, text alignment --
</span><span id=l547>  &gt;
</span><span id=l548>
</span><span id=l549>&lt;!--=================== Preformatted Text ================================--&gt;
</span><span id=l550>
</span><span id=l551>&lt;!-- excludes markup for images and changes in font size --&gt;
</span><span id=l552>&lt;!ENTITY % pre.exclusion &quot;IMG|OBJECT|APPLET|BIG|SMALL|SUB|SUP|FONT|BASEFONT&quot;&gt;
</span><span id=l553>
</span><span id=l554>&lt;!ELEMENT PRE - - (%inline;)* -(%pre.exclusion;) -- preformatted text --&gt;
</span><span id=l555>&lt;!ATTLIST PRE
</span><span id=l556>  %attrs;                              -- %coreattrs, %i18n, %events --
</span><span id=l557>  width       NUMBER         #IMPLIED
</span><span id=l558>  &gt;
</span><span id=l559>
</span><span id=l560>&lt;!--===================== Inline Quotes ==================================--&gt;
</span><span id=l561>
</span><span id=l562>&lt;!ELEMENT Q - - (%inline;)*            -- short inline quotation --&gt;
</span><span id=l563>&lt;!ATTLIST Q
</span><span id=l564>  %attrs;                              -- %coreattrs, %i18n, %events --
</span><span id=l565>  cite        %URI;          #IMPLIED  -- URI for source document or msg --
</span><span id=l566>  &gt;
</span><span id=l567>
</span><span id=l568>&lt;!--=================== Block-like Quotes ================================--&gt;
</span><span id=l569>
</span><span id=l570>&lt;!ELEMENT BLOCKQUOTE - - (%flow;)*     -- long quotation --&gt;
</span><span id=l571>&lt;!ATTLIST BLOCKQUOTE
</span><span id=l572>  %attrs;                              -- %coreattrs, %i18n, %events --
</span><span id=l573>  cite        %URI;          #IMPLIED  -- URI for source document or msg --
</span><span id=l574>  &gt;
</span><span id=l575>
</span><span id=l576>&lt;!--=================== Inserted/Deleted Text ============================--&gt;
</span><span id=l577>
</span><span id=l578>
</span><span id=l579>&lt;!-- INS/DEL are handled by inclusion on BODY --&gt;
</span><span id=l580>&lt;!ELEMENT (INS|DEL) - - (%flow;)*      -- inserted text, deleted text --&gt;
</span><span id=l581>&lt;!ATTLIST (INS|DEL)
</span><span id=l582>  %attrs;                              -- %coreattrs, %i18n, %events --
</span><span id=l583>  cite        %URI;          #IMPLIED  -- info on reason for change --
</span><span id=l584>  datetime    %Datetime;     #IMPLIED  -- date and time of change --
</span><span id=l585>  &gt;
</span><span id=l586>
</span><span id=l587>&lt;!--=================== Lists ============================================--&gt;
</span><span id=l588>
</span><span id=l589>&lt;!-- definition lists - DT for term, DD for its definition --&gt;
</span><span id=l590>
</span><span id=l591>&lt;!ELEMENT DL - - (DT|DD)+              -- definition list --&gt;
</span><span id=l592>&lt;!ATTLIST DL
</span><span id=l593>  %attrs;                              -- %coreattrs, %i18n, %events --
</span><span id=l594>  compact     (compact)      #IMPLIED  -- reduced interitem spacing --
</span><span id=l595>  &gt;
</span><span id=l596>
</span><span id=l597>&lt;!ELEMENT DT - O (%inline;)*           -- definition term --&gt;
</span><span id=l598>&lt;!ELEMENT DD - O (%flow;)*             -- definition description --&gt;
</span><span id=l599>&lt;!ATTLIST (DT|DD)
</span><span id=l600>  %attrs;                              -- %coreattrs, %i18n, %events --
</span><span id=l601>  &gt;
</span><span id=l602>
</span><span id=l603>&lt;!-- Ordered lists (OL) Numbering style
</span><span id=l604>
</span><span id=l605>    1   arablic numbers     1, 2, 3, ...
</span><span id=l606>    a   lower alpha         a, b, c, ...
</span><span id=l607>    A   upper alpha         A, B, C, ...
</span><span id=l608>    i   lower roman         i, ii, iii, ...
</span><span id=l609>    I   upper roman         I, II, III, ...
</span><span id=l610>
</span><span id=l611>    The style is applied to the sequence number which by default
</span><span id=l612>    is reset to 1 for the first list item in an ordered list.
</span><span id=l613>
</span><span id=l614>    This can&#39;t be expressed directly in SGML due to case folding.
</span><span id=l615>--&gt;
</span><span id=l616>
</span><span id=l617>&lt;!ENTITY % OLStyle &quot;CDATA&quot;      -- constrained to: &quot;(1|a|A|i|I)&quot; --&gt;
</span><span id=l618>
</span><span id=l619>&lt;!ELEMENT OL - - (LI)+                 -- ordered list --&gt;
</span><span id=l620>&lt;!ATTLIST OL
</span><span id=l621>  %attrs;                              -- %coreattrs, %i18n, %events --
</span><span id=l622>  type        %OLStyle;      #IMPLIED  -- numbering style --
</span><span id=l623>  compact     (compact)      #IMPLIED  -- reduced interitem spacing --
</span><span id=l624>  start       NUMBER         #IMPLIED  -- starting sequence number --
</span><span id=l625>  &gt;
</span><span id=l626>
</span><span id=l627>&lt;!-- Unordered Lists (UL) bullet styles --&gt;
</span><span id=l628>&lt;!ENTITY % ULStyle &quot;(disc|square|circle)&quot;&gt;
</span><span id=l629>
</span><span id=l630>&lt;!ELEMENT UL - - (LI)+                 -- unordered list --&gt;
</span><span id=l631>&lt;!ATTLIST UL
</span><span id=l632>  %attrs;                              -- %coreattrs, %i18n, %events --
</span><span id=l633>  type        %ULStyle;      #IMPLIED  -- bullet style --
</span><span id=l634>  compact     (compact)      #IMPLIED  -- reduced interitem spacing --
</span><span id=l635>  &gt;
</span><span id=l636>
</span><span id=l637>&lt;!ELEMENT (DIR|MENU) - - (LI)+ -(%block;) -- directory list, menu list --&gt;
</span><span id=l638>&lt;!ATTLIST DIR
</span><span id=l639>  %attrs;                              -- %coreattrs, %i18n, %events --
</span><span id=l640>  compact     (compact)      #IMPLIED -- reduced interitem spacing --
</span><span id=l641>  &gt;
</span><span id=l642>&lt;!ATTLIST MENU
</span><span id=l643>  %attrs;                              -- %coreattrs, %i18n, %events --
</span><span id=l644>  compact     (compact)      #IMPLIED -- reduced interitem spacing --
</span><span id=l645>  &gt;
</span><span id=l646>
</span><span id=l647>&lt;!ENTITY % LIStyle &quot;CDATA&quot; -- constrained to: &quot;(%ULStyle;|%OLStyle;)&quot; --&gt;
</span><span id=l648>
</span><span id=l649>&lt;!ELEMENT LI - O (%flow;)*             -- list item --&gt;
</span><span id=l650>&lt;!ATTLIST LI
</span><span id=l651>  %attrs;                              -- %coreattrs, %i18n, %events --
</span><span id=l652>  type        %LIStyle;      #IMPLIED  -- list item style --
</span><span id=l653>  value       NUMBER         #IMPLIED  -- reset sequence number --
</span><span id=l654>  &gt;
</span><span id=l655>
</span><span id=l656>&lt;!--================ Forms ===============================================--&gt;
</span><span id=l657>&lt;!ELEMENT FORM - - (%flow;)* -(FORM)   -- interactive form --&gt;
</span><span id=l658>&lt;!ATTLIST FORM
</span><span id=l659>  %attrs;                              -- %coreattrs, %i18n, %events --
</span><span id=l660>  action      %URI;          #REQUIRED -- server-side form handler --
</span><span id=l661>  method      (GET|POST)     GET       -- HTTP method used to submit the form--
</span><span id=l662>  enctype     %ContentType;  &quot;application/x-www-form-urlencoded&quot;
</span><span id=l663>  accept      %ContentTypes; #IMPLIED  -- list of MIME types for file upload --
</span><span id=l664>  name        CDATA          #IMPLIED  -- name of form for scripting --
</span><span id=l665>  onsubmit    %Script;       #IMPLIED  -- the form was submitted --
</span><span id=l666>  onreset     %Script;       #IMPLIED  -- the form was reset --
</span><span id=l667>  target      %FrameTarget;  #IMPLIED  -- render in this frame --
</span><span id=l668>  accept-charset %Charsets;  #IMPLIED  -- list of supported charsets --
</span><span id=l669>  &gt;
</span><span id=l670>
</span><span id=l671>&lt;!-- Each label must not contain more than ONE field --&gt;
</span><span id=l672>&lt;!ELEMENT LABEL - - (%inline;)* -(LABEL) -- form field label text --&gt;
</span><span id=l673>&lt;!ATTLIST LABEL
</span><span id=l674>  %attrs;                              -- %coreattrs, %i18n, %events --
</span><span id=l675>  for         IDREF          #IMPLIED  -- matches field ID value --
</span><span id=l676>  accesskey   %Character;    #IMPLIED  -- accessibility key character --
</span><span id=l677>  onfocus     %Script;       #IMPLIED  -- the element got the focus --
</span><span id=l678>  onblur      %Script;       #IMPLIED  -- the element lost the focus --
</span><span id=l679>  &gt;
</span><span id=l680>
</span><span id=l681>&lt;!ENTITY % InputType
</span><span id=l682>  &quot;(TEXT | PASSWORD | CHECKBOX |
</span><span id=l683>    RADIO | SUBMIT | RESET |
</span><span id=l684>    FILE | HIDDEN | IMAGE | BUTTON)&quot;
</span><span id=l685>   &gt;
</span><span id=l686>
</span><span id=l687>&lt;!-- attribute name required for all but submit and reset --&gt;
</span><span id=l688>&lt;!ELEMENT INPUT - O EMPTY              -- form control --&gt;
</span><span id=l689>&lt;!ATTLIST INPUT
</span><span id=l690>  %attrs;                              -- %coreattrs, %i18n, %events --
</span><span id=l691>  type        %InputType;    TEXT      -- what kind of widget is needed --
</span><span id=l692>  name        CDATA          #IMPLIED  -- submit as part of form --
</span><span id=l693>  value       CDATA          #IMPLIED  -- Specify for radio buttons and checkboxes --
</span><span id=l694>  checked     (checked)      #IMPLIED  -- for radio buttons and check boxes --
</span><span id=l695>  disabled    (disabled)     #IMPLIED  -- unavailable in this context --
</span><span id=l696>  readonly    (readonly)     #IMPLIED  -- for text and passwd --
</span><span id=l697>  size        CDATA          #IMPLIED  -- specific to each type of field --
</span><span id=l698>  maxlength   NUMBER         #IMPLIED  -- max chars for text fields --
</span><span id=l699>  src         %URI;          #IMPLIED  -- for fields with images --
</span><span id=l700>  alt         CDATA          #IMPLIED  -- short description --
</span><span id=l701>  usemap      %URI;          #IMPLIED  -- use client-side image map --
</span><span id=l702>  ismap       (ismap)        #IMPLIED  -- use server-side image map --
</span><span id=l703>  tabindex    NUMBER         #IMPLIED  -- position in tabbing order --
</span><span id=l704>  accesskey   %Character;    #IMPLIED  -- accessibility key character --
</span><span id=l705>  onfocus     %Script;       #IMPLIED  -- the element got the focus --
</span><span id=l706>  onblur      %Script;       #IMPLIED  -- the element lost the focus --
</span><span id=l707>  onselect    %Script;       #IMPLIED  -- some text was selected --
</span><span id=l708>  onchange    %Script;       #IMPLIED  -- the element value was changed --
</span><span id=l709>  accept      %ContentTypes; #IMPLIED  -- list of MIME types for file upload --
</span><span id=l710>  align       %IAlign;       #IMPLIED  -- vertical or horizontal alignment --
</span><span id=l711>  %reserved;                           -- reserved for possible future use --
</span><span id=l712>  &gt;
</span><span id=l713>
</span><span id=l714>&lt;!ELEMENT SELECT - - (OPTGROUP|OPTION)+ -- option selector --&gt;
</span><span id=l715>&lt;!ATTLIST SELECT
</span><span id=l716>  %attrs;                              -- %coreattrs, %i18n, %events --
</span><span id=l717>  name        CDATA          #IMPLIED  -- field name --
</span><span id=l718>  size        NUMBER         #IMPLIED  -- rows visible --
</span><span id=l719>  multiple    (multiple)     #IMPLIED  -- default is single selection --
</span><span id=l720>  disabled    (disabled)     #IMPLIED  -- unavailable in this context --
</span><span id=l721>  tabindex    NUMBER         #IMPLIED  -- position in tabbing order --
</span><span id=l722>  onfocus     %Script;       #IMPLIED  -- the element got the focus --
</span><span id=l723>  onblur      %Script;       #IMPLIED  -- the element lost the focus --
</span><span id=l724>  onchange    %Script;       #IMPLIED  -- the element value was changed --
</span><span id=l725>  %reserved;                           -- reserved for possible future use --
</span><span id=l726>  &gt;
</span><span id=l727>
</span><span id=l728>&lt;!ELEMENT OPTGROUP - - (OPTION)+ -- option group --&gt;
</span><span id=l729>&lt;!ATTLIST OPTGROUP
</span><span id=l730>  %attrs;                              -- %coreattrs, %i18n, %events --
</span><span id=l731>  disabled    (disabled)     #IMPLIED  -- unavailable in this context --
</span><span id=l732>  label       %Text;         #REQUIRED -- for use in hierarchical menus --
</span><span id=l733>  &gt;
</span><span id=l734>
</span><span id=l735>&lt;!ELEMENT OPTION - O (#PCDATA)         -- selectable choice --&gt;
</span><span id=l736>&lt;!ATTLIST OPTION
</span><span id=l737>  %attrs;                              -- %coreattrs, %i18n, %events --
</span><span id=l738>  selected    (selected)     #IMPLIED
</span><span id=l739>  disabled    (disabled)     #IMPLIED  -- unavailable in this context --
</span><span id=l740>  label       %Text;         #IMPLIED  -- for use in hierarchical menus --
</span><span id=l741>  value       CDATA          #IMPLIED  -- defaults to element content --
</span><span id=l742>  &gt;
</span><span id=l743>
</span><span id=l744>&lt;!ELEMENT TEXTAREA - - (#PCDATA)       -- multi-line text field --&gt;
</span><span id=l745>&lt;!ATTLIST TEXTAREA
</span><span id=l746>  %attrs;                              -- %coreattrs, %i18n, %events --
</span><span id=l747>  name        CDATA          #IMPLIED
</span><span id=l748>  rows        NUMBER         #REQUIRED
</span><span id=l749>  cols        NUMBER         #REQUIRED
</span><span id=l750>  disabled    (disabled)     #IMPLIED  -- unavailable in this context --
</span><span id=l751>  readonly    (readonly)     #IMPLIED
</span><span id=l752>  tabindex    NUMBER         #IMPLIED  -- position in tabbing order --
</span><span id=l753>  accesskey   %Character;    #IMPLIED  -- accessibility key character --
</span><span id=l754>  onfocus     %Script;       #IMPLIED  -- the element got the focus --
</span><span id=l755>  onblur      %Script;       #IMPLIED  -- the element lost the focus --
</span><span id=l756>  onselect    %Script;       #IMPLIED  -- some text was selected --
</span><span id=l757>  onchange    %Script;       #IMPLIED  -- the element value was changed --
</span><span id=l758>  %reserved;                           -- reserved for possible future use --
</span><span id=l759>  &gt;
</span><span id=l760>
</span><span id=l761>&lt;!--
</span><span id=l762>  #PCDATA is to solve the mixed content problem,
</span><span id=l763>  per specification only whitespace is allowed there!
</span><span id=l764> --&gt;
</span><span id=l765>&lt;!ELEMENT FIELDSET - - (#PCDATA,LEGEND,(%flow;)*) -- form control group --&gt;
</span><span id=l766>&lt;!ATTLIST FIELDSET
</span><span id=l767>  %attrs;                              -- %coreattrs, %i18n, %events --
</span><span id=l768>  &gt;
</span><span id=l769>
</span><span id=l770>&lt;!ELEMENT LEGEND - - (%inline;)*       -- fieldset legend --&gt;
</span><span id=l771>&lt;!ENTITY % LAlign &quot;(top|bottom|left|right)&quot;&gt;
</span><span id=l772>
</span><span id=l773>&lt;!ATTLIST LEGEND
</span><span id=l774>  %attrs;                              -- %coreattrs, %i18n, %events --
</span><span id=l775>  accesskey   %Character;    #IMPLIED  -- accessibility key character --
</span><span id=l776>  align       %LAlign;       #IMPLIED  -- relative to fieldset --
</span><span id=l777>  &gt;
</span><span id=l778>
</span><span id=l779>&lt;!ELEMENT BUTTON - -
</span><span id=l780>     (%flow;)* -(A|%formctrl;|FORM|ISINDEX|FIELDSET|IFRAME)
</span><span id=l781>     -- push button --&gt;
</span><span id=l782>&lt;!ATTLIST BUTTON
</span><span id=l783>  %attrs;                              -- %coreattrs, %i18n, %events --
</span><span id=l784>  name        CDATA          #IMPLIED
</span><span id=l785>  value       CDATA          #IMPLIED  -- sent to server when submitted --
</span><span id=l786>  type        (button|submit|reset) submit -- for use as form button --
</span><span id=l787>  disabled    (disabled)     #IMPLIED  -- unavailable in this context --
</span><span id=l788>  tabindex    NUMBER         #IMPLIED  -- position in tabbing order --
</span><span id=l789>  accesskey   %Character;    #IMPLIED  -- accessibility key character --
</span><span id=l790>  onfocus     %Script;       #IMPLIED  -- the element got the focus --
</span><span id=l791>  onblur      %Script;       #IMPLIED  -- the element lost the focus --
</span><span id=l792>  %reserved;                           -- reserved for possible future use --
</span><span id=l793>  &gt;
</span><span id=l794>
</span><span id=l795>&lt;!--======================= Tables =======================================--&gt;
</span><span id=l796>
</span><span id=l797>&lt;!-- IETF HTML table standard, see [RFC1942] --&gt;
</span><span id=l798>
</span><span id=l799>&lt;!--
</span><span id=l800> The BORDER attribute sets the thickness of the frame around the
</span><span id=l801> table. The default units are screen pixels.
</span><span id=l802>
</span><span id=l803> The FRAME attribute specifies which parts of the frame around
</span><span id=l804> the table should be rendered. The values are not the same as
</span><span id=l805> CALS to avoid a name clash with the VALIGN attribute.
</span><span id=l806>
</span><span id=l807> The value &quot;border&quot; is included for backwards compatibility with
</span><span id=l808> &lt;TABLE BORDER&gt; which yields frame=border and border=implied
</span><span id=l809> For &lt;TABLE BORDER=1&gt; you get border=1 and frame=implied. In this
</span><span id=l810> case, it is appropriate to treat this as frame=border for backwards
</span><span id=l811> compatibility with deployed browsers.
</span><span id=l812>--&gt;
</span><span id=l813>&lt;!ENTITY % TFrame &quot;(void|above|below|hsides|lhs|rhs|vsides|box|border)&quot;&gt;
</span><span id=l814>
</span><span id=l815>&lt;!--
</span><span id=l816> The RULES attribute defines which rules to draw between cells:
</span><span id=l817>
</span><span id=l818> If RULES is absent then assume:
</span><span id=l819>     &quot;none&quot; if BORDER is absent or BORDER=0 otherwise &quot;all&quot;
</span><span id=l820>--&gt;
</span><span id=l821>
</span><span id=l822>&lt;!ENTITY % TRules &quot;(none | groups | rows | cols | all)&quot;&gt;
</span><span id=l823>
</span><span id=l824>&lt;!-- horizontal placement of table relative to document --&gt;
</span><span id=l825>&lt;!ENTITY % TAlign &quot;(left|center|right)&quot;&gt;
</span><span id=l826>
</span><span id=l827>&lt;!-- horizontal alignment attributes for cell contents --&gt;
</span><span id=l828>&lt;!ENTITY % cellhalign
</span><span id=l829>  &quot;align      (left|center|right|justify|char) #IMPLIED
</span><span id=l830>   char       %Character;    #IMPLIED  -- alignment char, e.g. char=&#39;:&#39; --
</span><span id=l831>   charoff    %Length;       #IMPLIED  -- offset for alignment char --&quot;
</span><span id=l832>  &gt;
</span><span id=l833>
</span><span id=l834>&lt;!-- vertical alignment attributes for cell contents --&gt;
</span><span id=l835>&lt;!ENTITY % cellvalign
</span><span id=l836>  &quot;valign     (top|middle|bottom|baseline) #IMPLIED&quot;
</span><span id=l837>  &gt;
</span><span id=l838>
</span><span id=l839>&lt;!ELEMENT TABLE - -
</span><span id=l840>     (CAPTION?, (COL*|COLGROUP*), THEAD?, TFOOT?, TBODY+)&gt;
</span><span id=l841>&lt;!ELEMENT CAPTION  - - (%inline;)*     -- table caption --&gt;
</span><span id=l842>&lt;!ELEMENT THEAD    - O (TR)+           -- table header --&gt;
</span><span id=l843>&lt;!ELEMENT TFOOT    - O (TR)+           -- table footer --&gt;
</span><span id=l844>&lt;!ELEMENT TBODY    O O (TR)+           -- table body --&gt;
</span><span id=l845>&lt;!ELEMENT COLGROUP - O (COL)*          -- table column group --&gt;
</span><span id=l846>&lt;!ELEMENT COL      - O EMPTY           -- table column --&gt;
</span><span id=l847>&lt;!ELEMENT TR       - O (TH|TD)+        -- table row --&gt;
</span><span id=l848>&lt;!ELEMENT (TH|TD)  - O (%flow;)*       -- table header cell, table data cell--&gt;
</span><span id=l849>
</span><span id=l850>&lt;!ATTLIST TABLE                        -- table element --
</span><span id=l851>  %attrs;                              -- %coreattrs, %i18n, %events --
</span><span id=l852>  summary     %Text;         #IMPLIED  -- purpose/structure for speech output--
</span><span id=l853>  width       %Length;       #IMPLIED  -- table width --
</span><span id=l854>  border      %Pixels;       #IMPLIED  -- controls frame width around table --
</span><span id=l855>  frame       %TFrame;       #IMPLIED  -- which parts of frame to render --
</span><span id=l856>  rules       %TRules;       #IMPLIED  -- rulings between rows and cols --
</span><span id=l857>  cellspacing %Length;       #IMPLIED  -- spacing between cells --
</span><span id=l858>  cellpadding %Length;       #IMPLIED  -- spacing within cells --
</span><span id=l859>  align       %TAlign;       #IMPLIED  -- table position relative to window --
</span><span id=l860>  bgcolor     %Color;        #IMPLIED  -- background color for cells --
</span><span id=l861>  %reserved;                           -- reserved for possible future use --
</span><span id=l862>  datapagesize CDATA         #IMPLIED  -- reserved for possible future use --
</span><span id=l863>  &gt;
</span><span id=l864>
</span><span id=l865>&lt;!ENTITY % CAlign &quot;(top|bottom|left|right)&quot;&gt;
</span><span id=l866>
</span><span id=l867>&lt;!ATTLIST CAPTION
</span><span id=l868>  %attrs;                              -- %coreattrs, %i18n, %events --
</span><span id=l869>  align       %CAlign;       #IMPLIED  -- relative to table --
</span><span id=l870>  &gt;
</span><span id=l871>
</span><span id=l872>&lt;!--
</span><span id=l873>COLGROUP groups a set of COL elements. It allows you to group
</span><span id=l874>several semantically related columns together.
</span><span id=l875>--&gt;
</span><span id=l876>&lt;!ATTLIST COLGROUP
</span><span id=l877>  %attrs;                              -- %coreattrs, %i18n, %events --
</span><span id=l878>  span        NUMBER         1         -- default number of columns in group --
</span><span id=l879>  width       %MultiLength;  #IMPLIED  -- default width for enclosed COLs --
</span><span id=l880>  %cellhalign;                         -- horizontal alignment in cells --
</span><span id=l881>  %cellvalign;                         -- vertical alignment in cells --
</span><span id=l882>  &gt;
</span><span id=l883>
</span><span id=l884>&lt;!--
</span><span id=l885> COL elements define the alignment properties for cells in
</span><span id=l886> one or more columns.
</span><span id=l887>
</span><span id=l888> The WIDTH attribute specifies the width of the columns, e.g.
</span><span id=l889>
</span><span id=l890>     width=64        width in screen pixels
</span><span id=l891>     width=0.5*      relative width of 0.5
</span><span id=l892>
</span><span id=l893> The SPAN attribute causes the attributes of one
</span><span id=l894> COL element to apply to more than one column.
</span><span id=l895>--&gt;
</span><span id=l896>&lt;!ATTLIST COL                          -- column groups and properties --
</span><span id=l897>  %attrs;                              -- %coreattrs, %i18n, %events --
</span><span id=l898>  span        NUMBER         1         -- COL attributes affect N columns --
</span><span id=l899>  width       %MultiLength;  #IMPLIED  -- column width specification --
</span><span id=l900>  %cellhalign;                         -- horizontal alignment in cells --
</span><span id=l901>  %cellvalign;                         -- vertical alignment in cells --
</span><span id=l902>  &gt;
</span><span id=l903>
</span><span id=l904>&lt;!--
</span><span id=l905>    Use THEAD to duplicate headers when breaking table
</span><span id=l906>    across page boundaries, or for static headers when
</span><span id=l907>    TBODY sections are rendered in scrolling panel.
</span><span id=l908>
</span><span id=l909>    Use TFOOT to duplicate footers when breaking table
</span><span id=l910>    across page boundaries, or for static footers when
</span><span id=l911>    TBODY sections are rendered in scrolling panel.
</span><span id=l912>
</span><span id=l913>    Use multiple TBODY sections when rules are needed
</span><span id=l914>    between groups of table rows.
</span><span id=l915>--&gt;
</span><span id=l916>&lt;!ATTLIST (THEAD|TBODY|TFOOT)          -- table section --
</span><span id=l917>  %attrs;                              -- %coreattrs, %i18n, %events --
</span><span id=l918>  %cellhalign;                         -- horizontal alignment in cells --
</span><span id=l919>  %cellvalign;                         -- vertical alignment in cells --
</span><span id=l920>  &gt;
</span><span id=l921>
</span><span id=l922>&lt;!ATTLIST TR                           -- table row --
</span><span id=l923>  %attrs;                              -- %coreattrs, %i18n, %events --
</span><span id=l924>  %cellhalign;                         -- horizontal alignment in cells --
</span><span id=l925>  %cellvalign;                         -- vertical alignment in cells --
</span><span id=l926>  bgcolor     %Color;        #IMPLIED  -- background color for row --
</span><span id=l927>  &gt;
</span><span id=l928>
</span><span id=l929>
</span><span id=l930>&lt;!-- Scope is simpler than headers attribute for common tables --&gt;
</span><span id=l931>&lt;!ENTITY % Scope &quot;(row|col|rowgroup|colgroup)&quot;&gt;
</span><span id=l932>
</span><span id=l933>&lt;!-- TH is for headers, TD for data, but for cells acting as both use TD --&gt;
</span><span id=l934>&lt;!ATTLIST (TH|TD)                      -- header or data cell --
</span><span id=l935>  %attrs;                              -- %coreattrs, %i18n, %events --
</span><span id=l936>  abbr        %Text;         #IMPLIED  -- abbreviation for header cell --
</span><span id=l937>  axis        CDATA          #IMPLIED  -- comma-separated list of related headers--
</span><span id=l938>  headers     IDREFS         #IMPLIED  -- list of id&#39;s for header cells --
</span><span id=l939>  scope       %Scope;        #IMPLIED  -- scope covered by header cells --
</span><span id=l940>  rowspan     NUMBER         1         -- number of rows spanned by cell --
</span><span id=l941>  colspan     NUMBER         1         -- number of cols spanned by cell --
</span><span id=l942>  %cellhalign;                         -- horizontal alignment in cells --
</span><span id=l943>  %cellvalign;                         -- vertical alignment in cells --
</span><span id=l944>  nowrap      (nowrap)       #IMPLIED  -- suppress word wrap --
</span><span id=l945>  bgcolor     %Color;        #IMPLIED  -- cell background color --
</span><span id=l946>  width       %Length;       #IMPLIED  -- width for cell --
</span><span id=l947>  height      %Length;       #IMPLIED  -- height for cell --
</span><span id=l948>  &gt;
</span><span id=l949>
</span><span id=l950>&lt;!--================== Document Frames ===================================--&gt;
</span><span id=l951>
</span><span id=l952>&lt;!--
</span><span id=l953>  The content model for HTML documents depends on whether the HEAD is
</span><span id=l954>  followed by a FRAMESET or BODY element. The widespread omission of
</span><span id=l955>  the BODY start tag makes it impractical to define the content model
</span><span id=l956>  without the use of a marked section.
</span><span id=l957>--&gt;
</span><span id=l958>
</span><span id=l959>&lt;![ %HTML.Frameset; [
</span><span id=l960>&lt;!ELEMENT FRAMESET - - ((FRAMESET|FRAME)+ &amp; NOFRAMES?) -- window subdivision--&gt;
</span><span id=l961>&lt;!ATTLIST FRAMESET
</span><span id=l962>  %coreattrs;                          -- id, class, style, title --
</span><span id=l963>  rows        %MultiLengths; #IMPLIED  -- list of lengths,
</span><span id=l964>                                          default: 100% (1 row) --
</span><span id=l965>  cols        %MultiLengths; #IMPLIED  -- list of lengths,
</span><span id=l966>                                          default: 100% (1 col) --
</span><span id=l967>  onload      %Script;       #IMPLIED  -- all the frames have been loaded  --
</span><span id=l968>  onunload    %Script;       #IMPLIED  -- all the frames have been removed --
</span><span id=l969>  &gt;
</span><span id=l970>]]&gt;
</span><span id=l971>
</span><span id=l972>&lt;![ %HTML.Frameset; [
</span><span id=l973>&lt;!-- reserved frame names start with &quot;_&quot; otherwise starts with letter --&gt;
</span><span id=l974>&lt;!ELEMENT FRAME - O EMPTY              -- subwindow --&gt;
</span><span id=l975>&lt;!ATTLIST FRAME
</span><span id=l976>  %coreattrs;                          -- id, class, style, title --
</span><span id=l977>  longdesc    %URI;          #IMPLIED  -- link to long description
</span><span id=l978>                                          (complements title) --
</span><span id=l979>  name        CDATA          #IMPLIED  -- name of frame for targetting --
</span><span id=l980>  src         %URI;          #IMPLIED  -- source of frame content --
</span><span id=l981>  frameborder (1|0)          1         -- request frame borders? --
</span><span id=l982>  marginwidth %Pixels;       #IMPLIED  -- margin widths in pixels --
</span><span id=l983>  marginheight %Pixels;      #IMPLIED  -- margin height in pixels --
</span><span id=l984>  noresize    (noresize)     #IMPLIED  -- allow users to resize frames? --
</span><span id=l985>  scrolling   (yes|no|auto)  auto      -- scrollbar or none --
</span><span id=l986>  &gt;
</span><span id=l987>]]&gt;
</span><span id=l988>
</span><span id=l989>&lt;!ELEMENT IFRAME - - (%flow;)*         -- inline subwindow --&gt;
</span><span id=l990>&lt;!ATTLIST IFRAME
</span><span id=l991>  %coreattrs;                          -- id, class, style, title --
</span><span id=l992>  longdesc    %URI;          #IMPLIED  -- link to long description
</span><span id=l993>                                          (complements title) --
</span><span id=l994>  name        CDATA          #IMPLIED  -- name of frame for targetting --
</span><span id=l995>  src         %URI;          #IMPLIED  -- source of frame content --
</span><span id=l996>  frameborder (1|0)          1         -- request frame borders? --
</span><span id=l997>  marginwidth %Pixels;       #IMPLIED  -- margin widths in pixels --
</span><span id=l998>  marginheight %Pixels;      #IMPLIED  -- margin height in pixels --
</span><span id=l999>  scrolling   (yes|no|auto)  auto      -- scrollbar or none --
</span><span id=l1000>  align       %IAlign;       #IMPLIED  -- vertical or horizontal alignment --
</span><span id=l1001>  height      %Length;       #IMPLIED  -- frame height --
</span><span id=l1002>  width       %Length;       #IMPLIED  -- frame width --
</span><span id=l1003>  &gt;
</span><span id=l1004>
</span><span id=l1005>&lt;![ %HTML.Frameset; [
</span><span id=l1006>&lt;!ENTITY % noframes.content &quot;(BODY) -(NOFRAMES)&quot;&gt;
</span><span id=l1007>]]&gt;
</span><span id=l1008>
</span><span id=l1009>&lt;!ENTITY % noframes.content &quot;(%flow;)*&quot;&gt;
</span><span id=l1010>
</span><span id=l1011>&lt;!ELEMENT NOFRAMES - - %noframes.content;
</span><span id=l1012> -- alternate content container for non frame-based rendering --&gt;
</span><span id=l1013>&lt;!ATTLIST NOFRAMES
</span><span id=l1014>  %attrs;                              -- %coreattrs, %i18n, %events --
</span><span id=l1015>  &gt;
</span><span id=l1016>
</span><span id=l1017>&lt;!--================ Document Head =======================================--&gt;
</span><span id=l1018>&lt;!-- %head.misc; defined earlier on as &quot;SCRIPT|STYLE|META|LINK|OBJECT&quot; --&gt;
</span><span id=l1019>&lt;!ENTITY % head.content &quot;TITLE &amp; ISINDEX? &amp; BASE?&quot;&gt;
</span><span id=l1020>
</span><span id=l1021>&lt;!ELEMENT HEAD O O (%head.content;) +(%head.misc;) -- document head --&gt;
</span><span id=l1022>&lt;!ATTLIST HEAD
</span><span id=l1023>  %i18n;                               -- lang, dir --
</span><span id=l1024>  profile     %URI;          #IMPLIED  -- named dictionary of meta info --
</span><span id=l1025>  &gt;
</span><span id=l1026>
</span><span id=l1027>&lt;!-- The TITLE element is not considered part of the flow of text.
</span><span id=l1028>       It should be displayed, for example as the page header or
</span><span id=l1029>       window title. Exactly one title is required per document.
</span><span id=l1030>    --&gt;
</span><span id=l1031>&lt;!ELEMENT TITLE - - (#PCDATA) -(%head.misc;) -- document title --&gt;
</span><span id=l1032>&lt;!ATTLIST TITLE %i18n&gt;
</span><span id=l1033>
</span><span id=l1034>&lt;!ELEMENT ISINDEX - O EMPTY            -- single line prompt --&gt;
</span><span id=l1035>&lt;!ATTLIST ISINDEX
</span><span id=l1036>  %coreattrs;                          -- id, class, style, title --
</span><span id=l1037>  %i18n;                               -- lang, dir --
</span><span id=l1038>  prompt      %Text;         #IMPLIED  -- prompt message --&gt;
</span><span id=l1039>
</span><span id=l1040>&lt;!ELEMENT BASE - O EMPTY               -- document base URI --&gt;
</span><span id=l1041>&lt;!ATTLIST BASE
</span><span id=l1042>  href        %URI;          #IMPLIED  -- URI that acts as base URI --
</span><span id=l1043>  target      %FrameTarget;  #IMPLIED  -- render in this frame --
</span><span id=l1044>  &gt;
</span><span id=l1045>
</span><span id=l1046>&lt;!ELEMENT META - O EMPTY               -- generic metainformation --&gt;
</span><span id=l1047>&lt;!ATTLIST META
</span><span id=l1048>  %i18n;                               -- lang, dir, for use with content --
</span><span id=l1049>  http-equiv  NAME           #IMPLIED  -- HTTP response header name  --
</span><span id=l1050>  name        NAME           #IMPLIED  -- metainformation name --
</span><span id=l1051>  content     CDATA          #REQUIRED -- associated information --
</span><span id=l1052>  scheme      CDATA          #IMPLIED  -- select form of content --
</span><span id=l1053>  &gt;
</span><span id=l1054>
</span><span id=l1055>&lt;!ELEMENT STYLE - - %StyleSheet        -- style info --&gt;
</span><span id=l1056>&lt;!ATTLIST STYLE
</span><span id=l1057>  %i18n;                               -- lang, dir, for use with title --
</span><span id=l1058>  type        %ContentType;  #REQUIRED -- content type of style language --
</span><span id=l1059>  media       %MediaDesc;    #IMPLIED  -- designed for use with these media --
</span><span id=l1060>  title       %Text;         #IMPLIED  -- advisory title --
</span><span id=l1061>  &gt;
</span><span id=l1062>
</span><span id=l1063>&lt;!ELEMENT SCRIPT - - %Script;          -- script statements --&gt;
</span><span id=l1064>&lt;!ATTLIST SCRIPT
</span><span id=l1065>  charset     %Charset;      #IMPLIED  -- char encoding of linked resource --
</span><span id=l1066>  type        %ContentType;  #REQUIRED -- content type of script language --
</span><span id=l1067>  language    CDATA          #IMPLIED  -- predefined script language name --
</span><span id=l1068>  src         %URI;          #IMPLIED  -- URI for an external script --
</span><span id=l1069>  defer       (defer)        #IMPLIED  -- UA may defer execution of script --
</span><span id=l1070>  event       CDATA          #IMPLIED  -- reserved for possible future use --
</span><span id=l1071>  for         %URI;          #IMPLIED  -- reserved for possible future use --
</span><span id=l1072>  &gt;
</span><span id=l1073>
</span><span id=l1074>&lt;!ELEMENT NOSCRIPT - - (%flow;)*
</span><span id=l1075>  -- alternate content container for non script-based rendering --&gt;
</span><span id=l1076>&lt;!ATTLIST NOSCRIPT
</span><span id=l1077>  %attrs;                              -- %coreattrs, %i18n, %events --
</span><span id=l1078>  &gt;
</span><span id=l1079>
</span><span id=l1080>&lt;!--================ Document Structure ==================================--&gt;
</span><span id=l1081>&lt;!ENTITY % version &quot;version CDATA #FIXED &#39;%HTML.Version;&#39;&quot;&gt;
</span><span id=l1082>
</span><span id=l1083>&lt;![ %HTML.Frameset; [
</span><span id=l1084>&lt;!ENTITY % html.content &quot;HEAD, FRAMESET&quot;&gt;
</span><span id=l1085>]]&gt;
</span><span id=l1086>
</span><span id=l1087>&lt;!ENTITY % html.content &quot;HEAD, BODY&quot;&gt;
</span><span id=l1088>
</span><span id=l1089>&lt;!ELEMENT HTML O O (%html.content;)    -- document root element --&gt;
</span><span id=l1090>&lt;!ATTLIST HTML
</span><span id=l1091>  %i18n;                               -- lang, dir --
</span><span id=l1092>  %version;
</span><span id=l1093>  &gt;
</span></pre></td></tr></table><table cellspacing=0 cellpadding=0 border=0 width=100%><tr height=1 bgcolor=#000000><td bgcolor=#000000 colspan=3></td></tr><tr height=10><td></td></tr><tr><td><font size=-1><code class=fn>mozilla_tidy_source/tidy_extension/xpi/sgml-lib/sgml.dtd</code> from<br><span class="a"><a href="codesearch/url?hl=en&ct=rpc&url=http://users.skynet.be/mgueury/mozilla/tidy_08x_source.zip&usg=AFQjCNFecLonw5eEXUaOOFUc28sq6tFk9w">http://users.skynet.be/mgueury/mozilla/tidy_08x_source.zip</a></span> - <span class="a">Unknown License</span><br><br></font></tr></tr></table></body></html>