<module relaxCoreVersion="1.0" xmlns="http://www.xml.gr.jp/xmlns/relaxCore"
  moduleVersion="$Id: xhtml-full-ruby-1.rxm,v 1.2 2001/05/30 00:38:43 mimasa Exp $"
  targetNamespace="http://www.w3.org/1999/xhtml">

  <annotation>
    <documentation>
      XHTML Ruby Module in RELAX for full ruby markup
    </documentation>
  </annotation>

  <include moduleLocation="xhtml-ruby-1.rxm"/>

  <hedgeRule label="Ruby.content">
    <annotation>
      <documentation>
        Allow complex ruby markup in addition to simple ruby markup
      </documentation>
    </annotation>

    <hedgeRef label="Ruby.content.complex"/>
  </hedgeRule>

</module>
