<?xml version='1.0'?>
<!DOCTYPE collation SYSTEM 'collationreg.dtd'>
<collation rfc="XXXX" scope="global" intendedUse="limited">
  <identifier>i;octet</identifier>
  <title>Octet</title>
  <operations>equality order substring</operations>
  <specification>RFC4790</specification>
  <owner>IETF</owner>
  <submitter>chris.newman&amp;sun.com</submitter>
</collation>