-- 
PUBLIC "+//IDN math.oheya.to//SD HTML-XHTML//EN"
SYSTEM "http://math.oheya.to/dtd/geo/html-xhtml.sd"

Revision: See "http://www.geocities.co.jp/Hollywood-Studio/8691/#revision"
Editor: Satoshi ISHIKAWA <pastelsbadges@nyc.odn.ne.jp>
--

"ISO 8879:1986 (WWW)"

     CHARSET
         BASESET
             "ISO Registration Number 177//CHARSET
              ISO/IEC 10646-1:1993 UCS-4 with implementation
              level 3//ESC 2/5 2/15 4/6"
         DESCSET
                 0        9  UNUSED
                 9        2       9
                11        2  UNUSED
                13        1      13
                14       18  UNUSED
                32       95      32
               127        1  UNUSED
               128       32  UNUSED
               160    55136     160
             55296     2048  UNUSED
             57344     8190   57344
             65534        2  UNUSED
             65536  1048576   65536

     CAPACITY NONE

     SCOPE DOCUMENT

     SYNTAX
         SHUNCHAR NONE
         BASESET "ISO Registration Number 177//CHARSET
                  ISO/IEC 10646-1:1993 UCS-4 with implementation
                  level 3//ESC 2/5 2/15 4/6"
         DESCSET
             0 1114112 0
         FUNCTION
             RE    13
             RS    10
             SPACE 32
             TAB   SEPCHAR 9
         NAMING
             LCNMSTRT ""
             UCNMSTRT ""
             LCNMCHAR "#-./:_"
             UCNMCHAR "#-./:_"
             NAMECASE
                 GENERAL YES
                 ENTITY  NO
         DELIM
             GENERAL  SGMLREF
             HCRO     "&#38;#x"
             NESTC    "/"
             NET      ">"
             PIC      "?>"
             SHORTREF NONE

         NAMES
             SGMLREF

         QUANTITY
             NONE

     FEATURES
         MINIMIZE
             DATATAG NO
             OMITTAG YES
             RANK    NO
             SHORTTAG
                 STARTTAG
                     EMPTY    NO
                     UNCLOSED NO
                     NETENABL IMMEDNET
                 ENDTAG
                     EMPTY    NO
                     UNCLOSED NO
                 ATTRIB
                     DEFAULT  YES
                     OMITNAME YES
                     VALUE    YES
             EMPTYNRM  YES
             IMPLYDEF
                 ATTLIST  NO
                 DOCTYPE  NO
                 ELEMENT  NO
                 ENTITY   NO
                 NOTATION NO
         LINK
             SIMPLE   NO
             IMPLICIT NO
             EXPLICIT NO
         OTHER
             CONCUR   NO
             SUBDOC   NO
             FORMAL   NO
             URN      NO
             KEEPRSRE YES
             VALIDITY TYPE
             ENTITIES
                 REF      ANY
                 INTEGRAL YES

     APPINFO NONE

     SEEALSO NONE

-- The end. --